%!PS-Adobe-3.0 EPSF-3.0
%%Creator: cairo 1.16.0 (https://cairographics.org)
%%CreationDate: Wed Sep 30 18:03:03 2020
%%Pages: 1
%%DocumentData: Clean7Bit
%%LanguageLevel: 3
%%BoundingBox: 18 7 50 245
%%EndComments
%%BeginProlog
50 dict begin
/q { gsave } bind def
/Q { grestore } bind def
/cm { 6 array astore concat } bind def
/w { setlinewidth } bind def
/J { setlinecap } bind def
/j { setlinejoin } bind def
/M { setmiterlimit } bind def
/d { setdash } bind def
/m { moveto } bind def
/l { lineto } bind def
/c { curveto } bind def
/h { closepath } bind def
/re { exch dup neg 3 1 roll 5 3 roll moveto 0 rlineto
      0 exch rlineto 0 rlineto closepath } bind def
/S { stroke } bind def
/f { fill } bind def
/f* { eofill } bind def
/n { newpath } bind def
/W { clip } bind def
/W* { eoclip } bind def
/BT { } bind def
/ET { } bind def
/BDC { mark 3 1 roll /BDC pdfmark } bind def
/EMC { mark /EMC pdfmark } bind def
/cairo_store_point { /cairo_point_y exch def /cairo_point_x exch def } def
/Tj { show currentpoint cairo_store_point } bind def
/TJ {
  {
    dup
    type /stringtype eq
    { show } { -0.001 mul 0 cairo_font_matrix dtransform rmoveto } ifelse
  } forall
  currentpoint cairo_store_point
} bind def
/cairo_selectfont { cairo_font_matrix aload pop pop pop 0 0 6 array astore
    cairo_font exch selectfont cairo_point_x cairo_point_y moveto } bind def
/Tf { pop /cairo_font exch def /cairo_font_matrix where
      { pop cairo_selectfont } if } bind def
/Td { matrix translate cairo_font_matrix matrix concatmatrix dup
      /cairo_font_matrix exch def dup 4 get exch 5 get cairo_store_point
      /cairo_font where { pop cairo_selectfont } if } bind def
/Tm { 2 copy 8 2 roll 6 array astore /cairo_font_matrix exch def
      cairo_store_point /cairo_font where { pop cairo_selectfont } if } bind def
/g { setgray } bind def
/rg { setrgbcolor } bind def
/d1 { setcachedevice } bind def
/cairo_data_source {
  CairoDataIndex CairoData length lt
    { CairoData CairoDataIndex get /CairoDataIndex CairoDataIndex 1 add def }
    { () } ifelse
} def
/cairo_flush_ascii85_file { cairo_ascii85_file status { cairo_ascii85_file flushfile } if } def
/cairo_image { image cairo_flush_ascii85_file } def
/cairo_imagemask { imagemask cairo_flush_ascii85_file } def
%%EndProlog
%%BeginSetup
%%EndSetup
%%Page: 1 1
%%BeginPageSetup
%%PageBoundingBox: 18 7 50 245
%%EndPageSetup
q 18 7 32 238 rectclip
1 0 0 -1 0 251 cm q
q
42.008 144.184 m 46.742 137.125 l 46.742 123.953 l 23.043 123.953 l 23.043
 137.125 l 27.777 144.184 l W* n
[0.509432 0 0 0.509432 -38.15636 -190.734135] concat
/CairoFunction
<< /FunctionType 3
   /Domain [ 0 1 ]
   /Functions [
   << /FunctionType 2
      /Domain [ 0 1 ]
      /C0 [ 0.894118 0.894118 0.894118 ]
      /C1 [ 0.976471 0.976471 0.976471 ]
      /N 1
   >>
   << /FunctionType 2
      /Domain [ 0 1 ]
      /C0 [ 0.976471 0.976471 0.976471 ]
      /C1 [ 0.878431 0.878431 0.878431 ]
      /N 1
   >>
   ]
   /Bounds [ 0.652778 ]
   /Encode [ 1 1 2 { pop 0 1 } for ]
>>
def
   << /ShadingType 2
      /ColorSpace /DeviceRGB
      /Coords [ 128.928558 670.576477 157.857132 670.576477 ]
      /Extend [ true true ]
      /Function CairoFunction
   >>
shfill
Q
0 g
0.509432 w
0 J
0 j
[] 0.0 d
4 M q 1 0 0 1 0 0 cm
42.008 144.184 m 46.742 137.125 l 46.742 123.953 l 23.043 123.953 l 23.043
 137.125 l 27.777 144.184 l S Q
q
35.984 235.117 m 36.621 235.117 38.895 241.574 38.895 243.488 c 30.891 
243.488 l 30.891 241.574 33.164 235.117 33.801 235.117 c W* n
[0.509432 0 0 0.509432 -37.337636 -190.734135] concat
/CairoFunction
<< /FunctionType 3
   /Domain [ 0 1 ]
   /Functions [
   << /FunctionType 2
      /Domain [ 0 1 ]
      /C0 [ 0.301961 0.301961 0.301961 ]
      /C1 [ 0.415686 0.415686 0.415686 ]
      /N 1
   >>
   << /FunctionType 2
      /Domain [ 0 1 ]
      /C0 [ 0.415686 0.415686 0.415686 ]
      /C1 [ 0.176471 0.176471 0.176471 ]
      /N 1
   >>
   ]
   /Bounds [ 0.625 ]
   /Encode [ 1 1 2 { pop 0 1 } for ]
>>
def
   << /ShadingType 2
      /ColorSpace /DeviceRGB
      /Coords [ 133.428574 844.147949 150.142853 844.147949 ]
      /Extend [ true true ]
      /Function CairoFunction
   >>
shfill
Q
0.509432 w
0 J
0 j
[] 0.0 d
4 M q 1 0 0 1 0 0 cm
35.984 235.117 m 36.621 235.117 38.895 241.574 38.895 243.488 c 30.891 
243.488 l 30.891 241.574 33.164 235.117 33.801 235.117 c S Q
q
42.008 144.184 m 42.008 236.027 l 27.777 236.027 l 27.777 144.184 l W* n
[0.509432 0 0 0.509432 -38.15636 -190.734135] concat
/CairoFunction
<< /FunctionType 3
   /Domain [ 0 1 ]
   /Functions [
   << /FunctionType 2
      /Domain [ 0 1 ]
      /C0 [ 0.258824 0.552941 0.572549 ]
      /C1 [ 0.266667 0.682353 0.705882 ]
      /N 1
   >>
   << /FunctionType 2
      /Domain [ 0 1 ]
      /C0 [ 0.266667 0.682353 0.705882 ]
      /C1 [ 0.329412 0.643137 0.662745 ]
      /N 1
   >>
   ]
   /Bounds [ 0.625 ]
   /Encode [ 1 1 2 { pop 0 1 } for ]
>>
def
   << /ShadingType 2
      /ColorSpace /DeviceRGB
      /Coords [ 128.928558 670.576477 157.857132 670.576477 ]
      /Extend [ true true ]
      /Function CairoFunction
   >>
shfill
Q
0.509432 w
0 J
0 j
[] 0.0 d
4 M q 1 0 0 1 0 0 cm
42.008 144.184 m 42.008 236.027 l 27.777 236.027 l 27.777 144.184 l S Q
q
21.855 235.016 m 21.855 235.016 19.461 239.055 18.969 241.332 c 25.25 242.688
 l 25.738 240.41 25.227 235.742 25.227 235.742 c h
21.855 235.016 m W* n
[0.680563 0.189473 -0.189162 0.679447 80.280121 -362.122273] concat
/CairoFunction
<< /FunctionType 3
   /Domain [ 0 1 ]
   /Functions [
   << /FunctionType 2
      /Domain [ 0 1 ]
      /C0 [ 0.843137 0.843137 0.843137 ]
      /C1 [ 0.992157 0.992157 0.992157 ]
      /N 1
   >>
   << /FunctionType 2
      /Domain [ 0 1 ]
      /C0 [ 0.992157 0.992157 0.992157 ]
      /C1 [ 0.85098 0.85098 0.85098 ]
      /N 1
   >>
   ]
   /Bounds [ 0.625 ]
   /Encode [ 1 1 2 { pop 0 1 } for ]
>>
def
   << /ShadingType 2
      /ColorSpace /DeviceRGB
      /Coords [ 144.982635 842.575073 155.073502 842.575073 ]
      /Extend [ true true ]
      /Function CairoFunction
   >>
shfill
Q
0.558127 w
0 J
0 j
[] 0.0 d
4 M q 1 0.278406 -0.278406 1 0 0 cm
81.006 212.463 m 81.006 212.463 79.828 216.83 79.959 219.071 c 86.139 218.706
 l 86.004 216.466 84.323 212.266 84.323 212.266 c h
81.006 212.463 m S Q
q
23.063 235.371 m 23.063 235.371 21.801 238.789 21.695 240.617 c 26.262 
240.938 l 26.367 239.109 25.512 235.543 25.512 235.543 c h
23.063 235.371 m W* n
[0.632177 0 0 0.696951 -56.206438 -347.609392] concat
/CairoFunction
<< /FunctionType 3
   /Domain [ 0 1 ]
   /Functions [
   << /FunctionType 2
      /Domain [ 0 1 ]
      /C0 [ 0.843137 0.843137 0.843137 ]
      /C1 [ 0.992157 0.992157 0.992157 ]
      /N 1
   >>
   << /FunctionType 2
      /Domain [ 0 1 ]
      /C0 [ 0.992157 0.992157 0.992157 ]
      /C1 [ 0.85098 0.85098 0.85098 ]
      /N 1
   >>
   ]
   /Bounds [ 0.625 ]
   /Encode [ 1 1 2 { pop 0 1 } for ]
>>
def
   << /ShadingType 2
      /ColorSpace /DeviceRGB
      /Coords [ 122.83271 840.4646 130.861328 840.4646 ]
      /Extend [ true true ]
      /Function CairoFunction
   >>
shfill
Q
0.460947 w
0 J
0 j
[] 0.0 d
4 M q 1 0 0 1 0 0 cm
23.063 235.371 m 23.063 235.371 21.801 238.789 21.695 240.617 c 26.262 
240.938 l 26.367 239.109 25.512 235.543 25.512 235.543 c h
23.063 235.371 m S Q
q
37.398 235.855 m 37.398 235.855 36.176 240.391 36.316 242.715 c 42.727 
242.336 l 42.59 240.012 40.84 235.656 40.84 235.656 c h
37.398 235.855 m W* n
[0.706446 0 0 0.705288 -66.471856 -355.072887] concat
/CairoFunction
<< /FunctionType 3
   /Domain [ 0 1 ]
   /Functions [
   << /FunctionType 2
      /Domain [ 0 1 ]
      /C0 [ 0.843137 0.843137 0.843137 ]
      /C1 [ 0.992157 0.992157 0.992157 ]
      /N 1
   >>
   << /FunctionType 2
      /Domain [ 0 1 ]
      /C0 [ 0.992157 0.992157 0.992157 ]
      /C1 [ 0.85098 0.85098 0.85098 ]
      /N 1
   >>
   ]
   /Bounds [ 0.625 ]
   /Encode [ 1 1 2 { pop 0 1 } for ]
>>
def
   << /ShadingType 2
      /ColorSpace /DeviceRGB
      /Coords [ 144.982635 842.575073 155.073502 842.575073 ]
      /Extend [ true true ]
      /Function CairoFunction
   >>
shfill
Q
0.579354 w
0 J
0 j
[] 0.0 d
4 M q 1 0 0 1 0 0 cm
37.398 235.855 m 37.398 235.855 36.176 240.391 36.316 242.715 c 42.727 
242.336 l 42.59 240.012 40.84 235.656 40.84 235.656 c h
37.398 235.855 m S Q
q
27.406 236.367 m 19.914 236.367 l 19.914 171.32 l 19.914 168.59 22.199 
157.418 23.66 157.418 c 25.098 157.418 27.406 168.59 27.406 171.32 c h
27.406 236.367 m W* n
[0.717899 0 0 0.579294 -74.888185 -248.918104] concat
/CairoFunction
<< /FunctionType 3
   /Domain [ 0 1 ]
   /Functions [
   << /FunctionType 2
      /Domain [ 0 1 ]
      /C0 [ 0.843137 0.843137 0.843137 ]
      /C1 [ 0.992157 0.992157 0.992157 ]
      /N 1
   >>
   << /FunctionType 2
      /Domain [ 0 1 ]
      /C0 [ 0.992157 0.992157 0.992157 ]
      /C1 [ 0.85098 0.85098 0.85098 ]
      /N 1
   >>
   ]
   /Bounds [ 0.625 ]
   /Encode [ 1 1 2 { pop 0 1 } for ]
>>
def
   << /ShadingType 2
      /ColorSpace /DeviceRGB
      /Coords [ 131.556107 769.576477 142.989746 769.576477 ]
      /Extend [ true true ]
      /Function CairoFunction
   >>
shfill
Q
0.587506 w
0 J
0 j
[] 0.0 d
4 M q 1 0 0 1 0 0 cm
27.406 236.367 m 19.914 236.367 l 19.914 171.32 l 19.914 168.59 22.199 
157.418 23.66 157.418 c 25.098 157.418 27.406 168.59 27.406 171.32 c h
27.406 236.367 m S Q
q
28.805 236.367 m 21.313 236.367 l 21.313 171.32 l 21.313 168.59 23.598 
157.418 25.059 157.418 c 26.496 157.418 28.805 168.59 28.805 171.32 c h
28.805 236.367 m W* n
[0.717899 0 0 0.579294 -73.490201 -248.918104] concat
/CairoFunction
<< /FunctionType 3
   /Domain [ 0 1 ]
   /Functions [
   << /FunctionType 2
      /Domain [ 0 1 ]
      /C0 [ 0.843137 0.843137 0.843137 ]
      /C1 [ 0.992157 0.992157 0.992157 ]
      /N 1
   >>
   << /FunctionType 2
      /Domain [ 0 1 ]
      /C0 [ 0.992157 0.992157 0.992157 ]
      /C1 [ 0.85098 0.85098 0.85098 ]
      /N 1
   >>
   ]
   /Bounds [ 0.625 ]
   /Encode [ 1 1 2 { pop 0 1 } for ]
>>
def
   << /ShadingType 2
      /ColorSpace /DeviceRGB
      /Coords [ 131.556107 769.576477 142.989746 769.576477 ]
      /Extend [ true true ]
      /Function CairoFunction
   >>
shfill
Q
0.587506 w
0 J
0 j
[] 0.0 d
4 M q 1 0 0 1 0 0 cm
28.805 236.367 m 21.313 236.367 l 21.313 171.32 l 21.313 168.59 23.598 
157.418 25.059 157.418 c 26.496 157.418 28.805 168.59 28.805 171.32 c h
28.805 236.367 m S Q
q
44.219 235.512 m 44.219 235.512 43.719 239.367 44.039 241.297 c 48.863 
240.551 l 48.543 238.625 46.809 235.109 46.809 235.109 c h
44.219 235.512 m W* n
[0.658017 -0.14933 0.164631 0.725438 -175.997149 -352.571469] concat
/CairoFunction
<< /FunctionType 3
   /Domain [ 0 1 ]
   /Functions [
   << /FunctionType 2
      /Domain [ 0 1 ]
      /C0 [ 0.843137 0.843137 0.843137 ]
      /C1 [ 0.992157 0.992157 0.992157 ]
      /N 1
   >>
   << /FunctionType 2
      /Domain [ 0 1 ]
      /C0 [ 0.992157 0.992157 0.992157 ]
      /C1 [ 0.85098 0.85098 0.85098 ]
      /N 1
   >>
   ]
   /Bounds [ 0.625 ]
   /Encode [ 1 1 2 { pop 0 1 } for ]
>>
def
   << /ShadingType 2
      /ColorSpace /DeviceRGB
      /Coords [ 122.83271 840.4646 130.861328 840.4646 ]
      /Extend [ true true ]
      /Function CairoFunction
   >>
shfill
Q
0.479788 w
0 J
0 j
[] 0.0 d
4 M q 1 -0.22694 0.22694 1 0 0 cm
-8.776 233.52 m -8.776 233.52 -10.084 237.079 -10.196 238.983 c -5.447 
239.315 l -5.336 237.414 -6.226 233.696 -6.226 233.696 c h
-8.776 233.52 m S Q
q
48.754 236.367 m 41.266 236.367 l 41.266 171.32 l 41.266 168.59 43.551 
157.418 45.012 157.418 c 46.449 157.418 48.754 168.59 48.754 171.32 c h
48.754 236.367 m W* n
[0.717899 0 0 0.579294 -53.538349 -248.918104] concat
/CairoFunction
<< /FunctionType 3
   /Domain [ 0 1 ]
   /Functions [
   << /FunctionType 2
      /Domain [ 0 1 ]
      /C0 [ 0.843137 0.843137 0.843137 ]
      /C1 [ 0.992157 0.992157 0.992157 ]
      /N 1
   >>
   << /FunctionType 2
      /Domain [ 0 1 ]
      /C0 [ 0.992157 0.992157 0.992157 ]
      /C1 [ 0.85098 0.85098 0.85098 ]
      /N 1
   >>
   ]
   /Bounds [ 0.625 ]
   /Encode [ 1 1 2 { pop 0 1 } for ]
>>
def
   << /ShadingType 2
      /ColorSpace /DeviceRGB
      /Coords [ 131.556107 769.576477 142.989746 769.576477 ]
      /Extend [ true true ]
      /Function CairoFunction
   >>
shfill
Q
0.587506 w
0 J
0 j
[] 0.0 d
4 M q 1 0 0 1 0 0 cm
48.754 236.367 m 41.266 236.367 l 41.266 171.32 l 41.266 168.59 43.551 
157.418 45.012 157.418 c 46.449 157.418 48.754 168.59 48.754 171.32 c h
48.754 236.367 m S Q
q
42.953 236.367 m 35.465 236.367 l 35.465 171.32 l 35.465 168.59 37.75 157.418
 39.207 157.418 c 40.648 157.418 42.953 168.59 42.953 171.32 c h
42.953 236.367 m W* n
[0.717899 0 0 0.579294 -59.339256 -248.918104] concat
/CairoFunction
<< /FunctionType 3
   /Domain [ 0 1 ]
   /Functions [
   << /FunctionType 2
      /Domain [ 0 1 ]
      /C0 [ 0.843137 0.843137 0.843137 ]
      /C1 [ 0.992157 0.992157 0.992157 ]
      /N 1
   >>
   << /FunctionType 2
      /Domain [ 0 1 ]
      /C0 [ 0.992157 0.992157 0.992157 ]
      /C1 [ 0.85098 0.85098 0.85098 ]
      /N 1
   >>
   ]
   /Bounds [ 0.625 ]
   /Encode [ 1 1 2 { pop 0 1 } for ]
>>
def
   << /ShadingType 2
      /ColorSpace /DeviceRGB
      /Coords [ 131.556107 769.576477 142.989746 769.576477 ]
      /Extend [ true true ]
      /Function CairoFunction
   >>
shfill
Q
0.587506 w
0 J
0 j
[] 0.0 d
4 M q 1 0 0 1 0 0 cm
42.953 236.367 m 35.465 236.367 l 35.465 171.32 l 35.465 168.59 37.75 157.418
 39.207 157.418 c 40.648 157.418 42.953 168.59 42.953 171.32 c h
42.953 236.367 m S Q
q
29.496 235.418 m 29.496 235.418 28.402 238.895 28.387 240.727 c 32.957 
240.828 l 32.977 238.996 31.949 235.473 31.949 235.473 c h
29.496 235.418 m W* n
[0.631447 -0.0303757 0.033488 0.696146 -77.692357 -343.076916] concat
/CairoFunction
<< /FunctionType 3
   /Domain [ 0 1 ]
   /Functions [
   << /FunctionType 2
      /Domain [ 0 1 ]
      /C0 [ 0.843137 0.843137 0.843137 ]
      /C1 [ 0.992157 0.992157 0.992157 ]
      /N 1
   >>
   << /FunctionType 2
      /Domain [ 0 1 ]
      /C0 [ 0.992157 0.992157 0.992157 ]
      /C1 [ 0.85098 0.85098 0.85098 ]
      /N 1
   >>
   ]
   /Bounds [ 0.625 ]
   /Encode [ 1 1 2 { pop 0 1 } for ]
>>
def
   << /ShadingType 2
      /ColorSpace /DeviceRGB
      /Coords [ 122.83271 840.4646 130.861328 840.4646 ]
      /Extend [ true true ]
      /Function CairoFunction
   >>
shfill
Q
0.460415 w
0 J
0 j
[] 0.0 d
4 M q 1 -0.0481049 0.0481049 1 0 0 cm
18.129 236.29 m 18.129 236.29 16.871 239.706 16.768 241.533 c 21.323 241.854
 l 21.43 240.027 20.574 236.462 20.574 236.462 c h
18.129 236.29 m S Q
q
34.598 236.367 m 27.105 236.367 l 27.105 171.32 l 27.105 168.59 29.391 
157.418 30.852 157.418 c 32.289 157.418 34.598 168.59 34.598 171.32 c h
34.598 236.367 m W* n
[0.717899 0 0 0.579294 -67.696665 -248.918104] concat
/CairoFunction
<< /FunctionType 3
   /Domain [ 0 1 ]
   /Functions [
   << /FunctionType 2
      /Domain [ 0 1 ]
      /C0 [ 0.843137 0.843137 0.843137 ]
      /C1 [ 0.992157 0.992157 0.992157 ]
      /N 1
   >>
   << /FunctionType 2
      /Domain [ 0 1 ]
      /C0 [ 0.992157 0.992157 0.992157 ]
      /C1 [ 0.85098 0.85098 0.85098 ]
      /N 1
   >>
   ]
   /Bounds [ 0.625 ]
   /Encode [ 1 1 2 { pop 0 1 } for ]
>>
def
   << /ShadingType 2
      /ColorSpace /DeviceRGB
      /Coords [ 131.556107 769.576477 142.989746 769.576477 ]
      /Extend [ true true ]
      /Function CairoFunction
   >>
shfill
Q
0.587506 w
0 J
0 j
[] 0.0 d
4 M q 1 0 0 1 0 0 cm
34.598 236.367 m 27.105 236.367 l 27.105 171.32 l 27.105 168.59 29.391 
157.418 30.852 157.418 c 32.289 157.418 34.598 168.59 34.598 171.32 c h
34.598 236.367 m S Q
1 g
30.063 135.023 m 32.477 130.84 l 34.895 126.656 l 39.723 135.023 l h
30.063 135.023 m f
1 0.00784314 0.00784314 rg
0.243761 w
1 j
q 1 0 0 1 0 0 cm
30.063 135.023 m 32.477 130.84 l 34.895 126.656 l 39.723 135.023 l h
30.063 135.023 m S Q
0.0352941 0.196078 0.603922 rg
31.297 134.285 m 33.094 131.172 l 34.895 128.055 l 36.691 131.172 l 38.488
 134.285 l h
31.297 134.285 m f
1 0.00784314 0.00784314 rg
0.275606 w
q 1 0 0 1 0 0 cm
31.297 134.285 m 33.094 131.172 l 34.895 128.055 l 36.691 131.172 l 38.488
 134.285 l h
31.297 134.285 m S Q
1 g
0.273508 w
0 j
q 1 0 0 1 0 0 cm
33.789 131.387 m 35.996 131.387 l S Q
q 1 0 0 1 0 0 cm
33.789 133.098 m 35.996 133.098 l S Q
q 1 0 0 1 0 0 cm
34.266 131.445 m 34.266 133.012 l S Q
q 1 0 0 1 0 0 cm
34.895 131.445 m 34.895 133.012 l S Q
q 1 0 0 1 0 0 cm
35.52 131.445 m 35.52 133.012 l S Q
0.8 g
34.738 15.199 m 34.738 65.477 l 35.043 65.477 l 35.043 15.199 l 34.941 
15.184 34.84 15.184 34.738 15.199 c h
34.738 15.199 m f*
q
36.184 147.367 5.566 6.258 re W* n
[0.509432 0 0 0.383573 -38.15636 -78.722835] concat
/CairoFunction
<< /FunctionType 3
   /Domain [ 0 1 ]
   /Functions [
   << /FunctionType 2
      /Domain [ 0 1 ]
      /C0 [ 0.843137 0.843137 0.843137 ]
      /C1 [ 0.992157 0.992157 0.992157 ]
      /N 1
   >>
   << /FunctionType 2
      /Domain [ 0 1 ]
      /C0 [ 0.992157 0.992157 0.992157 ]
      /C1 [ 0.85098 0.85098 0.85098 ]
      /N 1
   >>
   ]
   /Bounds [ 0.625 ]
   /Encode [ 1 1 2 { pop 0 1 } for ]
>>
def
   << /ShadingType 2
      /ColorSpace /DeviceRGB
      /Coords [ 128.928558 670.576477 157.857132 670.576477 ]
      /Extend [ true true ]
      /Function CairoFunction
   >>
shfill
Q
0 g
0.509432 w
0 J
0 j
[] 0.0 d
4 M q 1 0 0 1 0 0 cm
27.777 147.387 m 27.777 144.184 l 23.043 137.125 l 46.742 137.125 m 42.008
 144.184 l 42.008 147.387 l S Q
q
23.043 86.66 23.699 37.293 re W* n
[0.509432 0 0 0.509432 -38.15636 -190.734135] concat
/CairoFunction
<< /FunctionType 3
   /Domain [ 0 1 ]
   /Functions [
   << /FunctionType 2
      /Domain [ 0 1 ]
      /C0 [ 0.894118 0.894118 0.894118 ]
      /C1 [ 0.976471 0.976471 0.976471 ]
      /N 1
   >>
   << /FunctionType 2
      /Domain [ 0 1 ]
      /C0 [ 0.976471 0.976471 0.976471 ]
      /C1 [ 0.878431 0.878431 0.878431 ]
      /N 1
   >>
   ]
   /Bounds [ 0.652778 ]
   /Encode [ 1 1 2 { pop 0 1 } for ]
>>
def
   << /ShadingType 2
      /ColorSpace /DeviceRGB
      /Coords [ 128.928558 670.576477 157.857132 670.576477 ]
      /Extend [ true true ]
      /Function CairoFunction
   >>
shfill
Q
0.509432 w
0 J
0 j
[] 0.0 d
4 M q 1 0 0 1 0 0 cm
23.043 86.66 23.699 37.293 re S Q
q
23.043 68.934 23.699 17.727 re W* n
[0.509432 0 0 0.509432 -38.15636 -190.734135] concat
/CairoFunction
<< /FunctionType 3
   /Domain [ 0 1 ]
   /Functions [
   << /FunctionType 2
      /Domain [ 0 1 ]
      /C0 [ 0.894118 0.894118 0.894118 ]
      /C1 [ 0.976471 0.976471 0.976471 ]
      /N 1
   >>
   << /FunctionType 2
      /Domain [ 0 1 ]
      /C0 [ 0.976471 0.976471 0.976471 ]
      /C1 [ 0.878431 0.878431 0.878431 ]
      /N 1
   >>
   ]
   /Bounds [ 0.652778 ]
   /Encode [ 1 1 2 { pop 0 1 } for ]
>>
def
   << /ShadingType 2
      /ColorSpace /DeviceRGB
      /Coords [ 128.928558 670.576477 157.857132 670.576477 ]
      /Extend [ true true ]
      /Function CairoFunction
   >>
shfill
Q
0.509432 w
0 J
0 j
[] 0.0 d
4 M q 1 0 0 1 0 0 cm
23.043 68.934 23.699 17.727 re S Q
q
23.043 35.715 m 23.043 32.16 28.969 12.281 28.969 12.281 c 28.969 12.281
 31.633 6.738 34.895 6.738 c 38.242 6.738 40.816 12.281 40.816 12.281 c 
40.816 12.281 46.742 32.156 46.742 35.715 c 46.742 68.934 l 23.043 68.934
 l h
23.043 35.715 m W* n
[0.509432 0 0 0.509432 -38.15636 -190.734135] concat
/CairoFunction
<< /FunctionType 3
   /Domain [ 0 1 ]
   /Functions [
   << /FunctionType 2
      /Domain [ 0 1 ]
      /C0 [ 0.894118 0.894118 0.894118 ]
      /C1 [ 0.976471 0.976471 0.976471 ]
      /N 1
   >>
   << /FunctionType 2
      /Domain [ 0 1 ]
      /C0 [ 0.976471 0.976471 0.976471 ]
      /C1 [ 0.878431 0.878431 0.878431 ]
      /N 1
   >>
   ]
   /Bounds [ 0.652778 ]
   /Encode [ 1 1 2 { pop 0 1 } for ]
>>
def
   << /ShadingType 2
      /ColorSpace /DeviceRGB
      /Coords [ 128.928558 670.576477 157.857132 670.576477 ]
      /Extend [ true true ]
      /Function CairoFunction
   >>
shfill
Q
0.509432 w
0 J
0 j
[] 0.0 d
4 M q 1 0 0 1 0 0 cm
23.043 35.715 m 23.043 32.16 28.969 12.281 28.969 12.281 c 28.969 12.281
 31.633 6.738 34.895 6.738 c 38.242 6.738 40.816 12.281 40.816 12.281 c 
40.816 12.281 46.742 32.156 46.742 35.715 c 46.742 68.934 l 23.043 68.934
 l h
23.043 35.715 m S Q
0.701961 g
34.773 6.996 m 34.773 68.68 l 35.027 68.68 l 35.027 6.996 l 34.953 6.988
 34.875 6.984 34.773 6.996 c h
34.773 6.996 m f*
q
23.043 71.035 23.699 13.332 re W* n
[0.509432 0 0 0.509432 -38.15636 -190.543098] concat
/CairoFunction
<< /FunctionType 3
   /Domain [ 0 1 ]
   /Functions [
   << /FunctionType 2
      /Domain [ 0 1 ]
      /C0 [ 0.643137 0.4 0.188235 ]
      /C1 [ 0.823529 0.6 0.4 ]
      /N 1
   >>
   << /FunctionType 2
      /Domain [ 0 1 ]
      /C0 [ 0.823529 0.6 0.4 ]
      /C1 [ 0.788235 0.52549 0.294118 ]
      /N 1
   >>
   ]
   /Bounds [ 0.625 ]
   /Encode [ 1 1 2 { pop 0 1 } for ]
>>
def
   << /ShadingType 2
      /ColorSpace /DeviceRGB
      /Coords [ 128.928558 670.576477 157.857132 670.576477 ]
      /Extend [ true true ]
      /Function CairoFunction
   >>
shfill
Q
0 g
0.509432 w
0 J
0 j
[] 0.0 d
4 M q 1 0 0 1 0 0 cm
23.043 71.035 23.699 13.332 re S Q
/CairoFunction
<< /FunctionType 3
   /Domain [ 0 1 ]
   /Functions [
   << /FunctionType 2
      /Domain [ 0 1 ]
      /C0 [ 0.458824 0.211765 0.133333 ]
      /C1 [ 0.705882 0.321569 0.203922 ]
      /N 1
   >>
   << /FunctionType 2
      /Domain [ 0 1 ]
      /C0 [ 0.705882 0.321569 0.203922 ]
      /C1 [ 0.533333 0.247059 0.156863 ]
      /N 1
   >>
   ]
   /Bounds [ 0.625 ]
   /Encode [ 1 1 2 { pop 0 1 } for ]
>>
def
<< /PatternType 2
   /Shading
   << /ShadingType 2
      /ColorSpace /DeviceRGB
      /Coords [ 79.63176 527.117554 127.153931 527.117554 ]
      /Extend [ true true ]
      /Function CairoFunction
   >>
>>
[ 0.509432 0 0 0.509432 -17.779067 -190.543098 ]
makepattern setpattern
1.018865 w
q 1 0 0 1 0 0 cm
23.297 84.496 m 46.488 84.496 l 46.488 71.164 m 23.297 71.164 l S Q
Q Q
showpage
%%Trailer
end
%%EOF
