%!PS-Adobe-3.0 EPSF-3.0
%%Creator: (MATLAB, The Mathworks, Inc. Version 9.6.0.1072779 \(R2019a\). Operating System: Windows 10)
%%Title: ./HamiltonianComparison.eps
%%CreationDate: 2020-09-29T15:40:07
%%Pages: (atend)
%%BoundingBox:     3     0   388   310
%%LanguageLevel: 3
%%EndComments
%%BeginProlog
%%BeginResource: procset (Apache XML Graphics Std ProcSet) 1.2 0
%%Version: 1.2 0
%%Copyright: (Copyright 2001-2003,2010 The Apache Software Foundation. License terms: http://www.apache.org/licenses/LICENSE-2.0)
/bd{bind def}bind def
/ld{load def}bd
/GR/grestore ld
/GS/gsave ld
/RM/rmoveto ld
/C/curveto ld
/t/show ld
/L/lineto ld
/ML/setmiterlimit ld
/CT/concat ld
/f/fill ld
/N/newpath ld
/S/stroke ld
/CC/setcmykcolor ld
/A/ashow ld
/cp/closepath ld
/RC/setrgbcolor ld
/LJ/setlinejoin ld
/GC/setgray ld
/LW/setlinewidth ld
/M/moveto ld
/re {4 2 roll M
1 index 0 rlineto
0 exch rlineto
neg 0 rlineto
cp } bd
/_ctm matrix def
/_tm matrix def
/BT { _ctm currentmatrix pop matrix _tm copy pop 0 0 moveto } bd
/ET { _ctm setmatrix } bd
/iTm { _ctm setmatrix _tm concat } bd
/Tm { _tm astore pop iTm 0 0 moveto } bd
/ux 0.0 def
/uy 0.0 def
/F {
  /Tp exch def
  /Tf exch def
  Tf findfont Tp scalefont setfont
  /cf Tf def  /cs Tp def
} bd
/ULS {currentpoint /uy exch def /ux exch def} bd
/ULE {
  /Tcx currentpoint pop def
  gsave
  newpath
  cf findfont cs scalefont dup
  /FontMatrix get 0 get /Ts exch def /FontInfo get dup
  /UnderlinePosition get Ts mul /To exch def
  /UnderlineThickness get Ts mul /Tt exch def
  ux uy To add moveto  Tcx uy To add lineto
  Tt setlinewidth stroke
  grestore
} bd
/OLE {
  /Tcx currentpoint pop def
  gsave
  newpath
  cf findfont cs scalefont dup
  /FontMatrix get 0 get /Ts exch def /FontInfo get dup
  /UnderlinePosition get Ts mul /To exch def
  /UnderlineThickness get Ts mul /Tt exch def
  ux uy To add cs add moveto Tcx uy To add cs add lineto
  Tt setlinewidth stroke
  grestore
} bd
/SOE {
  /Tcx currentpoint pop def
  gsave
  newpath
  cf findfont cs scalefont dup
  /FontMatrix get 0 get /Ts exch def /FontInfo get dup
  /UnderlinePosition get Ts mul /To exch def
  /UnderlineThickness get Ts mul /Tt exch def
  ux uy To add cs 10 mul 26 idiv add moveto Tcx uy To add cs 10 mul 26 idiv add lineto
  Tt setlinewidth stroke
  grestore
} bd
/QT {
/Y22 exch store
/X22 exch store
/Y21 exch store
/X21 exch store
currentpoint
/Y21 load 2 mul add 3 div exch
/X21 load 2 mul add 3 div exch
/X21 load 2 mul /X22 load add 3 div
/Y21 load 2 mul /Y22 load add 3 div
/X22 load /Y22 load curveto
} bd
/SSPD {
dup length /d exch dict def
{
/v exch def
/k exch def
currentpagedevice k known {
/cpdv currentpagedevice k get def
v cpdv ne {
/upd false def
/nullv v type /nulltype eq def
/nullcpdv cpdv type /nulltype eq def
nullv nullcpdv or
{
/upd true def
} {
/sametype v type cpdv type eq def
sametype {
v type /arraytype eq {
/vlen v length def
/cpdvlen cpdv length def
vlen cpdvlen eq {
0 1 vlen 1 sub {
/i exch def
/obj v i get def
/cpdobj cpdv i get def
obj cpdobj ne {
/upd true def
exit
} if
} for
} {
/upd true def
} ifelse
} {
v type /dicttype eq {
v {
/dv exch def
/dk exch def
/cpddv cpdv dk get def
dv cpddv ne {
/upd true def
exit
} if
} forall
} {
/upd true def
} ifelse
} ifelse
} if
} ifelse
upd true eq {
d k v put
} if
} if
} if
} forall
d length 0 gt {
d setpagedevice
} if
} bd
/RE { % /NewFontName [NewEncodingArray] /FontName RE -
  findfont dup length dict begin
  {
    1 index /FID ne
    {def} {pop pop} ifelse
  } forall
  /Encoding exch def
  /FontName 1 index def
  currentdict definefont pop
  end
} bind def
%%EndResource
%%BeginResource: procset (Apache XML Graphics EPS ProcSet) 1.0 0
%%Version: 1.0 0
%%Copyright: (Copyright 2002-2003 The Apache Software Foundation. License terms: http://www.apache.org/licenses/LICENSE-2.0)
/BeginEPSF { %def
/b4_Inc_state save def         % Save state for cleanup
/dict_count countdictstack def % Count objects on dict stack
/op_count count 1 sub def      % Count objects on operand stack
userdict begin                 % Push userdict on dict stack
/showpage { } def              % Redefine showpage, { } = null proc
0 setgray 0 setlinecap         % Prepare graphics state
1 setlinewidth 0 setlinejoin
10 setmiterlimit [ ] 0 setdash newpath
/languagelevel where           % If level not equal to 1 then
{pop languagelevel             % set strokeadjust and
1 ne                           % overprint to their defaults.
{false setstrokeadjust false setoverprint
} if
} if
} bd
/EndEPSF { %def
count op_count sub {pop} repeat            % Clean up stacks
countdictstack dict_count sub {end} repeat
b4_Inc_state restore
} bd
%%EndResource
%FOPBeginFontDict
%%IncludeResource: font Courier-Oblique
%%IncludeResource: font Courier-BoldOblique
%%IncludeResource: font Courier-Bold
%%IncludeResource: font ZapfDingbats
%%IncludeResource: font Symbol
%%IncludeResource: font Helvetica
%%IncludeResource: font Helvetica-Oblique
%%IncludeResource: font Helvetica-Bold
%%IncludeResource: font Helvetica-BoldOblique
%%IncludeResource: font Times-Roman
%%IncludeResource: font Times-Italic
%%IncludeResource: font Times-Bold
%%IncludeResource: font Times-BoldItalic
%%IncludeResource: font Courier
%FOPEndFontDict
%%BeginResource: encoding WinAnsiEncoding
/WinAnsiEncoding [
/.notdef /.notdef /.notdef /.notdef /.notdef
/.notdef /.notdef /.notdef /.notdef /.notdef
/.notdef /.notdef /.notdef /.notdef /.notdef
/.notdef /.notdef /.notdef /.notdef /.notdef
/.notdef /.notdef /.notdef /.notdef /.notdef
/.notdef /.notdef /.notdef /.notdef /.notdef
/.notdef /.notdef /space /exclam /quotedbl
/numbersign /dollar /percent /ampersand /quotesingle
/parenleft /parenright /asterisk /plus /comma
/hyphen /period /slash /zero /one
/two /three /four /five /six
/seven /eight /nine /colon /semicolon
/less /equal /greater /question /at
/A /B /C /D /E
/F /G /H /I /J
/K /L /M /N /O
/P /Q /R /S /T
/U /V /W /X /Y
/Z /bracketleft /backslash /bracketright /asciicircum
/underscore /quoteleft /a /b /c
/d /e /f /g /h
/i /j /k /l /m
/n /o /p /q /r
/s /t /u /v /w
/x /y /z /braceleft /bar
/braceright /asciitilde /bullet /Euro /bullet
/quotesinglbase /florin /quotedblbase /ellipsis /dagger
/daggerdbl /circumflex /perthousand /Scaron /guilsinglleft
/OE /bullet /Zcaron /bullet /bullet
/quoteleft /quoteright /quotedblleft /quotedblright /bullet
/endash /emdash /asciitilde /trademark /scaron
/guilsinglright /oe /bullet /zcaron /Ydieresis
/space /exclamdown /cent /sterling /currency
/yen /brokenbar /section /dieresis /copyright
/ordfeminine /guillemotleft /logicalnot /sfthyphen /registered
/macron /degree /plusminus /twosuperior /threesuperior
/acute /mu /paragraph /middot /cedilla
/onesuperior /ordmasculine /guillemotright /onequarter /onehalf
/threequarters /questiondown /Agrave /Aacute /Acircumflex
/Atilde /Adieresis /Aring /AE /Ccedilla
/Egrave /Eacute /Ecircumflex /Edieresis /Igrave
/Iacute /Icircumflex /Idieresis /Eth /Ntilde
/Ograve /Oacute /Ocircumflex /Otilde /Odieresis
/multiply /Oslash /Ugrave /Uacute /Ucircumflex
/Udieresis /Yacute /Thorn /germandbls /agrave
/aacute /acircumflex /atilde /adieresis /aring
/ae /ccedilla /egrave /eacute /ecircumflex
/edieresis /igrave /iacute /icircumflex /idieresis
/eth /ntilde /ograve /oacute /ocircumflex
/otilde /odieresis /divide /oslash /ugrave
/uacute /ucircumflex /udieresis /yacute /thorn
/ydieresis
] def
%%EndResource
%FOPBeginFontReencode
/Courier-Oblique findfont
dup length dict begin
  {1 index /FID ne {def} {pop pop} ifelse} forall
  /Encoding WinAnsiEncoding def
  currentdict
end
/Courier-Oblique exch definefont pop
/Courier-BoldOblique findfont
dup length dict begin
  {1 index /FID ne {def} {pop pop} ifelse} forall
  /Encoding WinAnsiEncoding def
  currentdict
end
/Courier-BoldOblique exch definefont pop
/Courier-Bold findfont
dup length dict begin
  {1 index /FID ne {def} {pop pop} ifelse} forall
  /Encoding WinAnsiEncoding def
  currentdict
end
/Courier-Bold exch definefont pop
/Helvetica findfont
dup length dict begin
  {1 index /FID ne {def} {pop pop} ifelse} forall
  /Encoding WinAnsiEncoding def
  currentdict
end
/Helvetica exch definefont pop
/Helvetica-Oblique findfont
dup length dict begin
  {1 index /FID ne {def} {pop pop} ifelse} forall
  /Encoding WinAnsiEncoding def
  currentdict
end
/Helvetica-Oblique exch definefont pop
/Helvetica-Bold findfont
dup length dict begin
  {1 index /FID ne {def} {pop pop} ifelse} forall
  /Encoding WinAnsiEncoding def
  currentdict
end
/Helvetica-Bold exch definefont pop
/Helvetica-BoldOblique findfont
dup length dict begin
  {1 index /FID ne {def} {pop pop} ifelse} forall
  /Encoding WinAnsiEncoding def
  currentdict
end
/Helvetica-BoldOblique exch definefont pop
/Times-Roman findfont
dup length dict begin
  {1 index /FID ne {def} {pop pop} ifelse} forall
  /Encoding WinAnsiEncoding def
  currentdict
end
/Times-Roman exch definefont pop
/Times-Italic findfont
dup length dict begin
  {1 index /FID ne {def} {pop pop} ifelse} forall
  /Encoding WinAnsiEncoding def
  currentdict
end
/Times-Italic exch definefont pop
/Times-Bold findfont
dup length dict begin
  {1 index /FID ne {def} {pop pop} ifelse} forall
  /Encoding WinAnsiEncoding def
  currentdict
end
/Times-Bold exch definefont pop
/Times-BoldItalic findfont
dup length dict begin
  {1 index /FID ne {def} {pop pop} ifelse} forall
  /Encoding WinAnsiEncoding def
  currentdict
end
/Times-BoldItalic exch definefont pop
/Courier findfont
dup length dict begin
  {1 index /FID ne {def} {pop pop} ifelse} forall
  /Encoding WinAnsiEncoding def
  currentdict
end
/Courier exch definefont pop
%FOPEndFontReencode
%%EndProlog
%%Page: 1 1
%%PageBoundingBox: 0 0 389 314
%%BeginPageSetup
[1 0 0 -1 0 314] CT
%%EndPageSetup
GS
[0.60093 0 0 0.60115 0 -0.40002] CT
1 GC
N
0 0 647 523 re
f
GR
GS
[0.60093 0 0 0.60115 0 -0.40002] CT
1 GC
N
0 0 647 523 re
f
GR
GS
[0.60093 0 0 0.60115 0 -0.40002] CT
1 GC
N
61 471 M
629 471 L
629 29 L
61 29 L
cp
f
GR
GS
[0.60093 0 0 0.60115 0 -0.40002] CT
0.775 GC
[1 3] 0 setdash
2 LJ
0.833 LW
N
61 471 M
61 29 L
S
GR
GS
[0.60093 0 0 0.60115 0 -0.40002] CT
0.775 GC
[1 3] 0 setdash
2 LJ
0.833 LW
N
72.36 471 M
72.36 29 L
S
GR
GS
[0.60093 0 0 0.60115 0 -0.40002] CT
0.775 GC
[1 3] 0 setdash
2 LJ
0.833 LW
N
83.72 471 M
83.72 29 L
S
GR
GS
[0.60093 0 0 0.60115 0 -0.40002] CT
0.775 GC
[1 3] 0 setdash
2 LJ
0.833 LW
N
95.08 471 M
95.08 29 L
S
GR
GS
[0.60093 0 0 0.60115 0 -0.40002] CT
0.775 GC
[1 3] 0 setdash
2 LJ
0.833 LW
N
106.44 471 M
106.44 29 L
S
GR
GS
[0.60093 0 0 0.60115 0 -0.40002] CT
0.775 GC
[1 3] 0 setdash
2 LJ
0.833 LW
N
117.8 471 M
117.8 29 L
S
GR
GS
[0.60093 0 0 0.60115 0 -0.40002] CT
0.775 GC
[1 3] 0 setdash
2 LJ
0.833 LW
N
129.16 471 M
129.16 29 L
S
GR
GS
[0.60093 0 0 0.60115 0 -0.40002] CT
0.775 GC
[1 3] 0 setdash
2 LJ
0.833 LW
N
140.52 471 M
140.52 29 L
S
GR
GS
[0.60093 0 0 0.60115 0 -0.40002] CT
0.775 GC
[1 3] 0 setdash
2 LJ
0.833 LW
N
151.88 471 M
151.88 29 L
S
GR
GS
[0.60093 0 0 0.60115 0 -0.40002] CT
0.775 GC
[1 3] 0 setdash
2 LJ
0.833 LW
N
163.24 471 M
163.24 29 L
S
GR
GS
[0.60093 0 0 0.60115 0 -0.40002] CT
0.775 GC
[1 3] 0 setdash
2 LJ
0.833 LW
N
174.6 471 M
174.6 29 L
S
GR
GS
[0.60093 0 0 0.60115 0 -0.40002] CT
0.775 GC
[1 3] 0 setdash
2 LJ
0.833 LW
N
185.96 471 M
185.96 29 L
S
GR
GS
[0.60093 0 0 0.60115 0 -0.40002] CT
0.775 GC
[1 3] 0 setdash
2 LJ
0.833 LW
N
197.32 471 M
197.32 29 L
S
GR
GS
[0.60093 0 0 0.60115 0 -0.40002] CT
0.775 GC
[1 3] 0 setdash
2 LJ
0.833 LW
N
208.68 471 M
208.68 29 L
S
GR
GS
[0.60093 0 0 0.60115 0 -0.40002] CT
0.775 GC
[1 3] 0 setdash
2 LJ
0.833 LW
N
220.04 471 M
220.04 29 L
S
GR
GS
[0.60093 0 0 0.60115 0 -0.40002] CT
0.775 GC
[1 3] 0 setdash
2 LJ
0.833 LW
N
231.4 471 M
231.4 29 L
S
GR
GS
[0.60093 0 0 0.60115 0 -0.40002] CT
0.775 GC
[1 3] 0 setdash
2 LJ
0.833 LW
N
242.76 471 M
242.76 29 L
S
GR
GS
[0.60093 0 0 0.60115 0 -0.40002] CT
0.775 GC
[1 3] 0 setdash
2 LJ
0.833 LW
N
254.12 471 M
254.12 29 L
S
GR
GS
[0.60093 0 0 0.60115 0 -0.40002] CT
0.775 GC
[1 3] 0 setdash
2 LJ
0.833 LW
N
265.48 471 M
265.48 29 L
S
GR
GS
[0.60093 0 0 0.60115 0 -0.40002] CT
0.775 GC
[1 3] 0 setdash
2 LJ
0.833 LW
N
276.84 471 M
276.84 29 L
S
GR
GS
[0.60093 0 0 0.60115 0 -0.40002] CT
0.775 GC
[1 3] 0 setdash
2 LJ
0.833 LW
N
288.2 471 M
288.2 29 L
S
GR
GS
[0.60093 0 0 0.60115 0 -0.40002] CT
0.775 GC
[1 3] 0 setdash
2 LJ
0.833 LW
N
299.56 471 M
299.56 29 L
S
GR
GS
[0.60093 0 0 0.60115 0 -0.40002] CT
0.775 GC
[1 3] 0 setdash
2 LJ
0.833 LW
N
310.92 471 M
310.92 29 L
S
GR
GS
[0.60093 0 0 0.60115 0 -0.40002] CT
0.775 GC
[1 3] 0 setdash
2 LJ
0.833 LW
N
322.28 471 M
322.28 29 L
S
GR
GS
[0.60093 0 0 0.60115 0 -0.40002] CT
0.775 GC
[1 3] 0 setdash
2 LJ
0.833 LW
N
333.64 471 M
333.64 29 L
S
GR
GS
[0.60093 0 0 0.60115 0 -0.40002] CT
0.775 GC
[1 3] 0 setdash
2 LJ
0.833 LW
N
345 471 M
345 29 L
S
GR
GS
[0.60093 0 0 0.60115 0 -0.40002] CT
0.775 GC
[1 3] 0 setdash
2 LJ
0.833 LW
N
356.36 471 M
356.36 29 L
S
GR
GS
[0.60093 0 0 0.60115 0 -0.40002] CT
0.775 GC
[1 3] 0 setdash
2 LJ
0.833 LW
N
367.72 471 M
367.72 29 L
S
GR
GS
[0.60093 0 0 0.60115 0 -0.40002] CT
0.775 GC
[1 3] 0 setdash
2 LJ
0.833 LW
N
379.08 471 M
379.08 29 L
S
GR
GS
[0.60093 0 0 0.60115 0 -0.40002] CT
0.775 GC
[1 3] 0 setdash
2 LJ
0.833 LW
N
390.44 471 M
390.44 29 L
S
GR
GS
[0.60093 0 0 0.60115 0 -0.40002] CT
0.775 GC
[1 3] 0 setdash
2 LJ
0.833 LW
N
401.8 471 M
401.8 29 L
S
GR
GS
[0.60093 0 0 0.60115 0 -0.40002] CT
0.775 GC
[1 3] 0 setdash
2 LJ
0.833 LW
N
413.16 471 M
413.16 29 L
S
GR
GS
[0.60093 0 0 0.60115 0 -0.40002] CT
0.775 GC
[1 3] 0 setdash
2 LJ
0.833 LW
N
424.52 471 M
424.52 29 L
S
GR
GS
[0.60093 0 0 0.60115 0 -0.40002] CT
0.775 GC
[1 3] 0 setdash
2 LJ
0.833 LW
N
435.88 471 M
435.88 29 L
S
GR
GS
[0.60093 0 0 0.60115 0 -0.40002] CT
0.775 GC
[1 3] 0 setdash
2 LJ
0.833 LW
N
447.24 471 M
447.24 29 L
S
GR
GS
[0.60093 0 0 0.60115 0 -0.40002] CT
0.775 GC
[1 3] 0 setdash
2 LJ
0.833 LW
N
458.6 471 M
458.6 29 L
S
GR
GS
[0.60093 0 0 0.60115 0 -0.40002] CT
0.775 GC
[1 3] 0 setdash
2 LJ
0.833 LW
N
469.96 471 M
469.96 29 L
S
GR
GS
[0.60093 0 0 0.60115 0 -0.40002] CT
0.775 GC
[1 3] 0 setdash
2 LJ
0.833 LW
N
481.32 471 M
481.32 29 L
S
GR
GS
[0.60093 0 0 0.60115 0 -0.40002] CT
0.775 GC
[1 3] 0 setdash
2 LJ
0.833 LW
N
492.68 471 M
492.68 29 L
S
GR
GS
[0.60093 0 0 0.60115 0 -0.40002] CT
0.775 GC
[1 3] 0 setdash
2 LJ
0.833 LW
N
504.04 471 M
504.04 29 L
S
GR
GS
[0.60093 0 0 0.60115 0 -0.40002] CT
0.775 GC
[1 3] 0 setdash
2 LJ
0.833 LW
N
515.4 471 M
515.4 29 L
S
GR
GS
[0.60093 0 0 0.60115 0 -0.40002] CT
0.775 GC
[1 3] 0 setdash
2 LJ
0.833 LW
N
526.76 471 M
526.76 29 L
S
GR
GS
[0.60093 0 0 0.60115 0 -0.40002] CT
0.775 GC
[1 3] 0 setdash
2 LJ
0.833 LW
N
538.12 471 M
538.12 29 L
S
GR
GS
[0.60093 0 0 0.60115 0 -0.40002] CT
0.775 GC
[1 3] 0 setdash
2 LJ
0.833 LW
N
549.48 471 M
549.48 29 L
S
GR
GS
[0.60093 0 0 0.60115 0 -0.40002] CT
0.775 GC
[1 3] 0 setdash
2 LJ
0.833 LW
N
560.84 471 M
560.84 29 L
S
GR
GS
[0.60093 0 0 0.60115 0 -0.40002] CT
0.775 GC
[1 3] 0 setdash
2 LJ
0.833 LW
N
572.2 471 M
572.2 29 L
S
GR
GS
[0.60093 0 0 0.60115 0 -0.40002] CT
0.775 GC
[1 3] 0 setdash
2 LJ
0.833 LW
N
583.56 471 M
583.56 29 L
S
GR
GS
[0.60093 0 0 0.60115 0 -0.40002] CT
0.775 GC
[1 3] 0 setdash
2 LJ
0.833 LW
N
594.92 471 M
594.92 29 L
S
GR
GS
[0.60093 0 0 0.60115 0 -0.40002] CT
0.775 GC
[1 3] 0 setdash
2 LJ
0.833 LW
N
606.28 471 M
606.28 29 L
S
GR
GS
[0.60093 0 0 0.60115 0 -0.40002] CT
0.775 GC
[1 3] 0 setdash
2 LJ
0.833 LW
N
617.64 471 M
617.64 29 L
S
GR
GS
[0.60093 0 0 0.60115 0 -0.40002] CT
0.775 GC
[1 3] 0 setdash
2 LJ
0.833 LW
N
629 471 M
629 29 L
S
GR
GS
[0.60093 0 0 0.60115 0 -0.40002] CT
0.775 GC
[1 3] 0 setdash
2 LJ
0.833 LW
N
629 471 M
61 471 L
S
GR
GS
[0.60093 0 0 0.60115 0 -0.40002] CT
0.775 GC
[1 3] 0 setdash
2 LJ
0.833 LW
N
629 458.371 M
61 458.371 L
S
GR
GS
[0.60093 0 0 0.60115 0 -0.40002] CT
0.775 GC
[1 3] 0 setdash
2 LJ
0.833 LW
N
629 445.743 M
61 445.743 L
S
GR
GS
[0.60093 0 0 0.60115 0 -0.40002] CT
0.775 GC
[1 3] 0 setdash
2 LJ
0.833 LW
N
629 433.114 M
61 433.114 L
S
GR
GS
[0.60093 0 0 0.60115 0 -0.40002] CT
0.775 GC
[1 3] 0 setdash
2 LJ
0.833 LW
N
629 420.486 M
61 420.486 L
S
GR
GS
[0.60093 0 0 0.60115 0 -0.40002] CT
0.775 GC
[1 3] 0 setdash
2 LJ
0.833 LW
N
629 407.857 M
61 407.857 L
S
GR
GS
[0.60093 0 0 0.60115 0 -0.40002] CT
0.775 GC
[1 3] 0 setdash
2 LJ
0.833 LW
N
629 395.229 M
61 395.229 L
S
GR
GS
[0.60093 0 0 0.60115 0 -0.40002] CT
0.775 GC
[1 3] 0 setdash
2 LJ
0.833 LW
N
629 382.6 M
61 382.6 L
S
GR
GS
[0.60093 0 0 0.60115 0 -0.40002] CT
0.775 GC
[1 3] 0 setdash
2 LJ
0.833 LW
N
629 369.971 M
61 369.971 L
S
GR
GS
[0.60093 0 0 0.60115 0 -0.40002] CT
0.775 GC
[1 3] 0 setdash
2 LJ
0.833 LW
N
629 357.343 M
61 357.343 L
S
GR
GS
[0.60093 0 0 0.60115 0 -0.40002] CT
0.775 GC
[1 3] 0 setdash
2 LJ
0.833 LW
N
629 344.714 M
61 344.714 L
S
GR
GS
[0.60093 0 0 0.60115 0 -0.40002] CT
0.775 GC
[1 3] 0 setdash
2 LJ
0.833 LW
N
629 332.086 M
61 332.086 L
S
GR
GS
[0.60093 0 0 0.60115 0 -0.40002] CT
0.775 GC
[1 3] 0 setdash
2 LJ
0.833 LW
N
629 319.457 M
61 319.457 L
S
GR
GS
[0.60093 0 0 0.60115 0 -0.40002] CT
0.775 GC
[1 3] 0 setdash
2 LJ
0.833 LW
N
629 306.829 M
61 306.829 L
S
GR
GS
[0.60093 0 0 0.60115 0 -0.40002] CT
0.775 GC
[1 3] 0 setdash
2 LJ
0.833 LW
N
629 294.2 M
61 294.2 L
S
GR
GS
[0.60093 0 0 0.60115 0 -0.40002] CT
0.775 GC
[1 3] 0 setdash
2 LJ
0.833 LW
N
629 281.571 M
61 281.571 L
S
GR
GS
[0.60093 0 0 0.60115 0 -0.40002] CT
0.775 GC
[1 3] 0 setdash
2 LJ
0.833 LW
N
629 268.943 M
61 268.943 L
S
GR
GS
[0.60093 0 0 0.60115 0 -0.40002] CT
0.775 GC
[1 3] 0 setdash
2 LJ
0.833 LW
N
629 256.314 M
61 256.314 L
S
GR
GS
[0.60093 0 0 0.60115 0 -0.40002] CT
0.775 GC
[1 3] 0 setdash
2 LJ
0.833 LW
N
629 243.686 M
61 243.686 L
S
GR
GS
[0.60093 0 0 0.60115 0 -0.40002] CT
0.775 GC
[1 3] 0 setdash
2 LJ
0.833 LW
N
629 231.057 M
61 231.057 L
S
GR
GS
[0.60093 0 0 0.60115 0 -0.40002] CT
0.775 GC
[1 3] 0 setdash
2 LJ
0.833 LW
N
629 218.429 M
61 218.429 L
S
GR
GS
[0.60093 0 0 0.60115 0 -0.40002] CT
0.775 GC
[1 3] 0 setdash
2 LJ
0.833 LW
N
629 205.8 M
61 205.8 L
S
GR
GS
[0.60093 0 0 0.60115 0 -0.40002] CT
0.775 GC
[1 3] 0 setdash
2 LJ
0.833 LW
N
629 193.171 M
61 193.171 L
S
GR
GS
[0.60093 0 0 0.60115 0 -0.40002] CT
0.775 GC
[1 3] 0 setdash
2 LJ
0.833 LW
N
629 180.543 M
61 180.543 L
S
GR
GS
[0.60093 0 0 0.60115 0 -0.40002] CT
0.775 GC
[1 3] 0 setdash
2 LJ
0.833 LW
N
629 167.914 M
61 167.914 L
S
GR
GS
[0.60093 0 0 0.60115 0 -0.40002] CT
0.775 GC
[1 3] 0 setdash
2 LJ
0.833 LW
N
629 155.286 M
61 155.286 L
S
GR
GS
[0.60093 0 0 0.60115 0 -0.40002] CT
0.775 GC
[1 3] 0 setdash
2 LJ
0.833 LW
N
629 142.657 M
61 142.657 L
S
GR
GS
[0.60093 0 0 0.60115 0 -0.40002] CT
0.775 GC
[1 3] 0 setdash
2 LJ
0.833 LW
N
629 130.029 M
61 130.029 L
S
GR
GS
[0.60093 0 0 0.60115 0 -0.40002] CT
0.775 GC
[1 3] 0 setdash
2 LJ
0.833 LW
N
629 117.4 M
61 117.4 L
S
GR
GS
[0.60093 0 0 0.60115 0 -0.40002] CT
0.775 GC
[1 3] 0 setdash
2 LJ
0.833 LW
N
629 104.771 M
61 104.771 L
S
GR
GS
[0.60093 0 0 0.60115 0 -0.40002] CT
0.775 GC
[1 3] 0 setdash
2 LJ
0.833 LW
N
629 92.143 M
61 92.143 L
S
GR
GS
[0.60093 0 0 0.60115 0 -0.40002] CT
0.775 GC
[1 3] 0 setdash
2 LJ
0.833 LW
N
629 79.514 M
61 79.514 L
S
GR
GS
[0.60093 0 0 0.60115 0 -0.40002] CT
0.775 GC
[1 3] 0 setdash
2 LJ
0.833 LW
N
629 66.886 M
61 66.886 L
S
GR
GS
[0.60093 0 0 0.60115 0 -0.40002] CT
0.775 GC
[1 3] 0 setdash
2 LJ
0.833 LW
N
629 54.257 M
61 54.257 L
S
GR
GS
[0.60093 0 0 0.60115 0 -0.40002] CT
0.775 GC
[1 3] 0 setdash
2 LJ
0.833 LW
N
629 41.629 M
61 41.629 L
S
GR
GS
[0.60093 0 0 0.60115 0 -0.40002] CT
0.775 GC
[1 3] 0 setdash
2 LJ
0.833 LW
N
629 29 M
61 29 L
S
GR
GS
[0.60093 0 0 0.60115 0 -0.40002] CT
0.149 GC
2 setlinecap
1 LJ
0.833 LW
N
61 471 M
629 471 L
S
GR
GS
[0.60093 0 0 0.60115 0 -0.40002] CT
0.149 GC
2 setlinecap
1 LJ
0.833 LW
N
61 29 M
629 29 L
S
GR
GS
[0.60093 0 0 0.60115 0 -0.40002] CT
0.149 GC
2 setlinecap
1 LJ
0.833 LW
N
61 471 M
61 465.32 L
S
GR
GS
[0.60093 0 0 0.60115 0 -0.40002] CT
0.149 GC
2 setlinecap
1 LJ
0.833 LW
N
117.8 471 M
117.8 465.32 L
S
GR
GS
[0.60093 0 0 0.60115 0 -0.40002] CT
0.149 GC
2 setlinecap
1 LJ
0.833 LW
N
174.6 471 M
174.6 465.32 L
S
GR
GS
[0.60093 0 0 0.60115 0 -0.40002] CT
0.149 GC
2 setlinecap
1 LJ
0.833 LW
N
231.4 471 M
231.4 465.32 L
S
GR
GS
[0.60093 0 0 0.60115 0 -0.40002] CT
0.149 GC
2 setlinecap
1 LJ
0.833 LW
N
288.2 471 M
288.2 465.32 L
S
GR
GS
[0.60093 0 0 0.60115 0 -0.40002] CT
0.149 GC
2 setlinecap
1 LJ
0.833 LW
N
345 471 M
345 465.32 L
S
GR
GS
[0.60093 0 0 0.60115 0 -0.40002] CT
0.149 GC
2 setlinecap
1 LJ
0.833 LW
N
401.8 471 M
401.8 465.32 L
S
GR
GS
[0.60093 0 0 0.60115 0 -0.40002] CT
0.149 GC
2 setlinecap
1 LJ
0.833 LW
N
458.6 471 M
458.6 465.32 L
S
GR
GS
[0.60093 0 0 0.60115 0 -0.40002] CT
0.149 GC
2 setlinecap
1 LJ
0.833 LW
N
515.4 471 M
515.4 465.32 L
S
GR
GS
[0.60093 0 0 0.60115 0 -0.40002] CT
0.149 GC
2 setlinecap
1 LJ
0.833 LW
N
572.2 471 M
572.2 465.32 L
S
GR
GS
[0.60093 0 0 0.60115 0 -0.40002] CT
0.149 GC
2 setlinecap
1 LJ
0.833 LW
N
629 471 M
629 465.32 L
S
GR
GS
[0.60093 0 0 0.60115 0 -0.40002] CT
0.149 GC
2 setlinecap
1 LJ
0.833 LW
N
61 29 M
61 34.68 L
S
GR
GS
[0.60093 0 0 0.60115 0 -0.40002] CT
0.149 GC
2 setlinecap
1 LJ
0.833 LW
N
117.8 29 M
117.8 34.68 L
S
GR
GS
[0.60093 0 0 0.60115 0 -0.40002] CT
0.149 GC
2 setlinecap
1 LJ
0.833 LW
N
174.6 29 M
174.6 34.68 L
S
GR
GS
[0.60093 0 0 0.60115 0 -0.40002] CT
0.149 GC
2 setlinecap
1 LJ
0.833 LW
N
231.4 29 M
231.4 34.68 L
S
GR
GS
[0.60093 0 0 0.60115 0 -0.40002] CT
0.149 GC
2 setlinecap
1 LJ
0.833 LW
N
288.2 29 M
288.2 34.68 L
S
GR
GS
[0.60093 0 0 0.60115 0 -0.40002] CT
0.149 GC
2 setlinecap
1 LJ
0.833 LW
N
345 29 M
345 34.68 L
S
GR
GS
[0.60093 0 0 0.60115 0 -0.40002] CT
0.149 GC
2 setlinecap
1 LJ
0.833 LW
N
401.8 29 M
401.8 34.68 L
S
GR
GS
[0.60093 0 0 0.60115 0 -0.40002] CT
0.149 GC
2 setlinecap
1 LJ
0.833 LW
N
458.6 29 M
458.6 34.68 L
S
GR
GS
[0.60093 0 0 0.60115 0 -0.40002] CT
0.149 GC
2 setlinecap
1 LJ
0.833 LW
N
515.4 29 M
515.4 34.68 L
S
GR
GS
[0.60093 0 0 0.60115 0 -0.40002] CT
0.149 GC
2 setlinecap
1 LJ
0.833 LW
N
572.2 29 M
572.2 34.68 L
S
GR
GS
[0.60093 0 0 0.60115 0 -0.40002] CT
0.149 GC
2 setlinecap
1 LJ
0.833 LW
N
629 29 M
629 34.68 L
S
GR
GS
[0.60093 0 0 0.60115 36.65657 286.74798] CT
0.149 GC
/Helvetica 16.667 F
GS
[1 0 0 1 0 0] CT
-5 17 moveto 
1 -1 scale
(0) t 
GR
GR
GS
[0.60093 0 0 0.60115 70.78925 286.74798] CT
0.149 GC
/Helvetica 16.667 F
GS
[1 0 0 1 0 0] CT
-14 17 moveto 
1 -1 scale
(100) t 
GR
GR
GS
[0.60093 0 0 0.60115 104.92193 286.74798] CT
0.149 GC
/Helvetica 16.667 F
GS
[1 0 0 1 0 0] CT
-14 17 moveto 
1 -1 scale
(200) t 
GR
GR
GS
[0.60093 0 0 0.60115 139.05459 286.74798] CT
0.149 GC
/Helvetica 16.667 F
GS
[1 0 0 1 0 0] CT
-14 17 moveto 
1 -1 scale
(300) t 
GR
GR
GS
[0.60093 0 0 0.60115 173.18728 286.74798] CT
0.149 GC
/Helvetica 16.667 F
GS
[1 0 0 1 0 0] CT
-14 17 moveto 
1 -1 scale
(400) t 
GR
GR
GS
[0.60093 0 0 0.60115 207.31995 286.74798] CT
0.149 GC
/Helvetica 16.667 F
GS
[1 0 0 1 0 0] CT
-14 17 moveto 
1 -1 scale
(500) t 
GR
GR
GS
[0.60093 0 0 0.60115 241.45262 286.74798] CT
0.149 GC
/Helvetica 16.667 F
GS
[1 0 0 1 0 0] CT
-14 17 moveto 
1 -1 scale
(600) t 
GR
GR
GS
[0.60093 0 0 0.60115 275.5853 286.74798] CT
0.149 GC
/Helvetica 16.667 F
GS
[1 0 0 1 0 0] CT
-14 17 moveto 
1 -1 scale
(700) t 
GR
GR
GS
[0.60093 0 0 0.60115 309.71799 286.74798] CT
0.149 GC
/Helvetica 16.667 F
GS
[1 0 0 1 0 0] CT
-14 17 moveto 
1 -1 scale
(800) t 
GR
GR
GS
[0.60093 0 0 0.60115 343.85066 286.74798] CT
0.149 GC
/Helvetica 16.667 F
GS
[1 0 0 1 0 0] CT
-14 17 moveto 
1 -1 scale
(900) t 
GR
GR
GS
[0.60093 0 0 0.60115 377.98333 286.74798] CT
0.149 GC
/Helvetica 16.667 F
GS
[1 0 0 1 0 0] CT
-19 17 moveto 
1 -1 scale
(1000) t 
GR
GR
GS
[0.60093 0 0 0.60115 207.32011 300.374] CT
0.149 GC
/Helvetica 18.333 F
GS
[1 0 0 1 0 0] CT
-34 19 moveto 
1 -1 scale
(Time \(s\)) t 
GR
GR
GS
[0.60093 0 0 0.60115 0 -0.40002] CT
0.149 GC
2 setlinecap
1 LJ
0.833 LW
N
61 471 M
61 29 L
S
GR
GS
[0.60093 0 0 0.60115 0 -0.40002] CT
0.149 GC
2 setlinecap
1 LJ
0.833 LW
N
629 471 M
629 29 L
S
GR
GS
[0.60093 0 0 0.60115 0 -0.40002] CT
0.149 GC
2 setlinecap
1 LJ
0.833 LW
N
61 471 M
66.68 471 L
S
GR
GS
[0.60093 0 0 0.60115 0 -0.40002] CT
0.149 GC
2 setlinecap
1 LJ
0.833 LW
N
61 407.857 M
66.68 407.857 L
S
GR
GS
[0.60093 0 0 0.60115 0 -0.40002] CT
0.149 GC
2 setlinecap
1 LJ
0.833 LW
N
61 344.714 M
66.68 344.714 L
S
GR
GS
[0.60093 0 0 0.60115 0 -0.40002] CT
0.149 GC
2 setlinecap
1 LJ
0.833 LW
N
61 281.571 M
66.68 281.571 L
S
GR
GS
[0.60093 0 0 0.60115 0 -0.40002] CT
0.149 GC
2 setlinecap
1 LJ
0.833 LW
N
61 218.429 M
66.68 218.429 L
S
GR
GS
[0.60093 0 0 0.60115 0 -0.40002] CT
0.149 GC
2 setlinecap
1 LJ
0.833 LW
N
61 155.286 M
66.68 155.286 L
S
GR
GS
[0.60093 0 0 0.60115 0 -0.40002] CT
0.149 GC
2 setlinecap
1 LJ
0.833 LW
N
61 92.143 M
66.68 92.143 L
S
GR
GS
[0.60093 0 0 0.60115 0 -0.40002] CT
0.149 GC
2 setlinecap
1 LJ
0.833 LW
N
61 29 M
66.68 29 L
S
GR
GS
[0.60093 0 0 0.60115 0 -0.40002] CT
0.149 GC
2 setlinecap
1 LJ
0.833 LW
N
629 471 M
623.32 471 L
S
GR
GS
[0.60093 0 0 0.60115 0 -0.40002] CT
0.149 GC
2 setlinecap
1 LJ
0.833 LW
N
629 407.857 M
623.32 407.857 L
S
GR
GS
[0.60093 0 0 0.60115 0 -0.40002] CT
0.149 GC
2 setlinecap
1 LJ
0.833 LW
N
629 344.714 M
623.32 344.714 L
S
GR
GS
[0.60093 0 0 0.60115 0 -0.40002] CT
0.149 GC
2 setlinecap
1 LJ
0.833 LW
N
629 281.571 M
623.32 281.571 L
S
GR
GS
[0.60093 0 0 0.60115 0 -0.40002] CT
0.149 GC
2 setlinecap
1 LJ
0.833 LW
N
629 218.429 M
623.32 218.429 L
S
GR
GS
[0.60093 0 0 0.60115 0 -0.40002] CT
0.149 GC
2 setlinecap
1 LJ
0.833 LW
N
629 155.286 M
623.32 155.286 L
S
GR
GS
[0.60093 0 0 0.60115 0 -0.40002] CT
0.149 GC
2 setlinecap
1 LJ
0.833 LW
N
629 92.143 M
623.32 92.143 L
S
GR
GS
[0.60093 0 0 0.60115 0 -0.40002] CT
0.149 GC
2 setlinecap
1 LJ
0.833 LW
N
629 29 M
623.32 29 L
S
GR
GS
[0.60093 0 0 0.60115 32.65039 282.74034] CT
0.149 GC
/Helvetica 16.667 F
GS
[1 0 0 1 0 0] CT
-25 6.5 moveto 
1 -1 scale
(-60) t 
GR
GR
GS
[0.60093 0 0 0.60115 32.65039 244.78219] CT
0.149 GC
/Helvetica 16.667 F
GS
[1 0 0 1 0 0] CT
-25 6.5 moveto 
1 -1 scale
(-50) t 
GR
GR
GS
[0.60093 0 0 0.60115 32.65039 206.82403] CT
0.149 GC
/Helvetica 16.667 F
GS
[1 0 0 1 0 0] CT
-25 6.5 moveto 
1 -1 scale
(-40) t 
GR
GR
GS
[0.60093 0 0 0.60115 32.65039 168.86588] CT
0.149 GC
/Helvetica 16.667 F
GS
[1 0 0 1 0 0] CT
-25 6.5 moveto 
1 -1 scale
(-30) t 
GR
GR
GS
[0.60093 0 0 0.60115 32.65039 130.90772] CT
0.149 GC
/Helvetica 16.667 F
GS
[1 0 0 1 0 0] CT
-25 6.5 moveto 
1 -1 scale
(-20) t 
GR
GR
GS
[0.60093 0 0 0.60115 32.65039 92.94956] CT
0.149 GC
/Helvetica 16.667 F
GS
[1 0 0 1 0 0] CT
-25 6.5 moveto 
1 -1 scale
(-10) t 
GR
GR
GS
[0.60093 0 0 0.60115 32.65039 54.9914] CT
0.149 GC
/Helvetica 16.667 F
GS
[1 0 0 1 0 0] CT
-10 6.5 moveto 
1 -1 scale
(0) t 
GR
GR
GS
[0.60093 0 0 0.60115 32.65039 17.03325] CT
0.149 GC
/Helvetica 16.667 F
GS
[1 0 0 1 0 0] CT
-19 6.5 moveto 
1 -1 scale
(10) t 
GR
GR
GS
[0 -0.60115 0.60093 0 14.62257 149.88667] CT
0.149 GC
/Helvetica 18.333 F
GS
[1 0 0 1 0 0] CT
-48.5 -5 moveto 
1 -1 scale
(Hamiltonian) t 
GR
GR
GS
[0.60093 0 0 0.60115 207.32015 15.38009] CT
/Helvetica-Bold 18.333 F
GS
[1 0 0 1 0 0] CT
-89.5 -5 moveto 
1 -1 scale
(Hamiltonian vs Time) t 
GR
GR
GS
[0.60093 0 0 0.60115 0 -0.40002] CT
1 0 0 RC
1 LJ
2.5 LW
N
61 333.444 M
61.274 333.444 L
62.431 333.444 L
64.459 333.444 L
67.271 333.445 L
70.742 333.445 L
74.723 333.445 L
79.038 333.446 L
83.499 333.447 L
87.911 333.448 L
92.082 333.449 L
95.828 333.45 L
98.987 333.451 L
101.42 333.453 L
103.021 333.453 L
103.714 333.454 L
S
GR
GS
[0.60093 0 0 0.60115 0 -0.40002] CT
1 0 0 RC
1 LJ
2.5 LW
N
103.714 314.904 M
103.988 314.904 L
105.145 314.906 L
107.173 314.907 L
109.984 314.908 L
113.456 314.909 L
117.436 314.91 L
121.751 314.91 L
126.212 314.911 L
130.625 314.911 L
134.795 314.911 L
138.542 314.911 L
141.701 314.911 L
144.134 314.911 L
145.734 314.911 L
146.427 314.911 L
S
GR
GS
[0.60093 0 0 0.60115 0 -0.40002] CT
1 0 0 RC
1 LJ
2.5 LW
N
146.427 261.526 M
146.83 261.526 L
148.532 261.527 L
151.515 261.527 L
155.65 261.527 L
160.756 261.527 L
166.61 261.527 L
172.956 261.527 L
179.517 261.527 L
186.007 261.527 L
192.14 261.527 L
197.651 261.527 L
202.296 261.527 L
205.875 261.527 L
208.229 261.527 L
209.248 261.527 L
S
GR
GS
[0.60093 0 0 0.60115 0 -0.40002] CT
1 0 0 RC
1 LJ
2.5 LW
N
209.248 92.143 M
211.665 92.143 L
221.866 92.143 L
239.752 92.143 L
264.543 92.143 L
295.157 92.143 L
330.257 92.143 L
368.307 92.143 L
407.646 92.143 L
446.554 92.143 L
483.331 92.143 L
516.369 92.143 L
544.223 92.143 L
565.678 92.143 L
579.792 92.143 L
585.903 92.143 L
S
GR
GS
[0.60093 0 0 0.60115 0 -0.40002] CT
[12 12] 0 setdash
2 LJ
3.333 LW
N
61 455.887 M
103.714 455.887 L
S
GR
GS
[0.60093 0 0 0.60115 0 -0.40002] CT
[12 12] 0 setdash
2 LJ
3.333 LW
N
103.714 315.1 M
146.427 315.1 L
S
GR
GS
[0.60093 0 0 0.60115 0 -0.40002] CT
[12 12] 0 setdash
2 LJ
3.333 LW
N
146.427 172.704 M
209.248 172.363 L
S
GR
GS
[0.60093 0 0 0.60115 0 -0.40002] CT
[12 12] 0 setdash
2 LJ
3.333 LW
N
209.248 92.143 M
586.752 92.143 L
S
GR
GS
[0.60093 0 0 0.60115 0 -0.40002] CT
1 GC
N
616 458 M
616 412 L
382 412 L
382 458 L
cp
f
GR
GS
[0.60093 0 0 0.60115 264.8965 254.84876] CT
/Helvetica 15 F
GS
[1 0 0 1 0 0] CT
0 6 moveto 
1 -1 scale
(SPARTAN) t 
GR
GR
GS
[0.60093 0 0 0.60115 0 -0.40002] CT
1 0 0 RC
1 LJ
2.5 LW
N
387.005 424.603 M
437.059 424.603 L
S
GR
GS
[0.60093 0 0 0.60115 264.8965 267.34932] CT
/Helvetica 15 F
GS
[1 0 0 1 0 0] CT
0 6 moveto 
1 -1 scale
(Rao et al. 2010 \(GPOPS\)) t 
GR
GR
GS
[0.60093 0 0 0.60115 0 -0.40002] CT
[12 12] 0 setdash
2 LJ
3.333 LW
N
387.005 445.397 M
437.059 445.397 L
S
GR
GS
[0.60093 0 0 0.60115 0 -0.40002] CT
0.149 GC
10.0 ML
0.833 LW
N
382 458 M
382 412 L
616 412 L
616 458 L
cp
S
GR
%%Trailer
%%Pages: 1
%%EOF
