%!PS-Adobe-3.0 EPSF-3.0
%%Creator: (MATLAB, The Mathworks, Inc. Version 9.6.0.1072779 \(R2019a\). Operating System: Windows 10)
%%Title: ./Hamiltonian.eps
%%CreationDate: 2020-10-07T15:06:50
%%Pages: (atend)
%%BoundingBox:     3     0   389   348
%%LanguageLevel: 3
%%EndComments
%%BeginProlog
%%BeginResource: procset (Apache XML Graphics Std ProcSet) 1.2 0
%%Version: 1.2 0
%%Copyright: (Copyright 2001-2003,2010 The Apache Software Foundation. License terms: http://www.apache.org/licenses/LICENSE-2.0)
/bd{bind def}bind def
/ld{load def}bd
/GR/grestore ld
/GS/gsave ld
/RM/rmoveto ld
/C/curveto ld
/t/show ld
/L/lineto ld
/ML/setmiterlimit ld
/CT/concat ld
/f/fill ld
/N/newpath ld
/S/stroke ld
/CC/setcmykcolor ld
/A/ashow ld
/cp/closepath ld
/RC/setrgbcolor ld
/LJ/setlinejoin ld
/GC/setgray ld
/LW/setlinewidth ld
/M/moveto ld
/re {4 2 roll M
1 index 0 rlineto
0 exch rlineto
neg 0 rlineto
cp } bd
/_ctm matrix def
/_tm matrix def
/BT { _ctm currentmatrix pop matrix _tm copy pop 0 0 moveto } bd
/ET { _ctm setmatrix } bd
/iTm { _ctm setmatrix _tm concat } bd
/Tm { _tm astore pop iTm 0 0 moveto } bd
/ux 0.0 def
/uy 0.0 def
/F {
  /Tp exch def
  /Tf exch def
  Tf findfont Tp scalefont setfont
  /cf Tf def  /cs Tp def
} bd
/ULS {currentpoint /uy exch def /ux exch def} bd
/ULE {
  /Tcx currentpoint pop def
  gsave
  newpath
  cf findfont cs scalefont dup
  /FontMatrix get 0 get /Ts exch def /FontInfo get dup
  /UnderlinePosition get Ts mul /To exch def
  /UnderlineThickness get Ts mul /Tt exch def
  ux uy To add moveto  Tcx uy To add lineto
  Tt setlinewidth stroke
  grestore
} bd
/OLE {
  /Tcx currentpoint pop def
  gsave
  newpath
  cf findfont cs scalefont dup
  /FontMatrix get 0 get /Ts exch def /FontInfo get dup
  /UnderlinePosition get Ts mul /To exch def
  /UnderlineThickness get Ts mul /Tt exch def
  ux uy To add cs add moveto Tcx uy To add cs add lineto
  Tt setlinewidth stroke
  grestore
} bd
/SOE {
  /Tcx currentpoint pop def
  gsave
  newpath
  cf findfont cs scalefont dup
  /FontMatrix get 0 get /Ts exch def /FontInfo get dup
  /UnderlinePosition get Ts mul /To exch def
  /UnderlineThickness get Ts mul /Tt exch def
  ux uy To add cs 10 mul 26 idiv add moveto Tcx uy To add cs 10 mul 26 idiv add lineto
  Tt setlinewidth stroke
  grestore
} bd
/QT {
/Y22 exch store
/X22 exch store
/Y21 exch store
/X21 exch store
currentpoint
/Y21 load 2 mul add 3 div exch
/X21 load 2 mul add 3 div exch
/X21 load 2 mul /X22 load add 3 div
/Y21 load 2 mul /Y22 load add 3 div
/X22 load /Y22 load curveto
} bd
/SSPD {
dup length /d exch dict def
{
/v exch def
/k exch def
currentpagedevice k known {
/cpdv currentpagedevice k get def
v cpdv ne {
/upd false def
/nullv v type /nulltype eq def
/nullcpdv cpdv type /nulltype eq def
nullv nullcpdv or
{
/upd true def
} {
/sametype v type cpdv type eq def
sametype {
v type /arraytype eq {
/vlen v length def
/cpdvlen cpdv length def
vlen cpdvlen eq {
0 1 vlen 1 sub {
/i exch def
/obj v i get def
/cpdobj cpdv i get def
obj cpdobj ne {
/upd true def
exit
} if
} for
} {
/upd true def
} ifelse
} {
v type /dicttype eq {
v {
/dv exch def
/dk exch def
/cpddv cpdv dk get def
dv cpddv ne {
/upd true def
exit
} if
} forall
} {
/upd true def
} ifelse
} ifelse
} if
} ifelse
upd true eq {
d k v put
} if
} if
} if
} forall
d length 0 gt {
d setpagedevice
} if
} bd
/RE { % /NewFontName [NewEncodingArray] /FontName RE -
  findfont dup length dict begin
  {
    1 index /FID ne
    {def} {pop pop} ifelse
  } forall
  /Encoding exch def
  /FontName 1 index def
  currentdict definefont pop
  end
} bind def
%%EndResource
%%BeginResource: procset (Apache XML Graphics EPS ProcSet) 1.0 0
%%Version: 1.0 0
%%Copyright: (Copyright 2002-2003 The Apache Software Foundation. License terms: http://www.apache.org/licenses/LICENSE-2.0)
/BeginEPSF { %def
/b4_Inc_state save def         % Save state for cleanup
/dict_count countdictstack def % Count objects on dict stack
/op_count count 1 sub def      % Count objects on operand stack
userdict begin                 % Push userdict on dict stack
/showpage { } def              % Redefine showpage, { } = null proc
0 setgray 0 setlinecap         % Prepare graphics state
1 setlinewidth 0 setlinejoin
10 setmiterlimit [ ] 0 setdash newpath
/languagelevel where           % If level not equal to 1 then
{pop languagelevel             % set strokeadjust and
1 ne                           % overprint to their defaults.
{false setstrokeadjust false setoverprint
} if
} if
} bd
/EndEPSF { %def
count op_count sub {pop} repeat            % Clean up stacks
countdictstack dict_count sub {end} repeat
b4_Inc_state restore
} bd
%%EndResource
%FOPBeginFontDict
%%IncludeResource: font Courier-Oblique
%%IncludeResource: font Courier-BoldOblique
%%IncludeResource: font Courier-Bold
%%IncludeResource: font ZapfDingbats
%%IncludeResource: font Symbol
%%IncludeResource: font Helvetica
%%IncludeResource: font Helvetica-Oblique
%%IncludeResource: font Helvetica-Bold
%%IncludeResource: font Helvetica-BoldOblique
%%IncludeResource: font Times-Roman
%%IncludeResource: font Times-Italic
%%IncludeResource: font Times-Bold
%%IncludeResource: font Times-BoldItalic
%%IncludeResource: font Courier
%FOPEndFontDict
%%BeginResource: encoding WinAnsiEncoding
/WinAnsiEncoding [
/.notdef /.notdef /.notdef /.notdef /.notdef
/.notdef /.notdef /.notdef /.notdef /.notdef
/.notdef /.notdef /.notdef /.notdef /.notdef
/.notdef /.notdef /.notdef /.notdef /.notdef
/.notdef /.notdef /.notdef /.notdef /.notdef
/.notdef /.notdef /.notdef /.notdef /.notdef
/.notdef /.notdef /space /exclam /quotedbl
/numbersign /dollar /percent /ampersand /quotesingle
/parenleft /parenright /asterisk /plus /comma
/hyphen /period /slash /zero /one
/two /three /four /five /six
/seven /eight /nine /colon /semicolon
/less /equal /greater /question /at
/A /B /C /D /E
/F /G /H /I /J
/K /L /M /N /O
/P /Q /R /S /T
/U /V /W /X /Y
/Z /bracketleft /backslash /bracketright /asciicircum
/underscore /quoteleft /a /b /c
/d /e /f /g /h
/i /j /k /l /m
/n /o /p /q /r
/s /t /u /v /w
/x /y /z /braceleft /bar
/braceright /asciitilde /bullet /Euro /bullet
/quotesinglbase /florin /quotedblbase /ellipsis /dagger
/daggerdbl /circumflex /perthousand /Scaron /guilsinglleft
/OE /bullet /Zcaron /bullet /bullet
/quoteleft /quoteright /quotedblleft /quotedblright /bullet
/endash /emdash /asciitilde /trademark /scaron
/guilsinglright /oe /bullet /zcaron /Ydieresis
/space /exclamdown /cent /sterling /currency
/yen /brokenbar /section /dieresis /copyright
/ordfeminine /guillemotleft /logicalnot /sfthyphen /registered
/macron /degree /plusminus /twosuperior /threesuperior
/acute /mu /paragraph /middot /cedilla
/onesuperior /ordmasculine /guillemotright /onequarter /onehalf
/threequarters /questiondown /Agrave /Aacute /Acircumflex
/Atilde /Adieresis /Aring /AE /Ccedilla
/Egrave /Eacute /Ecircumflex /Edieresis /Igrave
/Iacute /Icircumflex /Idieresis /Eth /Ntilde
/Ograve /Oacute /Ocircumflex /Otilde /Odieresis
/multiply /Oslash /Ugrave /Uacute /Ucircumflex
/Udieresis /Yacute /Thorn /germandbls /agrave
/aacute /acircumflex /atilde /adieresis /aring
/ae /ccedilla /egrave /eacute /ecircumflex
/edieresis /igrave /iacute /icircumflex /idieresis
/eth /ntilde /ograve /oacute /ocircumflex
/otilde /odieresis /divide /oslash /ugrave
/uacute /ucircumflex /udieresis /yacute /thorn
/ydieresis
] def
%%EndResource
%FOPBeginFontReencode
/Courier-Oblique findfont
dup length dict begin
  {1 index /FID ne {def} {pop pop} ifelse} forall
  /Encoding WinAnsiEncoding def
  currentdict
end
/Courier-Oblique exch definefont pop
/Courier-BoldOblique findfont
dup length dict begin
  {1 index /FID ne {def} {pop pop} ifelse} forall
  /Encoding WinAnsiEncoding def
  currentdict
end
/Courier-BoldOblique exch definefont pop
/Courier-Bold findfont
dup length dict begin
  {1 index /FID ne {def} {pop pop} ifelse} forall
  /Encoding WinAnsiEncoding def
  currentdict
end
/Courier-Bold exch definefont pop
/Helvetica findfont
dup length dict begin
  {1 index /FID ne {def} {pop pop} ifelse} forall
  /Encoding WinAnsiEncoding def
  currentdict
end
/Helvetica exch definefont pop
/Helvetica-Oblique findfont
dup length dict begin
  {1 index /FID ne {def} {pop pop} ifelse} forall
  /Encoding WinAnsiEncoding def
  currentdict
end
/Helvetica-Oblique exch definefont pop
/Helvetica-Bold findfont
dup length dict begin
  {1 index /FID ne {def} {pop pop} ifelse} forall
  /Encoding WinAnsiEncoding def
  currentdict
end
/Helvetica-Bold exch definefont pop
/Helvetica-BoldOblique findfont
dup length dict begin
  {1 index /FID ne {def} {pop pop} ifelse} forall
  /Encoding WinAnsiEncoding def
  currentdict
end
/Helvetica-BoldOblique exch definefont pop
/Times-Roman findfont
dup length dict begin
  {1 index /FID ne {def} {pop pop} ifelse} forall
  /Encoding WinAnsiEncoding def
  currentdict
end
/Times-Roman exch definefont pop
/Times-Italic findfont
dup length dict begin
  {1 index /FID ne {def} {pop pop} ifelse} forall
  /Encoding WinAnsiEncoding def
  currentdict
end
/Times-Italic exch definefont pop
/Times-Bold findfont
dup length dict begin
  {1 index /FID ne {def} {pop pop} ifelse} forall
  /Encoding WinAnsiEncoding def
  currentdict
end
/Times-Bold exch definefont pop
/Times-BoldItalic findfont
dup length dict begin
  {1 index /FID ne {def} {pop pop} ifelse} forall
  /Encoding WinAnsiEncoding def
  currentdict
end
/Times-BoldItalic exch definefont pop
/Courier findfont
dup length dict begin
  {1 index /FID ne {def} {pop pop} ifelse} forall
  /Encoding WinAnsiEncoding def
  currentdict
end
/Courier exch definefont pop
%FOPEndFontReencode
%%EndProlog
%%Page: 1 1
%%PageBoundingBox: 0 0 390 352
%%BeginPageSetup
[1 0 0 -1 0 352] CT
%%EndPageSetup
GS
[0.6 0 0 0.6 0 -0.20001] CT
N
0 0 M
650 0 L
650 587 L
0 587 L
0 0 L
cp
clip
1 GC
N
0 0 650 587 re
f
GR
GS
[0.6 0 0 0.6 0 -0.20001] CT
1 GC
N
0 0 650 587 re
f
GR
GS
[0.6 0 0 0.6 0 -0.20001] CT
1 GC
N
61 534 M
631 534 L
631 29 L
61 29 L
cp
f
GR
GS
[0.6 0 0 0.6 0 -0.20001] CT
0.775 GC
[1 3] 0 setdash
2 LJ
0.833 LW
N
72.4 534 M
72.4 29 L
S
GR
GS
[0.6 0 0 0.6 0 -0.20001] CT
0.775 GC
[1 3] 0 setdash
2 LJ
0.833 LW
N
83.8 534 M
83.8 29 L
S
GR
GS
[0.6 0 0 0.6 0 -0.20001] CT
0.775 GC
[1 3] 0 setdash
2 LJ
0.833 LW
N
95.2 534 M
95.2 29 L
S
GR
GS
[0.6 0 0 0.6 0 -0.20001] CT
0.775 GC
[1 3] 0 setdash
2 LJ
0.833 LW
N
106.6 534 M
106.6 29 L
S
GR
GS
[0.6 0 0 0.6 0 -0.20001] CT
0.775 GC
[1 3] 0 setdash
2 LJ
0.833 LW
N
129.4 534 M
129.4 29 L
S
GR
GS
[0.6 0 0 0.6 0 -0.20001] CT
0.775 GC
[1 3] 0 setdash
2 LJ
0.833 LW
N
140.8 534 M
140.8 29 L
S
GR
GS
[0.6 0 0 0.6 0 -0.20001] CT
0.775 GC
[1 3] 0 setdash
2 LJ
0.833 LW
N
152.2 534 M
152.2 29 L
S
GR
GS
[0.6 0 0 0.6 0 -0.20001] CT
0.775 GC
[1 3] 0 setdash
2 LJ
0.833 LW
N
163.6 534 M
163.6 29 L
S
GR
GS
[0.6 0 0 0.6 0 -0.20001] CT
0.775 GC
[1 3] 0 setdash
2 LJ
0.833 LW
N
186.4 534 M
186.4 29 L
S
GR
GS
[0.6 0 0 0.6 0 -0.20001] CT
0.775 GC
[1 3] 0 setdash
2 LJ
0.833 LW
N
197.8 534 M
197.8 29 L
S
GR
GS
[0.6 0 0 0.6 0 -0.20001] CT
0.775 GC
[1 3] 0 setdash
2 LJ
0.833 LW
N
209.2 534 M
209.2 29 L
S
GR
GS
[0.6 0 0 0.6 0 -0.20001] CT
0.775 GC
[1 3] 0 setdash
2 LJ
0.833 LW
N
220.6 534 M
220.6 29 L
S
GR
GS
[0.6 0 0 0.6 0 -0.20001] CT
0.775 GC
[1 3] 0 setdash
2 LJ
0.833 LW
N
243.4 534 M
243.4 29 L
S
GR
GS
[0.6 0 0 0.6 0 -0.20001] CT
0.775 GC
[1 3] 0 setdash
2 LJ
0.833 LW
N
254.8 534 M
254.8 29 L
S
GR
GS
[0.6 0 0 0.6 0 -0.20001] CT
0.775 GC
[1 3] 0 setdash
2 LJ
0.833 LW
N
266.2 534 M
266.2 29 L
S
GR
GS
[0.6 0 0 0.6 0 -0.20001] CT
0.775 GC
[1 3] 0 setdash
2 LJ
0.833 LW
N
277.6 534 M
277.6 29 L
S
GR
GS
[0.6 0 0 0.6 0 -0.20001] CT
0.775 GC
[1 3] 0 setdash
2 LJ
0.833 LW
N
300.4 534 M
300.4 29 L
S
GR
GS
[0.6 0 0 0.6 0 -0.20001] CT
0.775 GC
[1 3] 0 setdash
2 LJ
0.833 LW
N
311.8 534 M
311.8 29 L
S
GR
GS
[0.6 0 0 0.6 0 -0.20001] CT
0.775 GC
[1 3] 0 setdash
2 LJ
0.833 LW
N
323.2 534 M
323.2 29 L
S
GR
GS
[0.6 0 0 0.6 0 -0.20001] CT
0.775 GC
[1 3] 0 setdash
2 LJ
0.833 LW
N
334.6 534 M
334.6 29 L
S
GR
GS
[0.6 0 0 0.6 0 -0.20001] CT
0.775 GC
[1 3] 0 setdash
2 LJ
0.833 LW
N
357.4 534 M
357.4 29 L
S
GR
GS
[0.6 0 0 0.6 0 -0.20001] CT
0.775 GC
[1 3] 0 setdash
2 LJ
0.833 LW
N
368.8 534 M
368.8 29 L
S
GR
GS
[0.6 0 0 0.6 0 -0.20001] CT
0.775 GC
[1 3] 0 setdash
2 LJ
0.833 LW
N
380.2 534 M
380.2 29 L
S
GR
GS
[0.6 0 0 0.6 0 -0.20001] CT
0.775 GC
[1 3] 0 setdash
2 LJ
0.833 LW
N
391.6 534 M
391.6 29 L
S
GR
GS
[0.6 0 0 0.6 0 -0.20001] CT
0.775 GC
[1 3] 0 setdash
2 LJ
0.833 LW
N
414.4 534 M
414.4 29 L
S
GR
GS
[0.6 0 0 0.6 0 -0.20001] CT
0.775 GC
[1 3] 0 setdash
2 LJ
0.833 LW
N
425.8 534 M
425.8 29 L
S
GR
GS
[0.6 0 0 0.6 0 -0.20001] CT
0.775 GC
[1 3] 0 setdash
2 LJ
0.833 LW
N
437.2 534 M
437.2 29 L
S
GR
GS
[0.6 0 0 0.6 0 -0.20001] CT
0.775 GC
[1 3] 0 setdash
2 LJ
0.833 LW
N
448.6 534 M
448.6 29 L
S
GR
GS
[0.6 0 0 0.6 0 -0.20001] CT
0.775 GC
[1 3] 0 setdash
2 LJ
0.833 LW
N
471.4 534 M
471.4 29 L
S
GR
GS
[0.6 0 0 0.6 0 -0.20001] CT
0.775 GC
[1 3] 0 setdash
2 LJ
0.833 LW
N
482.8 534 M
482.8 29 L
S
GR
GS
[0.6 0 0 0.6 0 -0.20001] CT
0.775 GC
[1 3] 0 setdash
2 LJ
0.833 LW
N
494.2 534 M
494.2 29 L
S
GR
GS
[0.6 0 0 0.6 0 -0.20001] CT
0.775 GC
[1 3] 0 setdash
2 LJ
0.833 LW
N
505.6 534 M
505.6 29 L
S
GR
GS
[0.6 0 0 0.6 0 -0.20001] CT
0.775 GC
[1 3] 0 setdash
2 LJ
0.833 LW
N
528.4 534 M
528.4 29 L
S
GR
GS
[0.6 0 0 0.6 0 -0.20001] CT
0.775 GC
[1 3] 0 setdash
2 LJ
0.833 LW
N
539.8 534 M
539.8 29 L
S
GR
GS
[0.6 0 0 0.6 0 -0.20001] CT
0.775 GC
[1 3] 0 setdash
2 LJ
0.833 LW
N
551.2 534 M
551.2 29 L
S
GR
GS
[0.6 0 0 0.6 0 -0.20001] CT
0.775 GC
[1 3] 0 setdash
2 LJ
0.833 LW
N
562.6 534 M
562.6 29 L
S
GR
GS
[0.6 0 0 0.6 0 -0.20001] CT
0.775 GC
[1 3] 0 setdash
2 LJ
0.833 LW
N
585.4 534 M
585.4 29 L
S
GR
GS
[0.6 0 0 0.6 0 -0.20001] CT
0.775 GC
[1 3] 0 setdash
2 LJ
0.833 LW
N
596.8 534 M
596.8 29 L
S
GR
GS
[0.6 0 0 0.6 0 -0.20001] CT
0.775 GC
[1 3] 0 setdash
2 LJ
0.833 LW
N
608.2 534 M
608.2 29 L
S
GR
GS
[0.6 0 0 0.6 0 -0.20001] CT
0.775 GC
[1 3] 0 setdash
2 LJ
0.833 LW
N
619.6 534 M
619.6 29 L
S
GR
GS
[0.6 0 0 0.6 0 -0.20001] CT
0.873 GC
1 LJ
0.833 LW
N
61 534 M
61 29 L
S
GR
GS
[0.6 0 0 0.6 0 -0.20001] CT
0.873 GC
1 LJ
0.833 LW
N
118 534 M
118 29 L
S
GR
GS
[0.6 0 0 0.6 0 -0.20001] CT
0.873 GC
1 LJ
0.833 LW
N
175 534 M
175 29 L
S
GR
GS
[0.6 0 0 0.6 0 -0.20001] CT
0.873 GC
1 LJ
0.833 LW
N
232 534 M
232 29 L
S
GR
GS
[0.6 0 0 0.6 0 -0.20001] CT
0.873 GC
1 LJ
0.833 LW
N
289 534 M
289 29 L
S
GR
GS
[0.6 0 0 0.6 0 -0.20001] CT
0.873 GC
1 LJ
0.833 LW
N
346 534 M
346 29 L
S
GR
GS
[0.6 0 0 0.6 0 -0.20001] CT
0.873 GC
1 LJ
0.833 LW
N
403 534 M
403 29 L
S
GR
GS
[0.6 0 0 0.6 0 -0.20001] CT
0.873 GC
1 LJ
0.833 LW
N
460 534 M
460 29 L
S
GR
GS
[0.6 0 0 0.6 0 -0.20001] CT
0.873 GC
1 LJ
0.833 LW
N
517 534 M
517 29 L
S
GR
GS
[0.6 0 0 0.6 0 -0.20001] CT
0.873 GC
1 LJ
0.833 LW
N
574 534 M
574 29 L
S
GR
GS
[0.6 0 0 0.6 0 -0.20001] CT
0.873 GC
1 LJ
0.833 LW
N
631 534 M
631 29 L
S
GR
GS
[0.6 0 0 0.6 0 -0.20001] CT
0.775 GC
[1 3] 0 setdash
2 LJ
0.833 LW
N
631 519.571 M
61 519.571 L
S
GR
GS
[0.6 0 0 0.6 0 -0.20001] CT
0.775 GC
[1 3] 0 setdash
2 LJ
0.833 LW
N
631 505.143 M
61 505.143 L
S
GR
GS
[0.6 0 0 0.6 0 -0.20001] CT
0.775 GC
[1 3] 0 setdash
2 LJ
0.833 LW
N
631 490.714 M
61 490.714 L
S
GR
GS
[0.6 0 0 0.6 0 -0.20001] CT
0.775 GC
[1 3] 0 setdash
2 LJ
0.833 LW
N
631 476.286 M
61 476.286 L
S
GR
GS
[0.6 0 0 0.6 0 -0.20001] CT
0.775 GC
[1 3] 0 setdash
2 LJ
0.833 LW
N
631 447.429 M
61 447.429 L
S
GR
GS
[0.6 0 0 0.6 0 -0.20001] CT
0.775 GC
[1 3] 0 setdash
2 LJ
0.833 LW
N
631 433 M
61 433 L
S
GR
GS
[0.6 0 0 0.6 0 -0.20001] CT
0.775 GC
[1 3] 0 setdash
2 LJ
0.833 LW
N
631 418.571 M
61 418.571 L
S
GR
GS
[0.6 0 0 0.6 0 -0.20001] CT
0.775 GC
[1 3] 0 setdash
2 LJ
0.833 LW
N
631 404.143 M
61 404.143 L
S
GR
GS
[0.6 0 0 0.6 0 -0.20001] CT
0.775 GC
[1 3] 0 setdash
2 LJ
0.833 LW
N
631 375.286 M
61 375.286 L
S
GR
GS
[0.6 0 0 0.6 0 -0.20001] CT
0.775 GC
[1 3] 0 setdash
2 LJ
0.833 LW
N
631 360.857 M
61 360.857 L
S
GR
GS
[0.6 0 0 0.6 0 -0.20001] CT
0.775 GC
[1 3] 0 setdash
2 LJ
0.833 LW
N
631 346.429 M
61 346.429 L
S
GR
GS
[0.6 0 0 0.6 0 -0.20001] CT
0.775 GC
[1 3] 0 setdash
2 LJ
0.833 LW
N
631 332 M
61 332 L
S
GR
GS
[0.6 0 0 0.6 0 -0.20001] CT
0.775 GC
[1 3] 0 setdash
2 LJ
0.833 LW
N
631 303.143 M
61 303.143 L
S
GR
GS
[0.6 0 0 0.6 0 -0.20001] CT
0.775 GC
[1 3] 0 setdash
2 LJ
0.833 LW
N
631 288.714 M
61 288.714 L
S
GR
GS
[0.6 0 0 0.6 0 -0.20001] CT
0.775 GC
[1 3] 0 setdash
2 LJ
0.833 LW
N
631 274.286 M
61 274.286 L
S
GR
GS
[0.6 0 0 0.6 0 -0.20001] CT
0.775 GC
[1 3] 0 setdash
2 LJ
0.833 LW
N
631 259.857 M
61 259.857 L
S
GR
GS
[0.6 0 0 0.6 0 -0.20001] CT
0.775 GC
[1 3] 0 setdash
2 LJ
0.833 LW
N
631 231 M
61 231 L
S
GR
GS
[0.6 0 0 0.6 0 -0.20001] CT
0.775 GC
[1 3] 0 setdash
2 LJ
0.833 LW
N
631 216.571 M
61 216.571 L
S
GR
GS
[0.6 0 0 0.6 0 -0.20001] CT
0.775 GC
[1 3] 0 setdash
2 LJ
0.833 LW
N
631 202.143 M
61 202.143 L
S
GR
GS
[0.6 0 0 0.6 0 -0.20001] CT
0.775 GC
[1 3] 0 setdash
2 LJ
0.833 LW
N
631 187.714 M
61 187.714 L
S
GR
GS
[0.6 0 0 0.6 0 -0.20001] CT
0.775 GC
[1 3] 0 setdash
2 LJ
0.833 LW
N
631 158.857 M
61 158.857 L
S
GR
GS
[0.6 0 0 0.6 0 -0.20001] CT
0.775 GC
[1 3] 0 setdash
2 LJ
0.833 LW
N
631 144.429 M
61 144.429 L
S
GR
GS
[0.6 0 0 0.6 0 -0.20001] CT
0.775 GC
[1 3] 0 setdash
2 LJ
0.833 LW
N
631 130 M
61 130 L
S
GR
GS
[0.6 0 0 0.6 0 -0.20001] CT
0.775 GC
[1 3] 0 setdash
2 LJ
0.833 LW
N
631 115.571 M
61 115.571 L
S
GR
GS
[0.6 0 0 0.6 0 -0.20001] CT
0.775 GC
[1 3] 0 setdash
2 LJ
0.833 LW
N
631 86.714 M
61 86.714 L
S
GR
GS
[0.6 0 0 0.6 0 -0.20001] CT
0.775 GC
[1 3] 0 setdash
2 LJ
0.833 LW
N
631 72.286 M
61 72.286 L
S
GR
GS
[0.6 0 0 0.6 0 -0.20001] CT
0.775 GC
[1 3] 0 setdash
2 LJ
0.833 LW
N
631 57.857 M
61 57.857 L
S
GR
GS
[0.6 0 0 0.6 0 -0.20001] CT
0.775 GC
[1 3] 0 setdash
2 LJ
0.833 LW
N
631 43.429 M
61 43.429 L
S
GR
GS
[0.6 0 0 0.6 0 -0.20001] CT
0.873 GC
1 LJ
0.833 LW
N
631 534 M
61 534 L
S
GR
GS
[0.6 0 0 0.6 0 -0.20001] CT
0.873 GC
1 LJ
0.833 LW
N
631 461.857 M
61 461.857 L
S
GR
GS
[0.6 0 0 0.6 0 -0.20001] CT
0.873 GC
1 LJ
0.833 LW
N
631 389.714 M
61 389.714 L
S
GR
GS
[0.6 0 0 0.6 0 -0.20001] CT
0.873 GC
1 LJ
0.833 LW
N
631 317.571 M
61 317.571 L
S
GR
GS
[0.6 0 0 0.6 0 -0.20001] CT
0.873 GC
1 LJ
0.833 LW
N
631 245.429 M
61 245.429 L
S
GR
GS
[0.6 0 0 0.6 0 -0.20001] CT
0.873 GC
1 LJ
0.833 LW
N
631 173.286 M
61 173.286 L
S
GR
GS
[0.6 0 0 0.6 0 -0.20001] CT
0.873 GC
1 LJ
0.833 LW
N
631 101.143 M
61 101.143 L
S
GR
GS
[0.6 0 0 0.6 0 -0.20001] CT
0.873 GC
1 LJ
0.833 LW
N
631 29 M
61 29 L
S
GR
GS
[0.6 0 0 0.6 0 -0.20001] CT
0.149 GC
2 setlinecap
1 LJ
0.833 LW
N
61 534 M
631 534 L
S
GR
GS
[0.6 0 0 0.6 0 -0.20001] CT
0.149 GC
2 setlinecap
1 LJ
0.833 LW
N
61 29 M
631 29 L
S
GR
GS
[0.6 0 0 0.6 0 -0.20001] CT
0.149 GC
2 setlinecap
1 LJ
0.833 LW
N
61 534 M
61 528.3 L
S
GR
GS
[0.6 0 0 0.6 0 -0.20001] CT
0.149 GC
2 setlinecap
1 LJ
0.833 LW
N
118 534 M
118 528.3 L
S
GR
GS
[0.6 0 0 0.6 0 -0.20001] CT
0.149 GC
2 setlinecap
1 LJ
0.833 LW
N
175 534 M
175 528.3 L
S
GR
GS
[0.6 0 0 0.6 0 -0.20001] CT
0.149 GC
2 setlinecap
1 LJ
0.833 LW
N
232 534 M
232 528.3 L
S
GR
GS
[0.6 0 0 0.6 0 -0.20001] CT
0.149 GC
2 setlinecap
1 LJ
0.833 LW
N
289 534 M
289 528.3 L
S
GR
GS
[0.6 0 0 0.6 0 -0.20001] CT
0.149 GC
2 setlinecap
1 LJ
0.833 LW
N
346 534 M
346 528.3 L
S
GR
GS
[0.6 0 0 0.6 0 -0.20001] CT
0.149 GC
2 setlinecap
1 LJ
0.833 LW
N
403 534 M
403 528.3 L
S
GR
GS
[0.6 0 0 0.6 0 -0.20001] CT
0.149 GC
2 setlinecap
1 LJ
0.833 LW
N
460 534 M
460 528.3 L
S
GR
GS
[0.6 0 0 0.6 0 -0.20001] CT
0.149 GC
2 setlinecap
1 LJ
0.833 LW
N
517 534 M
517 528.3 L
S
GR
GS
[0.6 0 0 0.6 0 -0.20001] CT
0.149 GC
2 setlinecap
1 LJ
0.833 LW
N
574 534 M
574 528.3 L
S
GR
GS
[0.6 0 0 0.6 0 -0.20001] CT
0.149 GC
2 setlinecap
1 LJ
0.833 LW
N
631 534 M
631 528.3 L
S
GR
GS
[0.6 0 0 0.6 0 -0.20001] CT
0.149 GC
2 setlinecap
1 LJ
0.833 LW
N
61 29 M
61 34.7 L
S
GR
GS
[0.6 0 0 0.6 0 -0.20001] CT
0.149 GC
2 setlinecap
1 LJ
0.833 LW
N
118 29 M
118 34.7 L
S
GR
GS
[0.6 0 0 0.6 0 -0.20001] CT
0.149 GC
2 setlinecap
1 LJ
0.833 LW
N
175 29 M
175 34.7 L
S
GR
GS
[0.6 0 0 0.6 0 -0.20001] CT
0.149 GC
2 setlinecap
1 LJ
0.833 LW
N
232 29 M
232 34.7 L
S
GR
GS
[0.6 0 0 0.6 0 -0.20001] CT
0.149 GC
2 setlinecap
1 LJ
0.833 LW
N
289 29 M
289 34.7 L
S
GR
GS
[0.6 0 0 0.6 0 -0.20001] CT
0.149 GC
2 setlinecap
1 LJ
0.833 LW
N
346 29 M
346 34.7 L
S
GR
GS
[0.6 0 0 0.6 0 -0.20001] CT
0.149 GC
2 setlinecap
1 LJ
0.833 LW
N
403 29 M
403 34.7 L
S
GR
GS
[0.6 0 0 0.6 0 -0.20001] CT
0.149 GC
2 setlinecap
1 LJ
0.833 LW
N
460 29 M
460 34.7 L
S
GR
GS
[0.6 0 0 0.6 0 -0.20001] CT
0.149 GC
2 setlinecap
1 LJ
0.833 LW
N
517 29 M
517 34.7 L
S
GR
GS
[0.6 0 0 0.6 0 -0.20001] CT
0.149 GC
2 setlinecap
1 LJ
0.833 LW
N
574 29 M
574 34.7 L
S
GR
GS
[0.6 0 0 0.6 0 -0.20001] CT
0.149 GC
2 setlinecap
1 LJ
0.833 LW
N
631 29 M
631 34.7 L
S
GR
GS
[0.6 0 0 0.6 36.6 324.20001] CT
0.149 GC
/Helvetica 16.667 F
GS
[1 0 0 1 0 0] CT
-5 17 moveto 
1 -1 scale
(0) t 
GR
GR
GS
[0.6 0 0 0.6 70.8 324.20001] CT
0.149 GC
/Helvetica 16.667 F
GS
[1 0 0 1 0 0] CT
-14 17 moveto 
1 -1 scale
(100) t 
GR
GR
GS
[0.6 0 0 0.6 105 324.20001] CT
0.149 GC
/Helvetica 16.667 F
GS
[1 0 0 1 0 0] CT
-14 17 moveto 
1 -1 scale
(200) t 
GR
GR
GS
[0.6 0 0 0.6 139.2 324.20001] CT
0.149 GC
/Helvetica 16.667 F
GS
[1 0 0 1 0 0] CT
-14 17 moveto 
1 -1 scale
(300) t 
GR
GR
GS
[0.6 0 0 0.6 173.4 324.20001] CT
0.149 GC
/Helvetica 16.667 F
GS
[1 0 0 1 0 0] CT
-14 17 moveto 
1 -1 scale
(400) t 
GR
GR
GS
[0.6 0 0 0.6 207.6 324.20001] CT
0.149 GC
/Helvetica 16.667 F
GS
[1 0 0 1 0 0] CT
-14 17 moveto 
1 -1 scale
(500) t 
GR
GR
GS
[0.6 0 0 0.6 241.8 324.20001] CT
0.149 GC
/Helvetica 16.667 F
GS
[1 0 0 1 0 0] CT
-14 17 moveto 
1 -1 scale
(600) t 
GR
GR
GS
[0.6 0 0 0.6 276 324.20001] CT
0.149 GC
/Helvetica 16.667 F
GS
[1 0 0 1 0 0] CT
-14 17 moveto 
1 -1 scale
(700) t 
GR
GR
GS
[0.6 0 0 0.6 310.2 324.20001] CT
0.149 GC
/Helvetica 16.667 F
GS
[1 0 0 1 0 0] CT
-14 17 moveto 
1 -1 scale
(800) t 
GR
GR
GS
[0.6 0 0 0.6 344.4 324.20001] CT
0.149 GC
/Helvetica 16.667 F
GS
[1 0 0 1 0 0] CT
-14 17 moveto 
1 -1 scale
(900) t 
GR
GR
GS
[0.6 0 0 0.6 378.6 324.20001] CT
0.149 GC
/Helvetica 16.667 F
GS
[1 0 0 1 0 0] CT
-19 17 moveto 
1 -1 scale
(1000) t 
GR
GR
GS
[0.6 0 0 0.6 207.60016 337.80002] CT
0.149 GC
/Helvetica 18.333 F
GS
[1 0 0 1 0 0] CT
-34 19 moveto 
1 -1 scale
(Time \(s\)) t 
GR
GR
GS
[0.6 0 0 0.6 0 -0.20001] CT
0.149 GC
2 setlinecap
1 LJ
0.833 LW
N
61 534 M
61 29 L
S
GR
GS
[0.6 0 0 0.6 0 -0.20001] CT
0.149 GC
2 setlinecap
1 LJ
0.833 LW
N
631 534 M
631 29 L
S
GR
GS
[0.6 0 0 0.6 0 -0.20001] CT
0.149 GC
2 setlinecap
1 LJ
0.833 LW
N
61 534 M
66.7 534 L
S
GR
GS
[0.6 0 0 0.6 0 -0.20001] CT
0.149 GC
2 setlinecap
1 LJ
0.833 LW
N
61 461.857 M
66.7 461.857 L
S
GR
GS
[0.6 0 0 0.6 0 -0.20001] CT
0.149 GC
2 setlinecap
1 LJ
0.833 LW
N
61 389.714 M
66.7 389.714 L
S
GR
GS
[0.6 0 0 0.6 0 -0.20001] CT
0.149 GC
2 setlinecap
1 LJ
0.833 LW
N
61 317.571 M
66.7 317.571 L
S
GR
GS
[0.6 0 0 0.6 0 -0.20001] CT
0.149 GC
2 setlinecap
1 LJ
0.833 LW
N
61 245.429 M
66.7 245.429 L
S
GR
GS
[0.6 0 0 0.6 0 -0.20001] CT
0.149 GC
2 setlinecap
1 LJ
0.833 LW
N
61 173.286 M
66.7 173.286 L
S
GR
GS
[0.6 0 0 0.6 0 -0.20001] CT
0.149 GC
2 setlinecap
1 LJ
0.833 LW
N
61 101.143 M
66.7 101.143 L
S
GR
GS
[0.6 0 0 0.6 0 -0.20001] CT
0.149 GC
2 setlinecap
1 LJ
0.833 LW
N
61 29 M
66.7 29 L
S
GR
GS
[0.6 0 0 0.6 0 -0.20001] CT
0.149 GC
2 setlinecap
1 LJ
0.833 LW
N
631 534 M
625.3 534 L
S
GR
GS
[0.6 0 0 0.6 0 -0.20001] CT
0.149 GC
2 setlinecap
1 LJ
0.833 LW
N
631 461.857 M
625.3 461.857 L
S
GR
GS
[0.6 0 0 0.6 0 -0.20001] CT
0.149 GC
2 setlinecap
1 LJ
0.833 LW
N
631 389.714 M
625.3 389.714 L
S
GR
GS
[0.6 0 0 0.6 0 -0.20001] CT
0.149 GC
2 setlinecap
1 LJ
0.833 LW
N
631 317.571 M
625.3 317.571 L
S
GR
GS
[0.6 0 0 0.6 0 -0.20001] CT
0.149 GC
2 setlinecap
1 LJ
0.833 LW
N
631 245.429 M
625.3 245.429 L
S
GR
GS
[0.6 0 0 0.6 0 -0.20001] CT
0.149 GC
2 setlinecap
1 LJ
0.833 LW
N
631 173.286 M
625.3 173.286 L
S
GR
GS
[0.6 0 0 0.6 0 -0.20001] CT
0.149 GC
2 setlinecap
1 LJ
0.833 LW
N
631 101.143 M
625.3 101.143 L
S
GR
GS
[0.6 0 0 0.6 0 -0.20001] CT
0.149 GC
2 setlinecap
1 LJ
0.833 LW
N
631 29 M
625.3 29 L
S
GR
GS
[0.6 0 0 0.6 32.6 320.2] CT
0.149 GC
/Helvetica 16.667 F
GS
[1 0 0 1 0 0] CT
-25 6.5 moveto 
1 -1 scale
(-60) t 
GR
GR
GS
[0.6 0 0 0.6 32.6 276.91429] CT
0.149 GC
/Helvetica 16.667 F
GS
[1 0 0 1 0 0] CT
-25 6.5 moveto 
1 -1 scale
(-50) t 
GR
GR
GS
[0.6 0 0 0.6 32.6 233.62857] CT
0.149 GC
/Helvetica 16.667 F
GS
[1 0 0 1 0 0] CT
-25 6.5 moveto 
1 -1 scale
(-40) t 
GR
GR
GS
[0.6 0 0 0.6 32.6 190.34286] CT
0.149 GC
/Helvetica 16.667 F
GS
[1 0 0 1 0 0] CT
-25 6.5 moveto 
1 -1 scale
(-30) t 
GR
GR
GS
[0.6 0 0 0.6 32.6 147.05714] CT
0.149 GC
/Helvetica 16.667 F
GS
[1 0 0 1 0 0] CT
-25 6.5 moveto 
1 -1 scale
(-20) t 
GR
GR
GS
[0.6 0 0 0.6 32.6 103.77142] CT
0.149 GC
/Helvetica 16.667 F
GS
[1 0 0 1 0 0] CT
-25 6.5 moveto 
1 -1 scale
(-10) t 
GR
GR
GS
[0.6 0 0 0.6 32.6 60.48571] CT
0.149 GC
/Helvetica 16.667 F
GS
[1 0 0 1 0 0] CT
-10 6.5 moveto 
1 -1 scale
(0) t 
GR
GR
GS
[0.6 0 0 0.6 32.6 17.19999] CT
0.149 GC
/Helvetica 16.667 F
GS
[1 0 0 1 0 0] CT
-19 6.5 moveto 
1 -1 scale
(10) t 
GR
GR
GS
[0 -0.6 0.6 0 14.6 168.69985] CT
0.149 GC
/Helvetica 18.333 F
GS
[1 0 0 1 0 0] CT
-48.5 -5 moveto 
1 -1 scale
(Hamiltonian) t 
GR
GR
GS
[0.6 0 0 0.6 207.6002 15.54999] CT
/Helvetica-Bold 18.333 F
GS
[1 0 0 1 0 0] CT
-89.5 -5 moveto 
1 -1 scale
(Hamiltonian vs Time) t 
GR
GR
GS
[0.6 0 0 0.6 0 -0.20001] CT
1 0 0 RC
1 LJ
3.333 LW
N
61 381.458 M
61.964 381.458 L
65.916 381.458 L
72.393 381.459 L
80.411 381.458 L
88.749 381.462 L
96.138 381.461 L
101.452 381.464 L
103.864 381.462 L
S
GR
GS
[0.6 0 0 0.6 0 -0.20001] CT
1 0 0 RC
1 LJ
3.333 LW
N
103.864 355.764 M
104.828 355.765 L
108.78 355.766 L
115.257 355.767 L
123.275 355.768 L
131.613 355.768 L
139.002 355.769 L
144.316 355.768 L
146.728 355.771 L
S
GR
GS
[0.6 0 0 0.6 0 -0.20001] CT
1 0 0 RC
1 LJ
3.333 LW
N
146.728 294.738 M
148.145 294.738 L
153.958 294.737 L
163.484 294.738 L
175.276 294.738 L
187.54 294.737 L
198.407 294.74 L
206.223 294.734 L
209.77 294.748 L
S
GR
GS
[0.6 0 0 0.6 0 -0.20001] CT
1 0 0 RC
1 LJ
3.333 LW
N
209.77 101.143 M
211.902 101.143 L
220.914 101.143 L
236.763 101.143 L
258.844 101.143 L
286.309 101.143 L
318.103 101.143 L
353.003 101.143 L
389.669 101.143 L
426.691 101.143 L
462.647 101.143 L
496.155 101.143 L
525.928 101.143 L
550.82 101.143 L
569.876 101.143 L
582.361 101.143 L
587.754 101.143 L
S
GR
GS
[0.6 0 0 0.6 0 -0.20001] CT
[12 12] 0 setdash
2 LJ
3.333 LW
N
61 516.733 M
103.864 516.733 L
S
GR
GS
[0.6 0 0 0.6 0 -0.20001] CT
[12 12] 0 setdash
2 LJ
3.333 LW
N
103.864 355.879 M
146.728 355.879 L
S
GR
GS
[0.6 0 0 0.6 0 -0.20001] CT
[12 12] 0 setdash
2 LJ
3.333 LW
N
146.728 193.187 M
209.77 192.797 L
S
GR
GS
[0.6 0 0 0.6 0 -0.20001] CT
[12 12] 0 setdash
2 LJ
3.333 LW
N
209.77 101.143 M
588.603 101.143 L
S
GR
GS
[0.6 0 0 0.6 0 -0.20001] CT
1 GC
N
618 521 M
618 475 L
384 475 L
384 521 L
cp
f
GR
GS
[0.6 0 0 0.6 265.6877 292.36165] CT
/Helvetica 15 F
GS
[1 0 0 1 0 0] CT
0 6 moveto 
1 -1 scale
(SPARTAN) t 
GR
GR
GS
[0.6 0 0 0.6 0 -0.20001] CT
1 0 0 RC
1 LJ
3.333 LW
N
389.005 487.603 M
439.059 487.603 L
S
GR
GS
[0.6 0 0 0.6 265.6877 304.83835] CT
/Helvetica 15 F
GS
[1 0 0 1 0 0] CT
0 6 moveto 
1 -1 scale
(Rao et al. 2010 \(GPOPS\)) t 
GR
GR
GS
[0.6 0 0 0.6 0 -0.20001] CT
[12 12] 0 setdash
2 LJ
3.333 LW
N
389.005 508.397 M
439.059 508.397 L
S
GR
GS
[0.6 0 0 0.6 0 -0.20001] CT
0.149 GC
10.0 ML
0.833 LW
N
384 521 M
384 475 L
618 475 L
618 521 L
cp
S
GR
%%Trailer
%%Pages: 1
%%EOF
