%!PS-Adobe-3.0 EPSF-3.0
%%Creator: (MATLAB, The Mathworks, Inc. Version 9.6.0.1072779 \(R2019a\). Operating System: Windows 10)
%%Title: (C:/Users/Jos\351 Garrido/ich/Projects Under Version Control/MSc Thesis/Text/Figures/Introduction/RocketEquation.eps)
%%CreationDate: 2020-07-20T20:39:39
%%Pages: (atend)
%%BoundingBox: 0 0 481 247
%%LanguageLevel: 3
%%EndComments
%%BeginProlog
%%BeginResource: procset (Apache XML Graphics Std ProcSet) 1.2 0
%%Version: 1.2 0
%%Copyright: (Copyright 2001-2003,2010 The Apache Software Foundation. License terms: http://www.apache.org/licenses/LICENSE-2.0)
/bd{bind def}bind def
/ld{load def}bd
/GR/grestore ld
/GS/gsave ld
/RM/rmoveto ld
/C/curveto ld
/t/show ld
/L/lineto ld
/ML/setmiterlimit ld
/CT/concat ld
/f/fill ld
/N/newpath ld
/S/stroke ld
/CC/setcmykcolor ld
/A/ashow ld
/cp/closepath ld
/RC/setrgbcolor ld
/LJ/setlinejoin ld
/GC/setgray ld
/LW/setlinewidth ld
/M/moveto ld
/re {4 2 roll M
1 index 0 rlineto
0 exch rlineto
neg 0 rlineto
cp } bd
/_ctm matrix def
/_tm matrix def
/BT { _ctm currentmatrix pop matrix _tm copy pop 0 0 moveto } bd
/ET { _ctm setmatrix } bd
/iTm { _ctm setmatrix _tm concat } bd
/Tm { _tm astore pop iTm 0 0 moveto } bd
/ux 0.0 def
/uy 0.0 def
/F {
  /Tp exch def
  /Tf exch def
  Tf findfont Tp scalefont setfont
  /cf Tf def  /cs Tp def
} bd
/ULS {currentpoint /uy exch def /ux exch def} bd
/ULE {
  /Tcx currentpoint pop def
  gsave
  newpath
  cf findfont cs scalefont dup
  /FontMatrix get 0 get /Ts exch def /FontInfo get dup
  /UnderlinePosition get Ts mul /To exch def
  /UnderlineThickness get Ts mul /Tt exch def
  ux uy To add moveto  Tcx uy To add lineto
  Tt setlinewidth stroke
  grestore
} bd
/OLE {
  /Tcx currentpoint pop def
  gsave
  newpath
  cf findfont cs scalefont dup
  /FontMatrix get 0 get /Ts exch def /FontInfo get dup
  /UnderlinePosition get Ts mul /To exch def
  /UnderlineThickness get Ts mul /Tt exch def
  ux uy To add cs add moveto Tcx uy To add cs add lineto
  Tt setlinewidth stroke
  grestore
} bd
/SOE {
  /Tcx currentpoint pop def
  gsave
  newpath
  cf findfont cs scalefont dup
  /FontMatrix get 0 get /Ts exch def /FontInfo get dup
  /UnderlinePosition get Ts mul /To exch def
  /UnderlineThickness get Ts mul /Tt exch def
  ux uy To add cs 10 mul 26 idiv add moveto Tcx uy To add cs 10 mul 26 idiv add lineto
  Tt setlinewidth stroke
  grestore
} bd
/QT {
/Y22 exch store
/X22 exch store
/Y21 exch store
/X21 exch store
currentpoint
/Y21 load 2 mul add 3 div exch
/X21 load 2 mul add 3 div exch
/X21 load 2 mul /X22 load add 3 div
/Y21 load 2 mul /Y22 load add 3 div
/X22 load /Y22 load curveto
} bd
/SSPD {
dup length /d exch dict def
{
/v exch def
/k exch def
currentpagedevice k known {
/cpdv currentpagedevice k get def
v cpdv ne {
/upd false def
/nullv v type /nulltype eq def
/nullcpdv cpdv type /nulltype eq def
nullv nullcpdv or
{
/upd true def
} {
/sametype v type cpdv type eq def
sametype {
v type /arraytype eq {
/vlen v length def
/cpdvlen cpdv length def
vlen cpdvlen eq {
0 1 vlen 1 sub {
/i exch def
/obj v i get def
/cpdobj cpdv i get def
obj cpdobj ne {
/upd true def
exit
} if
} for
} {
/upd true def
} ifelse
} {
v type /dicttype eq {
v {
/dv exch def
/dk exch def
/cpddv cpdv dk get def
dv cpddv ne {
/upd true def
exit
} if
} forall
} {
/upd true def
} ifelse
} ifelse
} if
} ifelse
upd true eq {
d k v put
} if
} if
} if
} forall
d length 0 gt {
d setpagedevice
} if
} bd
/RE { % /NewFontName [NewEncodingArray] /FontName RE -
  findfont dup length dict begin
  {
    1 index /FID ne
    {def} {pop pop} ifelse
  } forall
  /Encoding exch def
  /FontName 1 index def
  currentdict definefont pop
  end
} bind def
%%EndResource
%%BeginResource: procset (Apache XML Graphics EPS ProcSet) 1.0 0
%%Version: 1.0 0
%%Copyright: (Copyright 2002-2003 The Apache Software Foundation. License terms: http://www.apache.org/licenses/LICENSE-2.0)
/BeginEPSF { %def
/b4_Inc_state save def         % Save state for cleanup
/dict_count countdictstack def % Count objects on dict stack
/op_count count 1 sub def      % Count objects on operand stack
userdict begin                 % Push userdict on dict stack
/showpage { } def              % Redefine showpage, { } = null proc
0 setgray 0 setlinecap         % Prepare graphics state
1 setlinewidth 0 setlinejoin
10 setmiterlimit [ ] 0 setdash newpath
/languagelevel where           % If level not equal to 1 then
{pop languagelevel             % set strokeadjust and
1 ne                           % overprint to their defaults.
{false setstrokeadjust false setoverprint
} if
} if
} bd
/EndEPSF { %def
count op_count sub {pop} repeat            % Clean up stacks
countdictstack dict_count sub {end} repeat
b4_Inc_state restore
} bd
%%EndResource
%FOPBeginFontDict
%%IncludeResource: font Courier-Oblique
%%IncludeResource: font Courier-BoldOblique
%%IncludeResource: font Courier-Bold
%%IncludeResource: font ZapfDingbats
%%IncludeResource: font Symbol
%%IncludeResource: font Helvetica
%%IncludeResource: font Helvetica-Oblique
%%IncludeResource: font Helvetica-Bold
%%IncludeResource: font Helvetica-BoldOblique
%%IncludeResource: font Times-Roman
%%IncludeResource: font Times-Italic
%%IncludeResource: font Times-Bold
%%IncludeResource: font Times-BoldItalic
%%IncludeResource: font Courier
%FOPEndFontDict
%%BeginResource: encoding WinAnsiEncoding
/WinAnsiEncoding [
/.notdef /.notdef /.notdef /.notdef /.notdef
/.notdef /.notdef /.notdef /.notdef /.notdef
/.notdef /.notdef /.notdef /.notdef /.notdef
/.notdef /.notdef /.notdef /.notdef /.notdef
/.notdef /.notdef /.notdef /.notdef /.notdef
/.notdef /.notdef /.notdef /.notdef /.notdef
/.notdef /.notdef /space /exclam /quotedbl
/numbersign /dollar /percent /ampersand /quotesingle
/parenleft /parenright /asterisk /plus /comma
/hyphen /period /slash /zero /one
/two /three /four /five /six
/seven /eight /nine /colon /semicolon
/less /equal /greater /question /at
/A /B /C /D /E
/F /G /H /I /J
/K /L /M /N /O
/P /Q /R /S /T
/U /V /W /X /Y
/Z /bracketleft /backslash /bracketright /asciicircum
/underscore /quoteleft /a /b /c
/d /e /f /g /h
/i /j /k /l /m
/n /o /p /q /r
/s /t /u /v /w
/x /y /z /braceleft /bar
/braceright /asciitilde /bullet /Euro /bullet
/quotesinglbase /florin /quotedblbase /ellipsis /dagger
/daggerdbl /circumflex /perthousand /Scaron /guilsinglleft
/OE /bullet /Zcaron /bullet /bullet
/quoteleft /quoteright /quotedblleft /quotedblright /bullet
/endash /emdash /asciitilde /trademark /scaron
/guilsinglright /oe /bullet /zcaron /Ydieresis
/space /exclamdown /cent /sterling /currency
/yen /brokenbar /section /dieresis /copyright
/ordfeminine /guillemotleft /logicalnot /sfthyphen /registered
/macron /degree /plusminus /twosuperior /threesuperior
/acute /mu /paragraph /middot /cedilla
/onesuperior /ordmasculine /guillemotright /onequarter /onehalf
/threequarters /questiondown /Agrave /Aacute /Acircumflex
/Atilde /Adieresis /Aring /AE /Ccedilla
/Egrave /Eacute /Ecircumflex /Edieresis /Igrave
/Iacute /Icircumflex /Idieresis /Eth /Ntilde
/Ograve /Oacute /Ocircumflex /Otilde /Odieresis
/multiply /Oslash /Ugrave /Uacute /Ucircumflex
/Udieresis /Yacute /Thorn /germandbls /agrave
/aacute /acircumflex /atilde /adieresis /aring
/ae /ccedilla /egrave /eacute /ecircumflex
/edieresis /igrave /iacute /icircumflex /idieresis
/eth /ntilde /ograve /oacute /ocircumflex
/otilde /odieresis /divide /oslash /ugrave
/uacute /ucircumflex /udieresis /yacute /thorn
/ydieresis
] def
%%EndResource
%FOPBeginFontReencode
/Courier-Oblique findfont
dup length dict begin
  {1 index /FID ne {def} {pop pop} ifelse} forall
  /Encoding WinAnsiEncoding def
  currentdict
end
/Courier-Oblique exch definefont pop
/Courier-BoldOblique findfont
dup length dict begin
  {1 index /FID ne {def} {pop pop} ifelse} forall
  /Encoding WinAnsiEncoding def
  currentdict
end
/Courier-BoldOblique exch definefont pop
/Courier-Bold findfont
dup length dict begin
  {1 index /FID ne {def} {pop pop} ifelse} forall
  /Encoding WinAnsiEncoding def
  currentdict
end
/Courier-Bold exch definefont pop
/Helvetica findfont
dup length dict begin
  {1 index /FID ne {def} {pop pop} ifelse} forall
  /Encoding WinAnsiEncoding def
  currentdict
end
/Helvetica exch definefont pop
/Helvetica-Oblique findfont
dup length dict begin
  {1 index /FID ne {def} {pop pop} ifelse} forall
  /Encoding WinAnsiEncoding def
  currentdict
end
/Helvetica-Oblique exch definefont pop
/Helvetica-Bold findfont
dup length dict begin
  {1 index /FID ne {def} {pop pop} ifelse} forall
  /Encoding WinAnsiEncoding def
  currentdict
end
/Helvetica-Bold exch definefont pop
/Helvetica-BoldOblique findfont
dup length dict begin
  {1 index /FID ne {def} {pop pop} ifelse} forall
  /Encoding WinAnsiEncoding def
  currentdict
end
/Helvetica-BoldOblique exch definefont pop
/Times-Roman findfont
dup length dict begin
  {1 index /FID ne {def} {pop pop} ifelse} forall
  /Encoding WinAnsiEncoding def
  currentdict
end
/Times-Roman exch definefont pop
/Times-Italic findfont
dup length dict begin
  {1 index /FID ne {def} {pop pop} ifelse} forall
  /Encoding WinAnsiEncoding def
  currentdict
end
/Times-Italic exch definefont pop
/Times-Bold findfont
dup length dict begin
  {1 index /FID ne {def} {pop pop} ifelse} forall
  /Encoding WinAnsiEncoding def
  currentdict
end
/Times-Bold exch definefont pop
/Times-BoldItalic findfont
dup length dict begin
  {1 index /FID ne {def} {pop pop} ifelse} forall
  /Encoding WinAnsiEncoding def
  currentdict
end
/Times-BoldItalic exch definefont pop
/Courier findfont
dup length dict begin
  {1 index /FID ne {def} {pop pop} ifelse} forall
  /Encoding WinAnsiEncoding def
  currentdict
end
/Courier exch definefont pop
%FOPEndFontReencode
%%EndProlog
%%Page: 1 1
%%PageBoundingBox: 0 0 481 247
%%BeginPageSetup
[1 0 0 -1 0 247] CT
%%EndPageSetup
GS
[0.6 0 0 0.6 0 0.40001] CT
1 GC
N
0 0 801 411 re
f
GR
GS
[0.6 0 0 0.6 0 0.40001] CT
1 GC
N
0 0 801 411 re
f
GR
GS
[0.6 0 0 0.6 0 0.40001] CT
1 GC
N
54 358 M
789 358 L
789 29 L
54 29 L
cp
f
GR
GS
[0.6 0 0 0.6 0 0.40001] CT
0.873 GC
1 LJ
0.833 LW
N
54 358 M
54 29 L
S
GR
GS
[0.6 0 0 0.6 0 0.40001] CT
0.873 GC
1 LJ
0.833 LW
N
127.5 358 M
127.5 29 L
S
GR
GS
[0.6 0 0 0.6 0 0.40001] CT
0.873 GC
1 LJ
0.833 LW
N
201 358 M
201 29 L
S
GR
GS
[0.6 0 0 0.6 0 0.40001] CT
0.873 GC
1 LJ
0.833 LW
N
274.5 358 M
274.5 29 L
S
GR
GS
[0.6 0 0 0.6 0 0.40001] CT
0.873 GC
1 LJ
0.833 LW
N
348 358 M
348 29 L
S
GR
GS
[0.6 0 0 0.6 0 0.40001] CT
0.873 GC
1 LJ
0.833 LW
N
421.5 358 M
421.5 29 L
S
GR
GS
[0.6 0 0 0.6 0 0.40001] CT
0.873 GC
1 LJ
0.833 LW
N
495 358 M
495 29 L
S
GR
GS
[0.6 0 0 0.6 0 0.40001] CT
0.873 GC
1 LJ
0.833 LW
N
568.5 358 M
568.5 29 L
S
GR
GS
[0.6 0 0 0.6 0 0.40001] CT
0.873 GC
1 LJ
0.833 LW
N
642 358 M
642 29 L
S
GR
GS
[0.6 0 0 0.6 0 0.40001] CT
0.873 GC
1 LJ
0.833 LW
N
715.5 358 M
715.5 29 L
S
GR
GS
[0.6 0 0 0.6 0 0.40001] CT
0.873 GC
1 LJ
0.833 LW
N
789 358 M
789 29 L
S
GR
GS
[0.6 0 0 0.6 0 0.40001] CT
0.873 GC
1 LJ
0.833 LW
N
789 358 M
54 358 L
S
GR
GS
[0.6 0 0 0.6 0 0.40001] CT
0.873 GC
1 LJ
0.833 LW
N
789 311 M
54 311 L
S
GR
GS
[0.6 0 0 0.6 0 0.40001] CT
0.873 GC
1 LJ
0.833 LW
N
789 264 M
54 264 L
S
GR
GS
[0.6 0 0 0.6 0 0.40001] CT
0.873 GC
1 LJ
0.833 LW
N
789 217 M
54 217 L
S
GR
GS
[0.6 0 0 0.6 0 0.40001] CT
0.873 GC
1 LJ
0.833 LW
N
789 170 M
54 170 L
S
GR
GS
[0.6 0 0 0.6 0 0.40001] CT
0.873 GC
1 LJ
0.833 LW
N
789 123 M
54 123 L
S
GR
GS
[0.6 0 0 0.6 0 0.40001] CT
0.873 GC
1 LJ
0.833 LW
N
789 76 M
54 76 L
S
GR
GS
[0.6 0 0 0.6 0 0.40001] CT
0.873 GC
1 LJ
0.833 LW
N
789 29 M
54 29 L
S
GR
GS
[0.6 0 0 0.6 0 0.40001] CT
0.149 GC
2 setlinecap
1 LJ
0.833 LW
N
54 358 M
789 358 L
S
GR
GS
[0.6 0 0 0.6 0 0.40001] CT
0.149 GC
2 setlinecap
1 LJ
0.833 LW
N
54 29 M
789 29 L
S
GR
GS
[0.6 0 0 0.6 0 0.40001] CT
0.149 GC
2 setlinecap
1 LJ
0.833 LW
N
54 358 M
54 350.65 L
S
GR
GS
[0.6 0 0 0.6 0 0.40001] CT
0.149 GC
2 setlinecap
1 LJ
0.833 LW
N
127.5 358 M
127.5 350.65 L
S
GR
GS
[0.6 0 0 0.6 0 0.40001] CT
0.149 GC
2 setlinecap
1 LJ
0.833 LW
N
201 358 M
201 350.65 L
S
GR
GS
[0.6 0 0 0.6 0 0.40001] CT
0.149 GC
2 setlinecap
1 LJ
0.833 LW
N
274.5 358 M
274.5 350.65 L
S
GR
GS
[0.6 0 0 0.6 0 0.40001] CT
0.149 GC
2 setlinecap
1 LJ
0.833 LW
N
348 358 M
348 350.65 L
S
GR
GS
[0.6 0 0 0.6 0 0.40001] CT
0.149 GC
2 setlinecap
1 LJ
0.833 LW
N
421.5 358 M
421.5 350.65 L
S
GR
GS
[0.6 0 0 0.6 0 0.40001] CT
0.149 GC
2 setlinecap
1 LJ
0.833 LW
N
495 358 M
495 350.65 L
S
GR
GS
[0.6 0 0 0.6 0 0.40001] CT
0.149 GC
2 setlinecap
1 LJ
0.833 LW
N
568.5 358 M
568.5 350.65 L
S
GR
GS
[0.6 0 0 0.6 0 0.40001] CT
0.149 GC
2 setlinecap
1 LJ
0.833 LW
N
642 358 M
642 350.65 L
S
GR
GS
[0.6 0 0 0.6 0 0.40001] CT
0.149 GC
2 setlinecap
1 LJ
0.833 LW
N
715.5 358 M
715.5 350.65 L
S
GR
GS
[0.6 0 0 0.6 0 0.40001] CT
0.149 GC
2 setlinecap
1 LJ
0.833 LW
N
789 358 M
789 350.65 L
S
GR
GS
[0.6 0 0 0.6 0 0.40001] CT
0.149 GC
2 setlinecap
1 LJ
0.833 LW
N
54 29 M
54 36.35 L
S
GR
GS
[0.6 0 0 0.6 0 0.40001] CT
0.149 GC
2 setlinecap
1 LJ
0.833 LW
N
127.5 29 M
127.5 36.35 L
S
GR
GS
[0.6 0 0 0.6 0 0.40001] CT
0.149 GC
2 setlinecap
1 LJ
0.833 LW
N
201 29 M
201 36.35 L
S
GR
GS
[0.6 0 0 0.6 0 0.40001] CT
0.149 GC
2 setlinecap
1 LJ
0.833 LW
N
274.5 29 M
274.5 36.35 L
S
GR
GS
[0.6 0 0 0.6 0 0.40001] CT
0.149 GC
2 setlinecap
1 LJ
0.833 LW
N
348 29 M
348 36.35 L
S
GR
GS
[0.6 0 0 0.6 0 0.40001] CT
0.149 GC
2 setlinecap
1 LJ
0.833 LW
N
421.5 29 M
421.5 36.35 L
S
GR
GS
[0.6 0 0 0.6 0 0.40001] CT
0.149 GC
2 setlinecap
1 LJ
0.833 LW
N
495 29 M
495 36.35 L
S
GR
GS
[0.6 0 0 0.6 0 0.40001] CT
0.149 GC
2 setlinecap
1 LJ
0.833 LW
N
568.5 29 M
568.5 36.35 L
S
GR
GS
[0.6 0 0 0.6 0 0.40001] CT
0.149 GC
2 setlinecap
1 LJ
0.833 LW
N
642 29 M
642 36.35 L
S
GR
GS
[0.6 0 0 0.6 0 0.40001] CT
0.149 GC
2 setlinecap
1 LJ
0.833 LW
N
715.5 29 M
715.5 36.35 L
S
GR
GS
[0.6 0 0 0.6 0 0.40001] CT
0.149 GC
2 setlinecap
1 LJ
0.833 LW
N
789 29 M
789 36.35 L
S
GR
GS
[0.6 0 0 0.6 32.4 219.19999] CT
0.149 GC
/Helvetica 16.667 F
GS
[1 0 0 1 0 0] CT
-5 17 moveto 
1 -1 scale
(0) t 
GR
GR
GS
[0.6 0 0 0.6 76.5 219.19999] CT
0.149 GC
/Helvetica 16.667 F
GS
[1 0 0 1 0 0] CT
-12 17 moveto 
1 -1 scale
(0.1) t 
GR
GR
GS
[0.6 0 0 0.6 120.6 219.19999] CT
0.149 GC
/Helvetica 16.667 F
GS
[1 0 0 1 0 0] CT
-12 17 moveto 
1 -1 scale
(0.2) t 
GR
GR
GS
[0.6 0 0 0.6 164.7 219.19999] CT
0.149 GC
/Helvetica 16.667 F
GS
[1 0 0 1 0 0] CT
-12 17 moveto 
1 -1 scale
(0.3) t 
GR
GR
GS
[0.6 0 0 0.6 208.8 219.19999] CT
0.149 GC
/Helvetica 16.667 F
GS
[1 0 0 1 0 0] CT
-12 17 moveto 
1 -1 scale
(0.4) t 
GR
GR
GS
[0.6 0 0 0.6 252.9 219.19999] CT
0.149 GC
/Helvetica 16.667 F
GS
[1 0 0 1 0 0] CT
-12 17 moveto 
1 -1 scale
(0.5) t 
GR
GR
GS
[0.6 0 0 0.6 297.00002 219.19999] CT
0.149 GC
/Helvetica 16.667 F
GS
[1 0 0 1 0 0] CT
-12 17 moveto 
1 -1 scale
(0.6) t 
GR
GR
GS
[0.6 0 0 0.6 341.1 219.19999] CT
0.149 GC
/Helvetica 16.667 F
GS
[1 0 0 1 0 0] CT
-12 17 moveto 
1 -1 scale
(0.7) t 
GR
GR
GS
[0.6 0 0 0.6 385.2 219.19999] CT
0.149 GC
/Helvetica 16.667 F
GS
[1 0 0 1 0 0] CT
-12 17 moveto 
1 -1 scale
(0.8) t 
GR
GR
GS
[0.6 0 0 0.6 429.30001 219.19999] CT
0.149 GC
/Helvetica 16.667 F
GS
[1 0 0 1 0 0] CT
-12 17 moveto 
1 -1 scale
(0.9) t 
GR
GR
GS
[0.6 0 0 0.6 473.40001 219.19999] CT
0.149 GC
/Helvetica 16.667 F
GS
[1 0 0 1 0 0] CT
-5 17 moveto 
1 -1 scale
(1) t 
GR
GR
GS
[0.6 0 0 0.6 186.6 244] CT
0.149 GC
/Helvetica 18.333 F
GS
[1 0 0 1 0 0] CT
0 0 moveto 
1 -1 scale
(Propellant Mass Fraction, ) t 
GR
GR
GS
[0.6 0 0 0.6 314.4 244] CT
0.149 GC
N
3.188 2.797 M
3.219 2.594 3.438 2.594 QT
3.469 2.594 3.75 2.773 QT
4.031 2.953 4.344 3.086 QT
4.656 3.219 5.016 3.219 QT
5.406 3.219 5.664 2.859 QT
5.922 2.5 5.922 2.094 QT
5.922 1.672 5.648 1.383 QT
5.375 1.094 4.969 0.953 QT
3.125 0.344 L
2 -0.047 1.414 -0.891 QT
0.828 -1.734 0.828 -2.953 QT
0.828 -3.984 1.203 -5.148 QT
1.578 -6.313 2.234 -7.414 QT
2.891 -8.516 3.75 -9.391 QT
4.609 -10.266 5.547 -10.75 QT
5.359 -11.125 5.359 -11.609 QT
5.359 -12.594 5.734 -12.594 QT
5.844 -12.594 5.914 -12.523 QT
5.984 -12.453 5.984 -12.344 QT
5.984 -12.219 5.938 -11.938 QT
5.891 -11.656 5.891 -11.594 QT
5.891 -11.266 6 -10.953 QT
6.453 -11.141 6.859 -11.141 QT
8.516 -11.141 8.516 -10.641 QT
8.516 -10.031 6.688 -10.031 QT
6.141 -10.031 5.813 -10.359 QT
5.047 -9.922 4.328 -9.125 QT
3.609 -8.328 3.055 -7.344 QT
2.5 -6.359 2.195 -5.359 QT
1.891 -4.359 1.891 -3.453 QT
1.891 -1.516 3.656 -0.891 QT
5.578 -0.25 L
6.188 -0.078 6.57 0.391 QT
6.953 0.859 6.953 1.5 QT
6.953 2.016 6.688 2.531 QT
6.422 3.047 5.977 3.367 QT
5.531 3.688 4.984 3.688 QT
4.547 3.688 3.867 3.406 QT
3.188 3.125 3.188 2.797 QT
cp
6.313 -10.578 M
6.297 -10.578 6.484 -10.516 QT
6.563 -10.516 6.609 -10.508 QT
6.656 -10.5 6.719 -10.5 QT
7.578 -10.5 7.953 -10.594 QT
7.609 -10.672 6.859 -10.672 QT
6.609 -10.672 6.313 -10.578 QT
cp
f
GR
GS
[0.6 0 0 0.6 0 0.40001] CT
0.149 GC
2 setlinecap
1 LJ
0.833 LW
N
54 358 M
54 29 L
S
GR
GS
[0.6 0 0 0.6 0 0.40001] CT
0.149 GC
2 setlinecap
1 LJ
0.833 LW
N
789 358 M
789 29 L
S
GR
GS
[0.6 0 0 0.6 0 0.40001] CT
0.149 GC
2 setlinecap
1 LJ
0.833 LW
N
54 358 M
61.35 358 L
S
GR
GS
[0.6 0 0 0.6 0 0.40001] CT
0.149 GC
2 setlinecap
1 LJ
0.833 LW
N
54 311 M
61.35 311 L
S
GR
GS
[0.6 0 0 0.6 0 0.40001] CT
0.149 GC
2 setlinecap
1 LJ
0.833 LW
N
54 264 M
61.35 264 L
S
GR
GS
[0.6 0 0 0.6 0 0.40001] CT
0.149 GC
2 setlinecap
1 LJ
0.833 LW
N
54 217 M
61.35 217 L
S
GR
GS
[0.6 0 0 0.6 0 0.40001] CT
0.149 GC
2 setlinecap
1 LJ
0.833 LW
N
54 170 M
61.35 170 L
S
GR
GS
[0.6 0 0 0.6 0 0.40001] CT
0.149 GC
2 setlinecap
1 LJ
0.833 LW
N
54 123 M
61.35 123 L
S
GR
GS
[0.6 0 0 0.6 0 0.40001] CT
0.149 GC
2 setlinecap
1 LJ
0.833 LW
N
54 76 M
61.35 76 L
S
GR
GS
[0.6 0 0 0.6 0 0.40001] CT
0.149 GC
2 setlinecap
1 LJ
0.833 LW
N
54 29 M
61.35 29 L
S
GR
GS
[0.6 0 0 0.6 0 0.40001] CT
0.149 GC
2 setlinecap
1 LJ
0.833 LW
N
789 358 M
781.65 358 L
S
GR
GS
[0.6 0 0 0.6 0 0.40001] CT
0.149 GC
2 setlinecap
1 LJ
0.833 LW
N
789 311 M
781.65 311 L
S
GR
GS
[0.6 0 0 0.6 0 0.40001] CT
0.149 GC
2 setlinecap
1 LJ
0.833 LW
N
789 264 M
781.65 264 L
S
GR
GS
[0.6 0 0 0.6 0 0.40001] CT
0.149 GC
2 setlinecap
1 LJ
0.833 LW
N
789 217 M
781.65 217 L
S
GR
GS
[0.6 0 0 0.6 0 0.40001] CT
0.149 GC
2 setlinecap
1 LJ
0.833 LW
N
789 170 M
781.65 170 L
S
GR
GS
[0.6 0 0 0.6 0 0.40001] CT
0.149 GC
2 setlinecap
1 LJ
0.833 LW
N
789 123 M
781.65 123 L
S
GR
GS
[0.6 0 0 0.6 0 0.40001] CT
0.149 GC
2 setlinecap
1 LJ
0.833 LW
N
789 76 M
781.65 76 L
S
GR
GS
[0.6 0 0 0.6 0 0.40001] CT
0.149 GC
2 setlinecap
1 LJ
0.833 LW
N
789 29 M
781.65 29 L
S
GR
GS
[0.6 0 0 0.6 28.4 215.2] CT
0.149 GC
/Helvetica 16.667 F
GS
[1 0 0 1 0 0] CT
-10 6.5 moveto 
1 -1 scale
(0) t 
GR
GR
GS
[0.6 0 0 0.6 28.4 187] CT
0.149 GC
/Helvetica 16.667 F
GS
[1 0 0 1 0 0] CT
-10 6.5 moveto 
1 -1 scale
(1) t 
GR
GR
GS
[0.6 0 0 0.6 28.4 158.8] CT
0.149 GC
/Helvetica 16.667 F
GS
[1 0 0 1 0 0] CT
-10 6.5 moveto 
1 -1 scale
(2) t 
GR
GR
GS
[0.6 0 0 0.6 28.4 130.6] CT
0.149 GC
/Helvetica 16.667 F
GS
[1 0 0 1 0 0] CT
-10 6.5 moveto 
1 -1 scale
(3) t 
GR
GR
GS
[0.6 0 0 0.6 28.4 102.40001] CT
0.149 GC
/Helvetica 16.667 F
GS
[1 0 0 1 0 0] CT
-10 6.5 moveto 
1 -1 scale
(4) t 
GR
GR
GS
[0.6 0 0 0.6 28.4 74.20001] CT
0.149 GC
/Helvetica 16.667 F
GS
[1 0 0 1 0 0] CT
-10 6.5 moveto 
1 -1 scale
(5) t 
GR
GR
GS
[0.6 0 0 0.6 28.4 46.00001] CT
0.149 GC
/Helvetica 16.667 F
GS
[1 0 0 1 0 0] CT
-10 6.5 moveto 
1 -1 scale
(6) t 
GR
GR
GS
[0.6 0 0 0.6 28.4 17.80001] CT
0.149 GC
/Helvetica 16.667 F
GS
[1 0 0 1 0 0] CT
-10 6.5 moveto 
1 -1 scale
(7) t 
GR
GR
GS
[0 -0.6 0.6 0 11.4 134.8] CT
0.149 GC
N
0.969 0 M
0.828 0 0.828 -0.141 QT
0.828 -0.156 0.836 -0.164 QT
0.844 -0.172 0.844 -0.203 QT
7.047 -12.688 L
7.125 -12.891 7.359 -12.891 QT
7.609 -12.891 L
7.859 -12.891 7.938 -12.688 QT
14.141 -0.203 L
14.141 -0.188 14.148 -0.172 QT
14.156 -0.156 14.156 -0.141 QT
14.156 0 14 0 QT
0.969 0 L
cp
2.156 -1.438 M
11.641 -1.438 L
6.906 -11 L
2.156 -1.438 L
cp
f
GR
GS
[0 -0.6 0.6 0 11.4 125.2] CT
0.149 GC
/Helvetica 18.333 F
GS
[1 0 0 1 0 0] CT
0 0 moveto 
1 -1 scale
(V / v) t 
GR
GR
GS
[0 -0.6 0.6 0 16.8 103.00001] CT
0.149 GC
/Helvetica 14.667 F
GS
[1 0 0 1 0 0] CT
0 0 moveto 
1 -1 scale
(e) t 
GR
GR
GS
[0.6 0 0 0.6 252.90024 16.15] CT
/Helvetica-Bold 18.333 F
GS
[1 0 0 1 0 0] CT
-127.5 -5 moveto 
1 -1 scale
(Tsiolkovsky Rocket Equation) t 
GR
GR
GS
[0.6 0 0 0.6 0 0.40001] CT
0 0.447 0.741 RC
1 LJ
3.333 LW
N
54 358 M
54.735 357.953 L
55.47 357.906 L
56.205 357.859 L
56.94 357.812 L
57.675 357.764 L
58.41 357.717 L
59.145 357.67 L
59.88 357.622 L
60.615 357.575 L
61.35 357.528 L
62.085 357.48 L
62.82 357.433 L
63.555 357.385 L
64.29 357.337 L
65.025 357.29 L
65.76 357.242 L
66.495 357.194 L
67.23 357.146 L
67.965 357.098 L
68.7 357.05 L
69.435 357.003 L
70.17 356.954 L
70.905 356.906 L
71.64 356.858 L
72.375 356.81 L
73.11 356.762 L
73.845 356.714 L
74.58 356.665 L
75.315 356.617 L
76.05 356.568 L
76.785 356.52 L
77.52 356.471 L
78.255 356.423 L
78.99 356.374 L
79.725 356.326 L
80.46 356.277 L
81.195 356.228 L
81.93 356.179 L
82.665 356.13 L
83.4 356.081 L
84.135 356.032 L
84.87 355.983 L
85.605 355.934 L
86.34 355.885 L
87.075 355.836 L
87.81 355.787 L
88.545 355.737 L
89.28 355.688 L
90.015 355.639 L
90.75 355.589 L
91.485 355.54 L
92.22 355.49 L
92.955 355.441 L
93.69 355.391 L
94.425 355.341 L
95.16 355.291 L
95.895 355.242 L
96.63 355.192 L
97.365 355.142 L
98.1 355.092 L
98.835 355.042 L
99.57 354.992 L
100.305 354.942 L
101.04 354.891 L
101.775 354.841 L
102.51 354.791 L
103.245 354.741 L
103.98 354.69 L
104.715 354.64 L
105.45 354.589 L
106.185 354.539 L
106.92 354.488 L
107.655 354.437 L
108.39 354.387 L
109.125 354.336 L
109.86 354.285 L
110.595 354.234 L
111.33 354.183 L
112.065 354.132 L
112.8 354.081 L
113.535 354.03 L
114.27 353.979 L
115.005 353.928 L
115.74 353.876 L
116.475 353.825 L
117.21 353.774 L
117.945 353.722 L
118.68 353.671 L
119.415 353.619 L
120.15 353.567 L
120.885 353.516 L
121.62 353.464 L
122.355 353.412 L
123.09 353.36 L
123.825 353.308 L
124.56 353.256 L
125.295 353.204 L
126.03 353.152 L
126.765 353.1 L
127.5 353.048 L
128.235 352.996 L
128.97 352.943 L
129.705 352.891 L
130.44 352.839 L
131.175 352.786 L
131.91 352.734 L
132.645 352.681 L
133.38 352.628 L
134.115 352.576 L
134.85 352.523 L
135.585 352.47 L
136.32 352.417 L
137.055 352.364 L
137.79 352.311 L
138.525 352.258 L
139.26 352.205 L
139.995 352.152 L
140.73 352.099 L
141.465 352.045 L
142.2 351.992 L
142.935 351.938 L
143.67 351.885 L
144.405 351.831 L
145.14 351.778 L
145.875 351.724 L
146.61 351.67 L
147.345 351.616 L
148.08 351.563 L
148.815 351.509 L
149.55 351.455 L
150.285 351.401 L
151.02 351.347 L
151.755 351.292 L
152.49 351.238 L
153.225 351.184 L
153.96 351.129 L
154.695 351.075 L
155.43 351.021 L
156.165 350.966 L
156.9 350.911 L
157.635 350.857 L
158.37 350.802 L
159.105 350.747 L
159.84 350.692 L
160.575 350.637 L
161.31 350.582 L
162.045 350.527 L
162.78 350.472 L
163.515 350.417 L
164.25 350.362 L
164.985 350.306 L
165.72 350.251 L
166.455 350.195 L
167.19 350.14 L
167.925 350.084 L
168.66 350.029 L
169.395 349.973 L
170.13 349.917 L
170.865 349.861 L
171.6 349.805 L
172.335 349.749 L
173.07 349.693 L
173.805 349.637 L
174.54 349.581 L
175.275 349.525 L
176.01 349.468 L
176.745 349.412 L
177.48 349.356 L
178.215 349.299 L
178.95 349.243 L
179.685 349.186 L
180.42 349.129 L
181.155 349.072 L
181.89 349.015 L
182.625 348.959 L
183.36 348.902 L
184.095 348.844 L
184.83 348.787 L
185.565 348.73 L
186.3 348.673 L
187.035 348.615 L
187.77 348.558 L
188.505 348.501 L
189.24 348.443 L
189.975 348.385 L
190.71 348.328 L
191.445 348.27 L
192.18 348.212 L
192.915 348.154 L
193.65 348.096 L
194.385 348.038 L
195.12 347.98 L
195.855 347.922 L
196.59 347.863 L
197.325 347.805 L
198.06 347.747 L
198.795 347.688 L
199.53 347.63 L
200.265 347.571 L
201 347.512 L
201.735 347.453 L
202.47 347.395 L
203.205 347.336 L
203.94 347.277 L
204.675 347.218 L
205.41 347.158 L
206.145 347.099 L
206.88 347.04 L
207.615 346.98 L
208.35 346.921 L
209.085 346.862 L
209.82 346.802 L
210.555 346.742 L
211.29 346.682 L
212.025 346.623 L
212.76 346.563 L
213.495 346.503 L
214.23 346.443 L
214.965 346.383 L
215.7 346.322 L
216.435 346.262 L
217.17 346.202 L
217.905 346.141 L
218.64 346.081 L
219.375 346.02 L
220.11 345.959 L
220.845 345.899 L
221.58 345.838 L
222.315 345.777 L
223.05 345.716 L
223.785 345.655 L
224.52 345.594 L
225.255 345.532 L
225.99 345.471 L
226.725 345.41 L
227.46 345.348 L
228.195 345.287 L
228.93 345.225 L
229.665 345.163 L
230.4 345.101 L
231.135 345.04 L
231.87 344.978 L
232.605 344.916 L
233.34 344.853 L
234.075 344.791 L
234.81 344.729 L
235.545 344.667 L
236.28 344.604 L
237.015 344.542 L
237.75 344.479 L
238.485 344.416 L
239.22 344.353 L
239.955 344.291 L
240.69 344.228 L
241.425 344.165 L
242.16 344.101 L
242.895 344.038 L
243.63 343.975 L
244.365 343.912 L
245.1 343.848 L
245.835 343.785 L
246.57 343.721 L
247.305 343.657 L
248.04 343.593 L
248.775 343.529 L
249.51 343.465 L
250.245 343.401 L
250.98 343.337 L
251.715 343.273 L
252.45 343.209 L
253.185 343.144 L
253.92 343.08 L
254.655 343.015 L
255.39 342.95 L
256.125 342.886 L
256.86 342.821 L
257.595 342.756 L
258.33 342.691 L
259.065 342.626 L
259.8 342.56 L
260.535 342.495 L
261.27 342.43 L
262.005 342.364 L
262.74 342.298 L
263.475 342.233 L
264.21 342.167 L
264.945 342.101 L
265.68 342.035 L
266.415 341.969 L
267.15 341.903 L
267.885 341.837 L
268.62 341.77 L
269.355 341.704 L
270.09 341.637 L
270.825 341.571 L
271.56 341.504 L
272.295 341.437 L
273.03 341.37 L
273.765 341.303 L
274.5 341.236 L
275.235 341.169 L
275.97 341.102 L
276.705 341.034 L
277.44 340.967 L
278.175 340.899 L
278.91 340.832 L
279.645 340.764 L
280.38 340.696 L
281.115 340.628 L
281.85 340.56 L
282.585 340.492 L
283.32 340.424 L
284.055 340.355 L
284.79 340.287 L
285.525 340.218 L
286.26 340.15 L
286.995 340.081 L
287.73 340.012 L
288.465 339.943 L
289.2 339.874 L
289.935 339.805 L
290.67 339.735 L
291.405 339.666 L
292.14 339.597 L
292.875 339.527 L
293.61 339.457 L
294.345 339.388 L
295.08 339.318 L
295.815 339.248 L
296.55 339.178 L
297.285 339.107 L
298.02 339.037 L
298.755 338.967 L
299.49 338.896 L
300.225 338.826 L
300.96 338.755 L
301.695 338.684 L
302.43 338.613 L
303.165 338.542 L
303.9 338.471 L
304.635 338.4 L
305.37 338.328 L
306.105 338.257 L
306.84 338.185 L
307.575 338.113 L
308.31 338.042 L
309.045 337.97 L
309.78 337.898 L
310.515 337.825 L
311.25 337.753 L
311.985 337.681 L
312.72 337.608 L
313.455 337.536 L
314.19 337.463 L
314.925 337.39 L
315.66 337.317 L
316.395 337.244 L
317.13 337.171 L
317.865 337.098 L
318.6 337.025 L
319.335 336.951 L
320.07 336.877 L
320.805 336.804 L
321.54 336.73 L
322.275 336.656 L
323.01 336.582 L
323.745 336.508 L
324.48 336.433 L
325.215 336.359 L
325.95 336.284 L
326.685 336.21 L
327.42 336.135 L
328.155 336.06 L
328.89 335.985 L
329.625 335.91 L
330.36 335.835 L
331.095 335.759 L
331.83 335.684 L
332.565 335.608 L
333.3 335.532 L
334.035 335.456 L
334.77 335.38 L
335.505 335.304 L
336.24 335.228 L
336.975 335.152 L
337.71 335.075 L
338.445 334.999 L
339.18 334.922 L
339.915 334.845 L
340.65 334.768 L
341.385 334.691 L
342.12 334.614 L
342.855 334.536 L
343.59 334.459 L
344.325 334.381 L
345.06 334.303 L
345.795 334.226 L
346.53 334.148 L
347.265 334.069 L
348 333.991 L
348.735 333.913 L
349.47 333.834 L
350.205 333.756 L
350.94 333.677 L
351.675 333.598 L
352.41 333.519 L
353.145 333.44 L
353.88 333.36 L
354.615 333.281 L
355.35 333.201 L
356.085 333.122 L
356.82 333.042 L
357.555 332.962 L
358.29 332.882 L
359.025 332.801 L
359.76 332.721 L
360.495 332.64 L
361.23 332.56 L
361.965 332.479 L
362.7 332.398 L
363.435 332.317 L
364.17 332.235 L
364.905 332.154 L
365.64 332.073 L
366.375 331.991 L
367.11 331.909 L
367.845 331.827 L
368.58 331.745 L
369.315 331.663 L
370.05 331.58 L
370.785 331.498 L
371.52 331.415 L
372.255 331.332 L
372.99 331.249 L
373.725 331.166 L
374.46 331.083 L
375.195 331 L
375.93 330.916 L
376.665 330.832 L
377.4 330.749 L
378.135 330.665 L
378.87 330.58 L
379.605 330.496 L
380.34 330.412 L
381.075 330.327 L
381.81 330.242 L
382.545 330.157 L
383.28 330.072 L
384.015 329.987 L
384.75 329.902 L
385.485 329.816 L
386.22 329.73 L
386.955 329.645 L
387.69 329.559 L
388.425 329.472 L
389.16 329.386 L
389.895 329.3 L
390.63 329.213 L
391.365 329.126 L
392.1 329.039 L
392.835 328.952 L
393.57 328.865 L
394.305 328.777 L
395.04 328.69 L
395.775 328.602 L
396.51 328.514 L
397.245 328.426 L
397.98 328.338 L
398.715 328.249 L
399.45 328.161 L
400.185 328.072 L
400.92 327.983 L
401.655 327.894 L
402.39 327.805 L
403.125 327.715 L
403.86 327.626 L
404.595 327.536 L
405.33 327.446 L
406.065 327.356 L
406.8 327.265 L
407.535 327.175 L
408.27 327.084 L
409.005 326.994 L
409.74 326.903 L
410.475 326.811 L
411.21 326.72 L
411.945 326.628 L
412.68 326.537 L
413.415 326.445 L
414.15 326.353 L
414.885 326.261 L
415.62 326.168 L
416.355 326.076 L
417.09 325.983 L
417.825 325.89 L
418.56 325.797 L
419.295 325.703 L
420.03 325.61 L
420.765 325.516 L
421.5 325.422 L
422.235 325.328 L
422.97 325.234 L
423.705 325.139 L
424.44 325.045 L
425.175 324.95 L
425.91 324.855 L
426.645 324.759 L
427.38 324.664 L
428.115 324.568 L
428.85 324.473 L
429.585 324.377 L
430.32 324.28 L
431.055 324.184 L
431.79 324.087 L
432.525 323.991 L
433.26 323.893 L
433.995 323.796 L
434.73 323.699 L
435.465 323.601 L
436.2 323.503 L
436.935 323.405 L
437.67 323.307 L
438.405 323.209 L
439.14 323.11 L
439.875 323.011 L
440.61 322.912 L
441.345 322.813 L
442.08 322.714 L
442.815 322.614 L
443.55 322.514 L
444.285 322.414 L
445.02 322.314 L
445.755 322.213 L
446.49 322.112 L
447.225 322.011 L
447.96 321.91 L
448.695 321.809 L
449.43 321.707 L
450.165 321.605 L
450.9 321.503 L
451.635 321.401 L
452.37 321.298 L
453.105 321.196 L
453.84 321.093 L
454.575 320.989 L
455.31 320.886 L
456.045 320.782 L
456.78 320.679 L
457.515 320.574 L
458.25 320.47 L
458.985 320.366 L
459.72 320.261 L
460.455 320.156 L
461.19 320.051 L
461.925 319.945 L
462.66 319.839 L
463.395 319.733 L
464.13 319.627 L
464.865 319.521 L
465.6 319.414 L
466.335 319.307 L
467.07 319.2 L
467.805 319.092 L
468.54 318.985 L
469.275 318.877 L
470.01 318.769 L
470.745 318.66 L
471.48 318.552 L
472.215 318.443 L
472.95 318.333 L
473.685 318.224 L
474.42 318.114 L
475.155 318.004 L
475.89 317.894 L
476.625 317.784 L
477.36 317.673 L
478.095 317.562 L
478.83 317.451 L
479.565 317.339 L
480.3 317.227 L
481.035 317.115 L
481.77 317.003 L
482.505 316.891 L
483.24 316.778 L
483.975 316.665 L
484.71 316.551 L
485.445 316.438 L
486.18 316.324 L
486.915 316.209 L
487.65 316.095 L
488.385 315.98 L
489.12 315.865 L
489.855 315.75 L
490.59 315.634 L
491.325 315.518 L
492.06 315.402 L
492.795 315.286 L
493.53 315.169 L
494.265 315.052 L
495 314.934 L
495.735 314.817 L
496.47 314.699 L
497.205 314.581 L
497.94 314.462 L
498.675 314.343 L
499.41 314.224 L
500.145 314.105 L
500.88 313.985 L
501.615 313.865 L
502.35 313.744 L
503.085 313.624 L
503.82 313.503 L
504.555 313.381 L
505.29 313.26 L
506.025 313.138 L
506.76 313.016 L
507.495 312.893 L
508.23 312.77 L
508.965 312.647 L
509.7 312.524 L
510.435 312.4 L
511.17 312.276 L
511.905 312.151 L
512.64 312.026 L
513.375 311.901 L
514.11 311.776 L
514.845 311.65 L
515.58 311.523 L
516.315 311.397 L
517.05 311.27 L
517.785 311.143 L
518.52 311.015 L
519.255 310.888 L
519.99 310.759 L
520.725 310.631 L
521.46 310.502 L
522.195 310.372 L
522.93 310.243 L
523.665 310.113 L
524.4 309.982 L
525.135 309.852 L
525.87 309.721 L
526.605 309.589 L
527.34 309.457 L
528.075 309.325 L
528.81 309.192 L
529.545 309.06 L
530.28 308.926 L
531.015 308.792 L
531.75 308.658 L
532.485 308.524 L
533.22 308.389 L
533.955 308.254 L
534.69 308.118 L
535.425 307.982 L
536.16 307.846 L
536.895 307.709 L
537.63 307.572 L
538.365 307.434 L
539.1 307.296 L
539.835 307.158 L
540.57 307.019 L
541.305 306.879 L
542.04 306.74 L
542.775 306.6 L
543.51 306.459 L
544.245 306.318 L
544.98 306.177 L
545.715 306.035 L
546.45 305.893 L
547.185 305.75 L
547.92 305.607 L
548.655 305.464 L
549.39 305.32 L
550.125 305.175 L
550.86 305.03 L
551.595 304.885 L
552.33 304.739 L
553.065 304.593 L
553.8 304.447 L
554.535 304.299 L
555.27 304.152 L
556.005 304.004 L
556.74 303.855 L
557.475 303.706 L
558.21 303.557 L
558.945 303.407 L
559.68 303.257 L
560.415 303.106 L
561.15 302.954 L
561.885 302.803 L
562.62 302.65 L
563.355 302.497 L
564.09 302.344 L
564.825 302.19 L
565.56 302.036 L
566.295 301.881 L
567.03 301.726 L
567.765 301.57 L
568.5 301.413 L
569.235 301.256 L
569.97 301.099 L
570.705 300.941 L
571.44 300.782 L
572.175 300.623 L
572.91 300.464 L
573.645 300.304 L
574.38 300.143 L
575.115 299.982 L
575.85 299.82 L
576.585 299.658 L
577.32 299.495 L
578.055 299.331 L
578.79 299.167 L
579.525 299.003 L
580.26 298.837 L
580.995 298.672 L
581.73 298.505 L
582.465 298.338 L
583.2 298.171 L
583.935 298.002 L
584.67 297.834 L
585.405 297.664 L
586.14 297.494 L
586.875 297.324 L
587.61 297.153 L
588.345 296.981 L
589.08 296.808 L
589.815 296.635 L
590.55 296.461 L
591.285 296.287 L
592.02 296.112 L
592.755 295.936 L
593.49 295.76 L
594.225 295.583 L
594.96 295.405 L
595.695 295.227 L
596.43 295.048 L
597.165 294.868 L
597.9 294.688 L
598.635 294.506 L
599.37 294.325 L
600.105 294.142 L
600.84 293.959 L
601.575 293.775 L
602.31 293.59 L
603.045 293.405 L
603.78 293.219 L
604.515 293.032 L
605.25 292.844 L
605.985 292.656 L
606.72 292.467 L
607.455 292.277 L
608.19 292.086 L
608.925 291.895 L
609.66 291.702 L
610.395 291.509 L
611.13 291.316 L
611.865 291.121 L
612.6 290.926 L
613.335 290.729 L
614.07 290.532 L
614.805 290.334 L
615.54 290.136 L
616.275 289.936 L
617.01 289.736 L
617.745 289.534 L
618.48 289.332 L
619.215 289.129 L
619.95 288.925 L
620.685 288.72 L
621.42 288.515 L
622.155 288.308 L
622.89 288.101 L
623.625 287.892 L
624.36 287.683 L
625.095 287.473 L
625.83 287.261 L
626.565 287.049 L
627.3 286.836 L
628.035 286.622 L
628.77 286.407 L
629.505 286.191 L
630.24 285.974 L
630.975 285.755 L
631.71 285.536 L
632.445 285.316 L
633.18 285.095 L
633.915 284.873 L
634.65 284.65 L
635.385 284.425 L
636.12 284.2 L
636.855 283.973 L
637.59 283.746 L
638.325 283.517 L
639.06 283.287 L
639.795 283.056 L
640.53 282.824 L
641.265 282.591 L
642 282.356 L
642.735 282.121 L
643.47 281.884 L
644.205 281.646 L
644.94 281.407 L
645.675 281.166 L
646.41 280.925 L
647.145 280.682 L
647.88 280.438 L
648.615 280.192 L
649.35 279.946 L
650.085 279.698 L
650.82 279.448 L
651.555 279.198 L
652.29 278.946 L
653.025 278.692 L
653.76 278.437 L
654.495 278.181 L
655.23 277.924 L
655.965 277.665 L
656.7 277.404 L
657.435 277.143 L
658.17 276.879 L
658.905 276.615 L
659.64 276.348 L
660.375 276.08 L
661.11 275.811 L
661.845 275.54 L
662.58 275.268 L
663.315 274.994 L
664.05 274.718 L
664.785 274.441 L
665.52 274.162 L
666.255 273.881 L
666.99 273.599 L
667.725 273.315 L
668.46 273.029 L
669.195 272.742 L
669.93 272.453 L
670.665 272.161 L
671.4 271.869 L
672.135 271.574 L
672.87 271.277 L
673.605 270.979 L
674.34 270.679 L
675.075 270.376 L
675.81 270.072 L
676.545 269.766 L
677.28 269.458 L
678.015 269.148 L
678.75 268.835 L
679.485 268.521 L
680.22 268.204 L
680.955 267.886 L
681.69 267.565 L
682.425 267.242 L
683.16 266.917 L
683.895 266.589 L
684.63 266.259 L
685.365 265.927 L
686.1 265.593 L
686.835 265.256 L
687.57 264.916 L
688.305 264.575 L
689.04 264.23 L
689.775 263.883 L
690.51 263.534 L
691.245 263.182 L
691.98 262.827 L
692.715 262.47 L
693.45 262.11 L
694.185 261.747 L
694.92 261.381 L
695.655 261.012 L
696.39 260.641 L
697.125 260.266 L
697.86 259.889 L
698.595 259.508 L
699.33 259.124 L
700.065 258.738 L
700.8 258.348 L
701.535 257.954 L
702.27 257.558 L
703.005 257.158 L
703.74 256.754 L
704.475 256.347 L
705.21 255.937 L
705.945 255.523 L
706.68 255.105 L
707.415 254.683 L
708.15 254.258 L
708.885 253.829 L
709.62 253.396 L
710.355 252.958 L
711.09 252.517 L
711.825 252.072 L
712.56 251.622 L
713.295 251.168 L
714.03 250.709 L
714.765 250.246 L
715.5 249.779 L
716.235 249.306 L
716.97 248.829 L
717.705 248.347 L
718.44 247.86 L
719.175 247.368 L
719.91 246.87 L
720.645 246.368 L
721.38 245.86 L
722.115 245.346 L
722.85 244.827 L
723.585 244.301 L
724.32 243.77 L
725.055 243.233 L
725.79 242.69 L
726.525 242.14 L
727.26 241.584 L
727.995 241.021 L
728.73 240.451 L
729.465 239.875 L
730.2 239.291 L
730.935 238.7 L
731.67 238.101 L
732.405 237.494 L
733.14 236.88 L
733.875 236.257 L
734.61 235.627 L
735.345 234.987 L
736.08 234.339 L
736.815 233.681 L
737.55 233.015 L
738.285 232.339 L
739.02 231.652 L
739.755 230.956 L
740.49 230.249 L
741.225 229.532 L
741.96 228.803 L
742.695 228.063 L
743.43 227.311 L
744.165 226.547 L
744.9 225.77 L
745.635 224.98 L
746.37 224.176 L
747.105 223.359 L
747.84 222.527 L
748.575 221.68 L
749.31 220.818 L
750.045 219.939 L
750.78 219.044 L
751.515 218.131 L
752.25 217.201 L
752.985 216.251 L
753.72 215.282 L
754.455 214.292 L
755.19 213.282 L
755.925 212.249 L
756.66 211.192 L
757.395 210.112 L
758.13 209.006 L
758.865 207.873 L
759.6 206.713 L
760.335 205.523 L
761.07 204.302 L
761.805 203.049 L
762.54 201.761 L
763.275 200.437 L
764.01 199.074 L
764.745 197.671 L
765.48 196.225 L
766.215 194.733 L
766.95 193.192 L
767.685 191.598 L
768.42 189.949 L
769.155 188.24 L
769.89 186.466 L
770.625 184.623 L
771.36 182.704 L
772.095 180.704 L
772.83 178.615 L
773.565 176.428 L
774.3 174.135 L
775.035 171.724 L
775.77 169.183 L
776.505 166.497 L
777.24 163.647 L
777.975 160.614 L
778.71 157.371 L
779.445 153.888 L
780.18 150.126 L
780.915 146.037 L
781.65 141.557 L
782.385 136.605 L
783.12 131.069 L
783.855 124.793 L
784.59 117.548 L
785.325 108.979 L
786.06 98.491 L
786.795 84.97 L
787.53 65.913 L
788.265 33.335 L
S
GR
%%Trailer
%%Pages: 1
%%EOF
