%!PS-Adobe-3.0 EPSF-3.0
%%Creator: (MATLAB, The Mathworks, Inc. Version 9.6.0.1072779 \(R2019a\). Operating System: Windows 10)
%%Title: ./RocketEquation_MR.eps
%%CreationDate: 2020-11-28T21:53:56
%%Pages: (atend)
%%BoundingBox:     3     0   524   276
%%LanguageLevel: 3
%%EndComments
%%BeginProlog
%%BeginResource: procset (Apache XML Graphics Std ProcSet) 1.2 0
%%Version: 1.2 0
%%Copyright: (Copyright 2001-2003,2010 The Apache Software Foundation. License terms: http://www.apache.org/licenses/LICENSE-2.0)
/bd{bind def}bind def
/ld{load def}bd
/GR/grestore ld
/GS/gsave ld
/RM/rmoveto ld
/C/curveto ld
/t/show ld
/L/lineto ld
/ML/setmiterlimit ld
/CT/concat ld
/f/fill ld
/N/newpath ld
/S/stroke ld
/CC/setcmykcolor ld
/A/ashow ld
/cp/closepath ld
/RC/setrgbcolor ld
/LJ/setlinejoin ld
/GC/setgray ld
/LW/setlinewidth ld
/M/moveto ld
/re {4 2 roll M
1 index 0 rlineto
0 exch rlineto
neg 0 rlineto
cp } bd
/_ctm matrix def
/_tm matrix def
/BT { _ctm currentmatrix pop matrix _tm copy pop 0 0 moveto } bd
/ET { _ctm setmatrix } bd
/iTm { _ctm setmatrix _tm concat } bd
/Tm { _tm astore pop iTm 0 0 moveto } bd
/ux 0.0 def
/uy 0.0 def
/F {
  /Tp exch def
  /Tf exch def
  Tf findfont Tp scalefont setfont
  /cf Tf def  /cs Tp def
} bd
/ULS {currentpoint /uy exch def /ux exch def} bd
/ULE {
  /Tcx currentpoint pop def
  gsave
  newpath
  cf findfont cs scalefont dup
  /FontMatrix get 0 get /Ts exch def /FontInfo get dup
  /UnderlinePosition get Ts mul /To exch def
  /UnderlineThickness get Ts mul /Tt exch def
  ux uy To add moveto  Tcx uy To add lineto
  Tt setlinewidth stroke
  grestore
} bd
/OLE {
  /Tcx currentpoint pop def
  gsave
  newpath
  cf findfont cs scalefont dup
  /FontMatrix get 0 get /Ts exch def /FontInfo get dup
  /UnderlinePosition get Ts mul /To exch def
  /UnderlineThickness get Ts mul /Tt exch def
  ux uy To add cs add moveto Tcx uy To add cs add lineto
  Tt setlinewidth stroke
  grestore
} bd
/SOE {
  /Tcx currentpoint pop def
  gsave
  newpath
  cf findfont cs scalefont dup
  /FontMatrix get 0 get /Ts exch def /FontInfo get dup
  /UnderlinePosition get Ts mul /To exch def
  /UnderlineThickness get Ts mul /Tt exch def
  ux uy To add cs 10 mul 26 idiv add moveto Tcx uy To add cs 10 mul 26 idiv add lineto
  Tt setlinewidth stroke
  grestore
} bd
/QT {
/Y22 exch store
/X22 exch store
/Y21 exch store
/X21 exch store
currentpoint
/Y21 load 2 mul add 3 div exch
/X21 load 2 mul add 3 div exch
/X21 load 2 mul /X22 load add 3 div
/Y21 load 2 mul /Y22 load add 3 div
/X22 load /Y22 load curveto
} bd
/SSPD {
dup length /d exch dict def
{
/v exch def
/k exch def
currentpagedevice k known {
/cpdv currentpagedevice k get def
v cpdv ne {
/upd false def
/nullv v type /nulltype eq def
/nullcpdv cpdv type /nulltype eq def
nullv nullcpdv or
{
/upd true def
} {
/sametype v type cpdv type eq def
sametype {
v type /arraytype eq {
/vlen v length def
/cpdvlen cpdv length def
vlen cpdvlen eq {
0 1 vlen 1 sub {
/i exch def
/obj v i get def
/cpdobj cpdv i get def
obj cpdobj ne {
/upd true def
exit
} if
} for
} {
/upd true def
} ifelse
} {
v type /dicttype eq {
v {
/dv exch def
/dk exch def
/cpddv cpdv dk get def
dv cpddv ne {
/upd true def
exit
} if
} forall
} {
/upd true def
} ifelse
} ifelse
} if
} ifelse
upd true eq {
d k v put
} if
} if
} if
} forall
d length 0 gt {
d setpagedevice
} if
} bd
/RE { % /NewFontName [NewEncodingArray] /FontName RE -
  findfont dup length dict begin
  {
    1 index /FID ne
    {def} {pop pop} ifelse
  } forall
  /Encoding exch def
  /FontName 1 index def
  currentdict definefont pop
  end
} bind def
%%EndResource
%%BeginResource: procset (Apache XML Graphics EPS ProcSet) 1.0 0
%%Version: 1.0 0
%%Copyright: (Copyright 2002-2003 The Apache Software Foundation. License terms: http://www.apache.org/licenses/LICENSE-2.0)
/BeginEPSF { %def
/b4_Inc_state save def         % Save state for cleanup
/dict_count countdictstack def % Count objects on dict stack
/op_count count 1 sub def      % Count objects on operand stack
userdict begin                 % Push userdict on dict stack
/showpage { } def              % Redefine showpage, { } = null proc
0 setgray 0 setlinecap         % Prepare graphics state
1 setlinewidth 0 setlinejoin
10 setmiterlimit [ ] 0 setdash newpath
/languagelevel where           % If level not equal to 1 then
{pop languagelevel             % set strokeadjust and
1 ne                           % overprint to their defaults.
{false setstrokeadjust false setoverprint
} if
} if
} bd
/EndEPSF { %def
count op_count sub {pop} repeat            % Clean up stacks
countdictstack dict_count sub {end} repeat
b4_Inc_state restore
} bd
%%EndResource
%FOPBeginFontDict
%%IncludeResource: font Courier-Oblique
%%IncludeResource: font Courier-BoldOblique
%%IncludeResource: font Courier-Bold
%%IncludeResource: font ZapfDingbats
%%IncludeResource: font Symbol
%%IncludeResource: font Helvetica
%%IncludeResource: font Helvetica-Oblique
%%IncludeResource: font Helvetica-Bold
%%IncludeResource: font Helvetica-BoldOblique
%%IncludeResource: font Times-Roman
%%IncludeResource: font Times-Italic
%%IncludeResource: font Times-Bold
%%IncludeResource: font Times-BoldItalic
%%IncludeResource: font Courier
%FOPEndFontDict
%%BeginResource: encoding WinAnsiEncoding
/WinAnsiEncoding [
/.notdef /.notdef /.notdef /.notdef /.notdef
/.notdef /.notdef /.notdef /.notdef /.notdef
/.notdef /.notdef /.notdef /.notdef /.notdef
/.notdef /.notdef /.notdef /.notdef /.notdef
/.notdef /.notdef /.notdef /.notdef /.notdef
/.notdef /.notdef /.notdef /.notdef /.notdef
/.notdef /.notdef /space /exclam /quotedbl
/numbersign /dollar /percent /ampersand /quotesingle
/parenleft /parenright /asterisk /plus /comma
/hyphen /period /slash /zero /one
/two /three /four /five /six
/seven /eight /nine /colon /semicolon
/less /equal /greater /question /at
/A /B /C /D /E
/F /G /H /I /J
/K /L /M /N /O
/P /Q /R /S /T
/U /V /W /X /Y
/Z /bracketleft /backslash /bracketright /asciicircum
/underscore /quoteleft /a /b /c
/d /e /f /g /h
/i /j /k /l /m
/n /o /p /q /r
/s /t /u /v /w
/x /y /z /braceleft /bar
/braceright /asciitilde /bullet /Euro /bullet
/quotesinglbase /florin /quotedblbase /ellipsis /dagger
/daggerdbl /circumflex /perthousand /Scaron /guilsinglleft
/OE /bullet /Zcaron /bullet /bullet
/quoteleft /quoteright /quotedblleft /quotedblright /bullet
/endash /emdash /asciitilde /trademark /scaron
/guilsinglright /oe /bullet /zcaron /Ydieresis
/space /exclamdown /cent /sterling /currency
/yen /brokenbar /section /dieresis /copyright
/ordfeminine /guillemotleft /logicalnot /sfthyphen /registered
/macron /degree /plusminus /twosuperior /threesuperior
/acute /mu /paragraph /middot /cedilla
/onesuperior /ordmasculine /guillemotright /onequarter /onehalf
/threequarters /questiondown /Agrave /Aacute /Acircumflex
/Atilde /Adieresis /Aring /AE /Ccedilla
/Egrave /Eacute /Ecircumflex /Edieresis /Igrave
/Iacute /Icircumflex /Idieresis /Eth /Ntilde
/Ograve /Oacute /Ocircumflex /Otilde /Odieresis
/multiply /Oslash /Ugrave /Uacute /Ucircumflex
/Udieresis /Yacute /Thorn /germandbls /agrave
/aacute /acircumflex /atilde /adieresis /aring
/ae /ccedilla /egrave /eacute /ecircumflex
/edieresis /igrave /iacute /icircumflex /idieresis
/eth /ntilde /ograve /oacute /ocircumflex
/otilde /odieresis /divide /oslash /ugrave
/uacute /ucircumflex /udieresis /yacute /thorn
/ydieresis
] def
%%EndResource
%FOPBeginFontReencode
/Courier-Oblique findfont
dup length dict begin
  {1 index /FID ne {def} {pop pop} ifelse} forall
  /Encoding WinAnsiEncoding def
  currentdict
end
/Courier-Oblique exch definefont pop
/Courier-BoldOblique findfont
dup length dict begin
  {1 index /FID ne {def} {pop pop} ifelse} forall
  /Encoding WinAnsiEncoding def
  currentdict
end
/Courier-BoldOblique exch definefont pop
/Courier-Bold findfont
dup length dict begin
  {1 index /FID ne {def} {pop pop} ifelse} forall
  /Encoding WinAnsiEncoding def
  currentdict
end
/Courier-Bold exch definefont pop
/Helvetica findfont
dup length dict begin
  {1 index /FID ne {def} {pop pop} ifelse} forall
  /Encoding WinAnsiEncoding def
  currentdict
end
/Helvetica exch definefont pop
/Helvetica-Oblique findfont
dup length dict begin
  {1 index /FID ne {def} {pop pop} ifelse} forall
  /Encoding WinAnsiEncoding def
  currentdict
end
/Helvetica-Oblique exch definefont pop
/Helvetica-Bold findfont
dup length dict begin
  {1 index /FID ne {def} {pop pop} ifelse} forall
  /Encoding WinAnsiEncoding def
  currentdict
end
/Helvetica-Bold exch definefont pop
/Helvetica-BoldOblique findfont
dup length dict begin
  {1 index /FID ne {def} {pop pop} ifelse} forall
  /Encoding WinAnsiEncoding def
  currentdict
end
/Helvetica-BoldOblique exch definefont pop
/Times-Roman findfont
dup length dict begin
  {1 index /FID ne {def} {pop pop} ifelse} forall
  /Encoding WinAnsiEncoding def
  currentdict
end
/Times-Roman exch definefont pop
/Times-Italic findfont
dup length dict begin
  {1 index /FID ne {def} {pop pop} ifelse} forall
  /Encoding WinAnsiEncoding def
  currentdict
end
/Times-Italic exch definefont pop
/Times-Bold findfont
dup length dict begin
  {1 index /FID ne {def} {pop pop} ifelse} forall
  /Encoding WinAnsiEncoding def
  currentdict
end
/Times-Bold exch definefont pop
/Times-BoldItalic findfont
dup length dict begin
  {1 index /FID ne {def} {pop pop} ifelse} forall
  /Encoding WinAnsiEncoding def
  currentdict
end
/Times-BoldItalic exch definefont pop
/Courier findfont
dup length dict begin
  {1 index /FID ne {def} {pop pop} ifelse} forall
  /Encoding WinAnsiEncoding def
  currentdict
end
/Courier exch definefont pop
%FOPEndFontReencode
%%EndProlog
%%Page: 1 1
%%PageBoundingBox: 0 0 525 280
%%BeginPageSetup
[1 0 0 -1 0 280] CT
%%EndPageSetup
GS
[0.6 0 0 0.60032 0 -0.35001] CT
1 GC
N
0 0 875 467 re
f
GR
GS
[0.6 0 0 0.60032 0 -0.35001] CT
1 GC
N
0 0 875 467 re
f
GR
GS
[0.6 0 0 0.60032 0 -0.35001] CT
1 GC
N
60 415 M
865 415 L
865 55 L
60 55 L
cp
f
GR
GS
[0.6 0 0 0.60032 0 -0.35001] CT
0.873 GC
1 LJ
0.833 LW
N
194.167 415 M
194.167 55 L
S
GR
GS
[0.6 0 0 0.60032 0 -0.35001] CT
0.873 GC
1 LJ
0.833 LW
N
361.875 415 M
361.875 55 L
S
GR
GS
[0.6 0 0 0.60032 0 -0.35001] CT
0.873 GC
1 LJ
0.833 LW
N
529.583 415 M
529.583 55 L
S
GR
GS
[0.6 0 0 0.60032 0 -0.35001] CT
0.873 GC
1 LJ
0.833 LW
N
697.292 415 M
697.292 55 L
S
GR
GS
[0.6 0 0 0.60032 0 -0.35001] CT
0.873 GC
1 LJ
0.833 LW
N
865 415 M
865 55 L
S
GR
GS
[0.6 0 0 0.60032 0 -0.35001] CT
0.873 GC
1 LJ
0.833 LW
N
865 415 M
60 415 L
S
GR
GS
[0.6 0 0 0.60032 0 -0.35001] CT
0.873 GC
1 LJ
0.833 LW
N
865 359.08 M
60 359.08 L
S
GR
GS
[0.6 0 0 0.60032 0 -0.35001] CT
0.873 GC
1 LJ
0.833 LW
N
865 303.16 M
60 303.16 L
S
GR
GS
[0.6 0 0 0.60032 0 -0.35001] CT
0.873 GC
1 LJ
0.833 LW
N
865 247.24 M
60 247.24 L
S
GR
GS
[0.6 0 0 0.60032 0 -0.35001] CT
0.873 GC
1 LJ
0.833 LW
N
865 191.319 M
60 191.319 L
S
GR
GS
[0.6 0 0 0.60032 0 -0.35001] CT
0.873 GC
1 LJ
0.833 LW
N
865 135.399 M
60 135.399 L
S
GR
GS
[0.6 0 0 0.60032 0 -0.35001] CT
0.873 GC
1 LJ
0.833 LW
N
865 79.479 M
60 79.479 L
S
GR
GS
[0.6 0 0 0.60032 0 -0.35001] CT
0.149 GC
2 setlinecap
1 LJ
0.833 LW
N
60 415 M
865 415 L
S
GR
GS
[0.6 0 0 0.60032 0 -0.35001] CT
0.149 GC
2 setlinecap
1 LJ
0.833 LW
N
60 55 M
865 55 L
S
GR
GS
[0.6 0 0 0.60032 0 -0.35001] CT
0.149 GC
2 setlinecap
1 LJ
0.833 LW
N
194.167 415 M
194.167 406.95 L
S
GR
GS
[0.6 0 0 0.60032 0 -0.35001] CT
0.149 GC
2 setlinecap
1 LJ
0.833 LW
N
361.875 415 M
361.875 406.95 L
S
GR
GS
[0.6 0 0 0.60032 0 -0.35001] CT
0.149 GC
2 setlinecap
1 LJ
0.833 LW
N
529.583 415 M
529.583 406.95 L
S
GR
GS
[0.6 0 0 0.60032 0 -0.35001] CT
0.149 GC
2 setlinecap
1 LJ
0.833 LW
N
697.292 415 M
697.292 406.95 L
S
GR
GS
[0.6 0 0 0.60032 0 -0.35001] CT
0.149 GC
2 setlinecap
1 LJ
0.833 LW
N
865 415 M
865 406.95 L
S
GR
GS
[0.6 0 0 0.60032 0 -0.35001] CT
0.149 GC
2 setlinecap
1 LJ
0.833 LW
N
194.167 55 M
194.167 63.05 L
S
GR
GS
[0.6 0 0 0.60032 0 -0.35001] CT
0.149 GC
2 setlinecap
1 LJ
0.833 LW
N
361.875 55 M
361.875 63.05 L
S
GR
GS
[0.6 0 0 0.60032 0 -0.35001] CT
0.149 GC
2 setlinecap
1 LJ
0.833 LW
N
529.583 55 M
529.583 63.05 L
S
GR
GS
[0.6 0 0 0.60032 0 -0.35001] CT
0.149 GC
2 setlinecap
1 LJ
0.833 LW
N
697.292 55 M
697.292 63.05 L
S
GR
GS
[0.6 0 0 0.60032 0 -0.35001] CT
0.149 GC
2 setlinecap
1 LJ
0.833 LW
N
865 55 M
865 63.05 L
S
GR
GS
[0.6 0 0 0.60032 116.5 252.78543] CT
0.149 GC
/Helvetica 16.667 F
GS
[1 0 0 1 0 0] CT
-5 17 moveto 
1 -1 scale
(5) t 
GR
GR
GS
[0.6 0 0 0.60032 217.125 252.78543] CT
0.149 GC
/Helvetica 16.667 F
GS
[1 0 0 1 0 0] CT
-9.5 17 moveto 
1 -1 scale
(10) t 
GR
GR
GS
[0.6 0 0 0.60032 317.74999 252.78543] CT
0.149 GC
/Helvetica 16.667 F
GS
[1 0 0 1 0 0] CT
-9.5 17 moveto 
1 -1 scale
(15) t 
GR
GR
GS
[0.6 0 0 0.60032 418.37501 252.78543] CT
0.149 GC
/Helvetica 16.667 F
GS
[1 0 0 1 0 0] CT
-9.5 17 moveto 
1 -1 scale
(20) t 
GR
GR
GS
[0.6 0 0 0.60032 519 252.78543] CT
0.149 GC
/Helvetica 16.667 F
GS
[1 0 0 1 0 0] CT
-9.5 17 moveto 
1 -1 scale
(25) t 
GR
GR
GS
[0.6 0 0 0.60032 237 277.59872] CT
0.149 GC
/Helvetica 18.333 F
GS
[1 0 0 1 0 0] CT
0 0 moveto 
1 -1 scale
(Mass Ratio, ) t 
GR
GR
GS
[0.6 0 0 0.60032 298.2 277.59872] CT
0.149 GC
/Helvetica-Bold 18.333 F
GS
[1 0 0 1 0 0] CT
0 0 moveto 
1 -1 scale
( MR) t 
GR
GR
GS
[0.6 0 0 0.60032 0 -0.35001] CT
0.149 GC
2 setlinecap
1 LJ
0.833 LW
N
60 415 M
60 55 L
S
GR
GS
[0.6 0 0 0.60032 0 -0.35001] CT
0.149 GC
2 setlinecap
1 LJ
0.833 LW
N
865 415 M
865 55 L
S
GR
GS
[0.6 0 0 0.60032 0 -0.35001] CT
0.149 GC
2 setlinecap
1 LJ
0.833 LW
N
60 415 M
68.05 415 L
S
GR
GS
[0.6 0 0 0.60032 0 -0.35001] CT
0.149 GC
2 setlinecap
1 LJ
0.833 LW
N
60 359.08 M
68.05 359.08 L
S
GR
GS
[0.6 0 0 0.60032 0 -0.35001] CT
0.149 GC
2 setlinecap
1 LJ
0.833 LW
N
60 303.16 M
68.05 303.16 L
S
GR
GS
[0.6 0 0 0.60032 0 -0.35001] CT
0.149 GC
2 setlinecap
1 LJ
0.833 LW
N
60 247.24 M
68.05 247.24 L
S
GR
GS
[0.6 0 0 0.60032 0 -0.35001] CT
0.149 GC
2 setlinecap
1 LJ
0.833 LW
N
60 191.319 M
68.05 191.319 L
S
GR
GS
[0.6 0 0 0.60032 0 -0.35001] CT
0.149 GC
2 setlinecap
1 LJ
0.833 LW
N
60 135.399 M
68.05 135.399 L
S
GR
GS
[0.6 0 0 0.60032 0 -0.35001] CT
0.149 GC
2 setlinecap
1 LJ
0.833 LW
N
60 79.479 M
68.05 79.479 L
S
GR
GS
[0.6 0 0 0.60032 0 -0.35001] CT
0.149 GC
2 setlinecap
1 LJ
0.833 LW
N
865 415 M
856.95 415 L
S
GR
GS
[0.6 0 0 0.60032 0 -0.35001] CT
0.149 GC
2 setlinecap
1 LJ
0.833 LW
N
865 359.08 M
856.95 359.08 L
S
GR
GS
[0.6 0 0 0.60032 0 -0.35001] CT
0.149 GC
2 setlinecap
1 LJ
0.833 LW
N
865 303.16 M
856.95 303.16 L
S
GR
GS
[0.6 0 0 0.60032 0 -0.35001] CT
0.149 GC
2 setlinecap
1 LJ
0.833 LW
N
865 247.24 M
856.95 247.24 L
S
GR
GS
[0.6 0 0 0.60032 0 -0.35001] CT
0.149 GC
2 setlinecap
1 LJ
0.833 LW
N
865 191.319 M
856.95 191.319 L
S
GR
GS
[0.6 0 0 0.60032 0 -0.35001] CT
0.149 GC
2 setlinecap
1 LJ
0.833 LW
N
865 135.399 M
856.95 135.399 L
S
GR
GS
[0.6 0 0 0.60032 0 -0.35001] CT
0.149 GC
2 setlinecap
1 LJ
0.833 LW
N
865 79.479 M
856.95 79.479 L
S
GR
GS
[0.6 0 0 0.60032 32 248.7833] CT
0.149 GC
/Helvetica 16.667 F
GS
[1 0 0 1 0 0] CT
-10 6.5 moveto 
1 -1 scale
(0) t 
GR
GR
GS
[0.6 0 0 0.60032 32 215.21325] CT
0.149 GC
/Helvetica 16.667 F
GS
[1 0 0 1 0 0] CT
-24 6.5 moveto 
1 -1 scale
(0.5) t 
GR
GR
GS
[0.6 0 0 0.60032 32 181.64319] CT
0.149 GC
/Helvetica 16.667 F
GS
[1 0 0 1 0 0] CT
-10 6.5 moveto 
1 -1 scale
(1) t 
GR
GR
GS
[0.6 0 0 0.60032 32 148.07315] CT
0.149 GC
/Helvetica 16.667 F
GS
[1 0 0 1 0 0] CT
-24 6.5 moveto 
1 -1 scale
(1.5) t 
GR
GR
GS
[0.6 0 0 0.60032 32 114.5031] CT
0.149 GC
/Helvetica 16.667 F
GS
[1 0 0 1 0 0] CT
-10 6.5 moveto 
1 -1 scale
(2) t 
GR
GR
GS
[0.6 0 0 0.60032 32 80.93305] CT
0.149 GC
/Helvetica 16.667 F
GS
[1 0 0 1 0 0] CT
-24 6.5 moveto 
1 -1 scale
(2.5) t 
GR
GR
GS
[0.6 0 0 0.60032 32 47.363] CT
0.149 GC
/Helvetica 16.667 F
GS
[1 0 0 1 0 0] CT
-10 6.5 moveto 
1 -1 scale
(3) t 
GR
GR
GS
[0 -0.60032 0.6 0 11.4 149.7303] CT
0.149 GC
N
0.969 0 M
0.828 0 0.828 -0.141 QT
0.828 -0.156 0.836 -0.164 QT
0.844 -0.172 0.844 -0.203 QT
7.047 -12.688 L
7.125 -12.891 7.359 -12.891 QT
7.609 -12.891 L
7.859 -12.891 7.938 -12.688 QT
14.141 -0.203 L
14.141 -0.188 14.148 -0.172 QT
14.156 -0.156 14.156 -0.141 QT
14.156 0 14 0 QT
0.969 0 L
cp
2.156 -1.438 M
11.641 -1.438 L
6.906 -11 L
2.156 -1.438 L
cp
f
GR
GS
[0 -0.60032 0.6 0 11.4 140.12516] CT
0.149 GC
/Helvetica 18.333 F
GS
[1 0 0 1 0 0] CT
0 0 moveto 
1 -1 scale
(V) t 
GR
GR
GS
[0.6 0 0 0.60032 192.6 13.45738] CT
/Helvetica-Bold 20 F
GS
[1 0 0 1 0 0] CT
0 0 moveto 
1 -1 scale
( Tsiolkovsky Rocket Equation) t 
GR
GR
GS
[0.6 0 0 0.60032 201.6 27.86509] CT
/Helvetica 18.333 F
GS
[1 0 0 1 0 0] CT
0 0 moveto 
1 -1 scale
(Three-Staged Vehicle Example) t 
GR
GR
GS
[0.6 0 0 0.60032 0 -0.35001] CT
0.149 GC
1 LJ
0.833 LW
N
60 415 M
865 415 L
S
GR
GS
[0.6 0 0 0.60032 0 -0.35001] CT
0 0.447 0.741 RC
1 LJ
2.5 LW
N
60 415 M
60.335 413.887 L
60.671 412.785 L
61.006 411.694 L
61.342 410.614 L
61.677 409.543 L
62.012 408.483 L
62.348 407.433 L
62.683 406.393 L
63.019 405.362 L
63.354 404.34 L
63.69 403.328 L
64.025 402.325 L
64.36 401.331 L
64.696 400.346 L
65.031 399.369 L
65.367 398.401 L
65.702 397.441 L
66.037 396.489 L
66.373 395.545 L
66.708 394.609 L
67.044 393.681 L
67.379 392.76 L
67.715 391.847 L
68.05 390.942 L
68.385 390.044 L
68.721 389.152 L
69.056 388.268 L
69.392 387.391 L
69.727 386.521 L
70.063 385.657 L
70.398 384.8 L
70.733 383.95 L
71.069 383.105 L
71.404 382.268 L
71.74 381.436 L
72.075 380.611 L
72.41 379.791 L
72.746 378.978 L
73.081 378.171 L
73.417 377.369 L
73.752 376.573 L
74.088 375.782 L
74.423 374.998 L
74.758 374.218 L
75.094 373.444 L
75.429 372.676 L
75.765 371.912 L
76.1 371.154 L
76.435 370.401 L
76.771 369.653 L
77.106 368.91 L
77.442 368.171 L
77.777 367.438 L
78.112 366.709 L
78.448 365.985 L
78.783 365.266 L
79.119 364.552 L
79.454 363.841 L
79.79 363.136 L
80.125 362.435 L
80.46 361.738 L
80.796 361.045 L
81.131 360.357 L
81.467 359.673 L
81.802 358.993 L
82.137 358.317 L
82.473 357.646 L
82.808 356.978 L
83.144 356.314 L
83.479 355.654 L
83.815 354.998 L
84.15 354.346 L
84.485 353.698 L
84.821 353.053 L
85.156 352.412 L
85.492 351.775 L
85.827 351.141 L
86.162 350.511 L
86.498 349.885 L
86.833 349.262 L
87.169 348.642 L
87.504 348.026 L
87.84 347.413 L
88.175 346.804 L
88.51 346.197 L
88.846 345.595 L
89.181 344.995 L
89.517 344.398 L
89.852 343.805 L
90.188 343.215 L
90.523 342.628 L
90.858 342.044 L
91.194 341.463 L
91.529 340.885 L
91.865 340.31 L
92.2 339.738 L
92.535 339.169 L
92.871 338.602 L
93.206 338.039 L
93.542 337.478 L
93.877 336.92 L
94.213 336.365 L
94.548 335.813 L
94.883 335.263 L
95.219 334.717 L
95.554 334.172 L
95.89 333.631 L
96.225 333.092 L
96.56 332.555 L
96.896 332.022 L
97.231 331.49 L
97.567 330.961 L
97.902 330.435 L
98.238 329.911 L
98.573 329.39 L
98.908 328.871 L
99.244 328.354 L
99.579 327.84 L
99.915 327.328 L
100.25 326.819 L
100.585 326.311 L
100.921 325.807 L
101.256 325.304 L
101.592 324.803 L
101.927 324.305 L
102.262 323.809 L
102.598 323.316 L
102.933 322.824 L
103.269 322.335 L
103.604 321.847 L
103.94 321.362 L
104.275 320.879 L
104.61 320.398 L
104.946 319.919 L
105.281 319.442 L
105.617 318.967 L
105.952 318.494 L
106.288 318.023 L
106.623 317.554 L
106.958 317.087 L
107.294 316.622 L
107.629 316.159 L
107.965 315.698 L
108.3 315.239 L
108.635 314.781 L
108.971 314.326 L
109.306 313.872 L
109.642 313.42 L
109.977 312.97 L
110.313 312.522 L
110.648 312.075 L
110.983 311.631 L
111.319 311.188 L
111.654 310.746 L
111.99 310.307 L
112.325 309.869 L
112.66 309.433 L
112.996 308.999 L
113.331 308.566 L
113.667 308.135 L
114.002 307.706 L
114.337 307.278 L
114.673 306.852 L
115.008 306.428 L
115.344 306.005 L
115.679 305.584 L
116.015 305.164 L
116.35 304.746 L
116.685 304.329 L
117.021 303.914 L
117.356 303.501 L
117.692 303.089 L
118.027 302.679 L
118.363 302.27 L
118.698 301.862 L
119.033 301.456 L
119.369 301.052 L
119.704 300.649 L
120.04 300.247 L
120.375 299.847 L
120.71 299.448 L
121.046 299.051 L
121.381 298.655 L
121.717 298.261 L
122.052 297.868 L
122.387 297.476 L
122.723 297.085 L
123.058 296.696 L
123.394 296.309 L
123.729 295.922 L
124.065 295.537 L
124.4 295.154 L
124.735 294.771 L
125.071 294.39 L
125.406 294.011 L
125.742 293.632 L
126.077 293.255 L
126.412 292.879 L
126.748 292.504 L
127.083 292.131 L
127.419 291.759 L
127.754 291.388 L
128.09 291.018 L
128.425 290.65 L
128.76 290.282 L
129.096 289.916 L
129.431 289.551 L
129.767 289.188 L
130.102 288.825 L
130.438 288.464 L
130.773 288.103 L
131.108 287.744 L
131.444 287.387 L
131.779 287.03 L
132.115 286.674 L
132.45 286.32 L
132.785 285.966 L
133.121 285.614 L
133.456 285.263 L
133.792 284.913 L
134.127 284.564 L
134.462 284.216 L
134.798 283.869 L
135.133 283.524 L
135.469 283.179 L
135.804 282.835 L
136.14 282.493 L
136.475 282.151 L
136.81 281.811 L
137.146 281.471 L
137.481 281.133 L
137.817 280.796 L
138.152 280.459 L
138.488 280.124 L
138.823 279.79 L
139.158 279.456 L
139.494 279.124 L
139.829 278.792 L
140.165 278.462 L
140.5 278.133 L
140.835 277.804 L
141.171 277.477 L
141.506 277.15 L
141.842 276.825 L
142.177 276.5 L
142.512 276.176 L
142.848 275.853 L
143.183 275.532 L
143.519 275.211 L
143.854 274.891 L
144.19 274.572 L
144.525 274.253 L
144.86 273.936 L
145.196 273.62 L
145.531 273.304 L
145.867 272.99 L
146.202 272.676 L
146.537 272.363 L
146.873 272.051 L
147.208 271.74 L
147.544 271.43 L
147.879 271.12 L
148.215 270.812 L
148.55 270.504 L
148.885 270.197 L
149.221 269.891 L
149.556 269.586 L
149.892 269.282 L
150.227 268.978 L
150.563 268.676 L
150.898 268.374 L
151.233 268.073 L
151.569 267.773 L
151.904 267.473 L
152.24 267.174 L
152.575 266.877 L
152.91 266.58 L
153.246 266.283 L
153.581 265.988 L
153.917 265.693 L
154.252 265.399 L
154.587 265.106 L
154.923 264.814 L
155.258 264.522 L
155.594 264.231 L
155.929 263.941 L
156.265 263.652 L
156.6 263.363 L
156.935 263.075 L
157.271 262.788 L
157.606 262.502 L
157.942 262.216 L
158.277 261.931 L
158.613 261.647 L
158.948 261.363 L
159.283 261.08 L
159.619 260.798 L
159.954 260.517 L
160.29 260.236 L
160.625 259.956 L
160.96 259.677 L
161.296 259.399 L
161.631 259.121 L
161.967 258.844 L
162.302 258.567 L
162.637 258.291 L
162.973 258.016 L
163.308 257.742 L
163.644 257.468 L
163.979 257.195 L
164.315 256.922 L
164.65 256.651 L
164.985 256.379 L
165.321 256.109 L
165.656 255.839 L
165.992 255.57 L
166.327 255.301 L
166.662 255.034 L
166.998 254.766 L
167.333 254.5 L
167.669 254.234 L
168.004 253.968 L
168.34 253.704 L
168.675 253.44 L
169.01 253.176 L
169.346 252.913 L
169.681 252.651 L
170.017 252.389 L
170.352 252.128 L
170.688 251.868 L
171.023 251.608 L
171.358 251.349 L
171.694 251.09 L
172.029 250.833 L
172.365 250.575 L
172.7 250.318 L
173.035 250.062 L
173.371 249.806 L
173.706 249.551 L
174.042 249.297 L
174.377 249.043 L
174.713 248.79 L
175.048 248.537 L
175.383 248.285 L
175.719 248.033 L
176.054 247.782 L
176.39 247.532 L
176.725 247.282 L
177.06 247.032 L
177.396 246.784 L
177.731 246.535 L
178.067 246.288 L
178.402 246.04 L
178.738 245.794 L
179.073 245.548 L
179.408 245.302 L
179.744 245.057 L
180.079 244.813 L
180.415 244.569 L
180.75 244.325 L
181.085 244.083 L
181.421 243.84 L
181.756 243.598 L
182.092 243.357 L
182.427 243.116 L
182.762 242.876 L
183.098 242.636 L
183.433 242.397 L
183.769 242.158 L
184.104 241.92 L
184.44 241.682 L
184.775 241.445 L
185.11 241.209 L
185.446 240.972 L
185.781 240.737 L
186.117 240.501 L
186.452 240.267 L
186.788 240.033 L
187.123 239.799 L
187.458 239.566 L
187.794 239.333 L
188.129 239.101 L
188.465 238.869 L
188.8 238.637 L
189.135 238.407 L
189.471 238.176 L
189.806 237.946 L
190.142 237.717 L
190.477 237.488 L
190.813 237.259 L
191.148 237.031 L
191.483 236.804 L
191.819 236.577 L
192.154 236.35 L
192.49 236.124 L
192.825 235.898 L
193.16 235.673 L
193.496 235.448 L
193.831 235.224 L
194.167 235 L
194.502 234.777 L
194.837 234.554 L
195.173 234.331 L
195.508 234.109 L
195.844 233.887 L
196.179 233.666 L
196.515 233.445 L
196.85 233.225 L
197.185 233.005 L
197.521 232.785 L
197.856 232.566 L
198.192 232.348 L
198.527 232.129 L
198.863 231.911 L
199.198 231.694 L
199.533 231.477 L
199.869 231.261 L
200.204 231.045 L
200.54 230.829 L
200.875 230.614 L
201.21 230.399 L
201.546 230.184 L
201.881 229.97 L
202.217 229.757 L
202.552 229.543 L
202.888 229.33 L
203.223 229.118 L
203.558 228.906 L
203.894 228.694 L
204.229 228.483 L
204.565 228.272 L
204.9 228.062 L
205.235 227.852 L
205.571 227.642 L
205.906 227.433 L
206.242 227.224 L
206.577 227.016 L
206.913 226.808 L
207.248 226.6 L
207.583 226.393 L
207.919 226.186 L
208.254 225.979 L
208.59 225.773 L
208.925 225.567 L
209.26 225.362 L
209.596 225.157 L
209.931 224.952 L
210.267 224.748 L
210.602 224.544 L
210.938 224.34 L
211.273 224.137 L
211.608 223.935 L
211.944 223.732 L
212.279 223.53 L
212.615 223.328 L
212.95 223.127 L
213.285 222.926 L
213.621 222.725 L
213.956 222.525 L
214.292 222.325 L
214.627 222.126 L
214.962 221.927 L
215.298 221.728 L
215.633 221.529 L
215.969 221.331 L
216.304 221.133 L
216.64 220.936 L
216.975 220.739 L
217.31 220.542 L
217.646 220.346 L
217.981 220.15 L
218.317 219.954 L
218.652 219.759 L
218.987 219.564 L
219.323 219.369 L
219.658 219.175 L
219.994 218.981 L
220.329 218.787 L
220.665 218.594 L
221 218.401 L
221.335 218.208 L
221.671 218.016 L
222.006 217.824 L
222.342 217.632 L
222.677 217.441 L
223.012 217.25 L
223.348 217.059 L
223.683 216.869 L
224.019 216.679 L
224.354 216.489 L
224.69 216.299 L
225.025 216.11 L
225.36 215.922 L
225.696 215.733 L
226.031 215.545 L
226.367 215.357 L
226.702 215.17 L
227.038 214.983 L
227.373 214.796 L
227.708 214.609 L
228.044 214.423 L
228.379 214.237 L
228.715 214.051 L
229.05 213.866 L
229.385 213.681 L
229.721 213.496 L
230.056 213.312 L
230.392 213.128 L
230.727 212.944 L
231.063 212.76 L
231.398 212.577 L
231.733 212.394 L
232.069 212.212 L
232.404 212.029 L
232.74 211.847 L
233.075 211.666 L
233.41 211.484 L
233.746 211.303 L
234.081 211.122 L
234.417 210.942 L
234.752 210.762 L
235.087 210.582 L
235.423 210.402 L
235.758 210.223 L
236.094 210.044 L
236.429 209.865 L
236.765 209.686 L
237.1 209.508 L
237.435 209.33 L
237.771 209.152 L
238.106 208.975 L
238.442 208.798 L
238.777 208.621 L
239.113 208.445 L
239.448 208.268 L
239.783 208.092 L
240.119 207.917 L
240.454 207.741 L
240.79 207.566 L
241.125 207.391 L
241.46 207.216 L
241.796 207.042 L
242.131 206.868 L
242.467 206.694 L
242.802 206.521 L
243.137 206.347 L
243.473 206.174 L
243.808 206.002 L
244.144 205.829 L
244.479 205.657 L
244.815 205.485 L
245.15 205.314 L
245.485 205.142 L
245.821 204.971 L
246.156 204.8 L
246.492 204.629 L
246.827 204.459 L
247.162 204.289 L
247.498 204.119 L
247.833 203.95 L
248.169 203.78 L
248.504 203.611 L
248.84 203.442 L
249.175 203.274 L
249.51 203.105 L
249.846 202.937 L
250.181 202.77 L
250.517 202.602 L
250.852 202.435 L
251.188 202.268 L
251.523 202.101 L
251.858 201.934 L
252.194 201.768 L
252.529 201.602 L
252.865 201.436 L
253.2 201.271 L
253.535 201.105 L
253.871 200.94 L
254.206 200.775 L
254.542 200.611 L
254.877 200.446 L
255.213 200.282 L
255.548 200.118 L
255.883 199.955 L
256.219 199.791 L
256.554 199.628 L
256.89 199.465 L
257.225 199.303 L
257.56 199.14 L
257.896 198.978 L
258.231 198.816 L
258.567 198.654 L
258.902 198.493 L
259.237 198.332 L
259.573 198.171 L
259.908 198.01 L
260.244 197.849 L
260.579 197.689 L
260.915 197.529 L
261.25 197.369 L
261.585 197.209 L
261.921 197.05 L
262.256 196.891 L
262.592 196.732 L
262.927 196.573 L
263.263 196.414 L
263.598 196.256 L
263.933 196.098 L
264.269 195.94 L
264.604 195.782 L
264.94 195.625 L
265.275 195.468 L
265.61 195.311 L
265.946 195.154 L
266.281 194.998 L
266.617 194.841 L
266.952 194.685 L
267.288 194.529 L
267.623 194.374 L
267.958 194.218 L
268.294 194.063 L
268.629 193.908 L
268.965 193.753 L
269.3 193.599 L
269.635 193.444 L
269.971 193.29 L
270.306 193.136 L
270.642 192.982 L
270.977 192.829 L
271.313 192.676 L
271.648 192.522 L
271.983 192.37 L
272.319 192.217 L
272.654 192.064 L
272.99 191.912 L
273.325 191.76 L
273.66 191.608 L
273.996 191.457 L
274.331 191.305 L
274.667 191.154 L
275.002 191.003 L
275.337 190.852 L
275.673 190.701 L
276.008 190.551 L
276.344 190.401 L
276.679 190.251 L
277.015 190.101 L
277.35 189.951 L
277.685 189.802 L
278.021 189.653 L
278.356 189.504 L
278.692 189.355 L
279.027 189.206 L
279.362 189.058 L
279.698 188.91 L
280.033 188.761 L
280.369 188.614 L
280.704 188.466 L
281.04 188.319 L
281.375 188.171 L
281.71 188.024 L
282.046 187.877 L
282.381 187.731 L
282.717 187.584 L
283.052 187.438 L
283.387 187.292 L
283.723 187.146 L
284.058 187 L
284.394 186.855 L
284.729 186.709 L
285.065 186.564 L
285.4 186.419 L
285.735 186.274 L
286.071 186.13 L
286.406 185.985 L
286.742 185.841 L
287.077 185.697 L
287.413 185.553 L
287.748 185.41 L
288.083 185.266 L
288.419 185.123 L
288.754 184.98 L
289.09 184.837 L
289.425 184.694 L
289.76 184.552 L
290.096 184.409 L
290.431 184.267 L
290.767 184.125 L
291.102 183.983 L
291.438 183.841 L
291.773 183.7 L
292.108 183.559 L
292.444 183.418 L
292.779 183.277 L
293.115 183.136 L
293.45 182.995 L
293.785 182.855 L
294.121 182.715 L
294.456 182.575 L
294.792 182.435 L
295.127 182.295 L
295.463 182.155 L
295.798 182.016 L
296.133 181.877 L
296.469 181.738 L
296.804 181.599 L
297.14 181.46 L
297.475 181.322 L
297.81 181.183 L
298.146 181.045 L
298.481 180.907 L
298.817 180.77 L
299.152 180.632 L
299.488 180.494 L
299.823 180.357 L
300.158 180.22 L
300.494 180.083 L
300.829 179.946 L
301.165 179.81 L
301.5 179.673 L
301.835 179.537 L
302.171 179.401 L
302.506 179.265 L
302.842 179.129 L
303.177 178.993 L
303.513 178.858 L
303.848 178.722 L
304.183 178.587 L
304.519 178.452 L
304.854 178.317 L
305.19 178.183 L
305.525 178.048 L
305.86 177.914 L
306.196 177.78 L
306.531 177.646 L
306.867 177.512 L
307.202 177.378 L
307.538 177.245 L
307.873 177.111 L
308.208 176.978 L
308.544 176.845 L
308.879 176.712 L
309.215 176.579 L
309.55 176.447 L
309.885 176.314 L
310.221 176.182 L
310.556 176.05 L
310.892 175.918 L
311.227 175.786 L
311.563 175.654 L
311.898 175.523 L
312.233 175.392 L
312.569 175.26 L
312.904 175.129 L
313.24 174.998 L
313.575 174.868 L
313.91 174.737 L
314.246 174.607 L
314.581 174.476 L
314.917 174.346 L
315.252 174.216 L
315.587 174.087 L
315.923 173.957 L
316.258 173.827 L
316.594 173.698 L
316.929 173.569 L
317.265 173.44 L
317.6 173.311 L
317.935 173.182 L
318.271 173.053 L
318.606 172.925 L
318.942 172.797 L
319.277 172.668 L
319.612 172.54 L
319.948 172.412 L
320.283 172.285 L
320.619 172.157 L
320.954 172.03 L
321.29 171.902 L
321.625 171.775 L
321.96 171.648 L
322.296 171.521 L
322.631 171.395 L
322.967 171.268 L
323.302 171.141 L
323.637 171.015 L
323.973 170.889 L
324.308 170.763 L
324.644 170.637 L
324.979 170.511 L
325.315 170.386 L
325.65 170.26 L
325.985 170.135 L
326.321 170.01 L
326.656 169.885 L
326.992 169.76 L
327.327 169.635 L
327.662 169.511 L
327.998 169.386 L
328.333 169.262 L
328.669 169.138 L
329.004 169.014 L
329.34 168.89 L
329.675 168.766 L
330.01 168.642 L
330.346 168.519 L
330.681 168.395 L
331.017 168.272 L
331.352 168.149 L
331.688 168.026 L
332.023 167.903 L
332.358 167.78 L
332.694 167.658 L
333.029 167.535 L
333.365 167.413 L
333.7 167.291 L
334.035 167.169 L
334.371 167.047 L
334.706 166.925 L
335.042 166.804 L
335.377 166.682 L
335.712 166.561 L
336.048 166.44 L
336.383 166.318 L
336.719 166.197 L
337.054 166.077 L
337.39 165.956 L
337.725 165.835 L
338.06 165.715 L
338.396 165.595 L
338.731 165.474 L
339.067 165.354 L
339.402 165.234 L
339.738 165.115 L
340.073 164.995 L
340.408 164.875 L
340.744 164.756 L
341.079 164.637 L
341.415 164.517 L
341.75 164.398 L
342.085 164.279 L
342.421 164.161 L
342.756 164.042 L
343.092 163.923 L
343.427 163.805 L
343.763 163.687 L
344.098 163.569 L
344.433 163.451 L
344.769 163.333 L
345.104 163.215 L
345.44 163.097 L
345.775 162.98 L
346.11 162.862 L
346.446 162.745 L
346.781 162.628 L
347.117 162.511 L
347.452 162.394 L
347.788 162.277 L
348.123 162.16 L
348.458 162.044 L
348.794 161.927 L
349.129 161.811 L
349.465 161.695 L
349.8 161.579 L
350.135 161.463 L
350.471 161.347 L
350.806 161.231 L
351.142 161.116 L
351.477 161 L
351.813 160.885 L
352.148 160.77 L
352.483 160.654 L
352.819 160.539 L
353.154 160.425 L
353.49 160.31 L
353.825 160.195 L
354.16 160.081 L
354.496 159.966 L
354.831 159.852 L
355.167 159.738 L
355.502 159.624 L
355.837 159.51 L
356.173 159.396 L
356.508 159.282 L
356.844 159.169 L
357.179 159.055 L
357.515 158.942 L
357.85 158.828 L
358.185 158.715 L
358.521 158.602 L
358.856 158.489 L
359.192 158.377 L
359.527 158.264 L
359.862 158.151 L
360.198 158.039 L
360.533 157.926 L
360.869 157.814 L
361.204 157.702 L
361.54 157.59 L
361.875 157.478 L
362.21 157.366 L
362.546 157.255 L
362.881 157.143 L
363.217 157.032 L
363.552 156.92 L
363.888 156.809 L
364.223 156.698 L
364.558 156.587 L
364.894 156.476 L
365.229 156.365 L
365.565 156.255 L
365.9 156.144 L
366.235 156.034 L
366.571 155.923 L
366.906 155.813 L
367.242 155.703 L
367.577 155.593 L
367.913 155.483 L
368.248 155.373 L
368.583 155.263 L
368.919 155.154 L
369.254 155.044 L
369.59 154.935 L
369.925 154.826 L
370.26 154.717 L
370.596 154.608 L
370.931 154.499 L
371.267 154.39 L
371.602 154.281 L
371.938 154.172 L
372.273 154.064 L
372.608 153.955 L
372.944 153.847 L
373.279 153.739 L
373.615 153.631 L
373.95 153.523 L
374.285 153.415 L
374.621 153.307 L
374.956 153.199 L
375.292 153.092 L
375.627 152.984 L
375.962 152.877 L
376.298 152.77 L
376.633 152.662 L
376.969 152.555 L
377.304 152.448 L
377.64 152.342 L
377.975 152.235 L
378.31 152.128 L
378.646 152.021 L
378.981 151.915 L
379.317 151.809 L
379.652 151.702 L
379.987 151.596 L
380.323 151.49 L
380.658 151.384 L
380.994 151.278 L
381.329 151.173 L
381.665 151.067 L
382 150.961 L
382.335 150.856 L
382.671 150.751 L
383.006 150.645 L
383.342 150.54 L
383.677 150.435 L
384.012 150.33 L
384.348 150.225 L
384.683 150.12 L
385.019 150.016 L
385.354 149.911 L
385.69 149.807 L
386.025 149.702 L
386.36 149.598 L
386.696 149.494 L
387.031 149.39 L
387.367 149.286 L
387.702 149.182 L
388.038 149.078 L
388.373 148.974 L
388.708 148.871 L
389.044 148.767 L
389.379 148.664 L
389.715 148.561 L
390.05 148.457 L
390.385 148.354 L
390.721 148.251 L
391.056 148.148 L
391.392 148.045 L
391.727 147.943 L
392.063 147.84 L
392.398 147.738 L
392.733 147.635 L
393.069 147.533 L
393.404 147.43 L
393.74 147.328 L
394.075 147.226 L
394.41 147.124 L
394.746 147.022 L
395.081 146.92 L
395.417 146.819 L
395.752 146.717 L
396.088 146.616 L
396.423 146.514 L
396.758 146.413 L
397.094 146.311 L
397.429 146.21 L
397.765 146.109 L
398.1 146.008 L
398.435 145.907 L
398.771 145.807 L
399.106 145.706 L
399.442 145.605 L
399.777 145.505 L
400.113 145.404 L
400.448 145.304 L
400.783 145.204 L
401.119 145.103 L
401.454 145.003 L
401.79 144.903 L
402.125 144.803 L
402.46 144.704 L
402.796 144.604 L
403.131 144.504 L
403.467 144.405 L
403.802 144.305 L
404.138 144.206 L
404.473 144.107 L
404.808 144.007 L
405.144 143.908 L
405.479 143.809 L
405.815 143.71 L
406.15 143.612 L
406.485 143.513 L
406.821 143.414 L
407.156 143.316 L
407.492 143.217 L
407.827 143.119 L
408.163 143.02 L
408.498 142.922 L
408.833 142.824 L
409.169 142.726 L
409.504 142.628 L
409.84 142.53 L
410.175 142.432 L
410.51 142.335 L
410.846 142.237 L
411.181 142.139 L
411.517 142.042 L
411.852 141.945 L
412.188 141.847 L
412.523 141.75 L
412.858 141.653 L
413.194 141.556 L
413.529 141.459 L
413.865 141.362 L
414.2 141.265 L
414.535 141.169 L
414.871 141.072 L
415.206 140.975 L
415.542 140.879 L
415.877 140.783 L
416.212 140.686 L
416.548 140.59 L
416.883 140.494 L
417.219 140.398 L
417.554 140.302 L
417.89 140.206 L
418.225 140.11 L
418.56 140.014 L
418.896 139.919 L
419.231 139.823 L
419.567 139.728 L
419.902 139.632 L
420.237 139.537 L
420.573 139.442 L
420.908 139.347 L
421.244 139.252 L
421.579 139.157 L
421.915 139.062 L
422.25 138.967 L
422.585 138.872 L
422.921 138.778 L
423.256 138.683 L
423.592 138.589 L
423.927 138.494 L
424.262 138.4 L
424.598 138.306 L
424.933 138.211 L
425.269 138.117 L
425.604 138.023 L
425.94 137.929 L
426.275 137.835 L
426.61 137.742 L
426.946 137.648 L
427.281 137.554 L
427.617 137.461 L
427.952 137.367 L
428.287 137.274 L
428.623 137.181 L
428.958 137.087 L
429.294 136.994 L
429.629 136.901 L
429.965 136.808 L
430.3 136.715 L
430.635 136.622 L
430.971 136.53 L
431.306 136.437 L
431.642 136.344 L
431.977 136.252 L
432.313 136.159 L
432.648 136.067 L
432.983 135.974 L
433.319 135.882 L
433.654 135.79 L
433.99 135.698 L
434.325 135.606 L
434.66 135.514 L
434.996 135.422 L
435.331 135.33 L
435.667 135.239 L
436.002 135.147 L
436.337 135.055 L
436.673 134.964 L
437.008 134.873 L
437.344 134.781 L
437.679 134.69 L
438.015 134.599 L
438.35 134.508 L
438.685 134.417 L
439.021 134.326 L
439.356 134.235 L
439.692 134.144 L
440.027 134.053 L
440.363 133.963 L
440.698 133.872 L
441.033 133.781 L
441.369 133.691 L
441.704 133.601 L
442.04 133.51 L
442.375 133.42 L
442.71 133.33 L
443.046 133.24 L
443.381 133.15 L
443.717 133.06 L
444.052 132.97 L
444.388 132.88 L
444.723 132.791 L
445.058 132.701 L
445.394 132.611 L
445.729 132.522 L
446.065 132.432 L
446.4 132.343 L
446.735 132.254 L
447.071 132.164 L
447.406 132.075 L
447.742 131.986 L
448.077 131.897 L
448.413 131.808 L
448.748 131.719 L
449.083 131.631 L
449.419 131.542 L
449.754 131.453 L
450.09 131.365 L
450.425 131.276 L
450.76 131.188 L
451.096 131.099 L
451.431 131.011 L
451.767 130.923 L
452.102 130.835 L
452.438 130.747 L
452.773 130.658 L
453.108 130.571 L
453.444 130.483 L
453.779 130.395 L
454.115 130.307 L
454.45 130.219 L
454.785 130.132 L
455.121 130.044 L
455.456 129.957 L
455.792 129.869 L
456.127 129.782 L
456.462 129.695 L
456.798 129.607 L
457.133 129.52 L
457.469 129.433 L
457.804 129.346 L
458.14 129.259 L
458.475 129.172 L
458.81 129.086 L
459.146 128.999 L
459.481 128.912 L
459.817 128.826 L
460.152 128.739 L
460.487 128.653 L
460.823 128.566 L
461.158 128.48 L
461.494 128.394 L
461.829 128.308 L
462.165 128.221 L
462.5 128.135 L
462.835 128.049 L
463.171 127.963 L
463.506 127.878 L
463.842 127.792 L
464.177 127.706 L
464.513 127.62 L
464.848 127.535 L
465.183 127.449 L
465.519 127.364 L
465.854 127.278 L
466.19 127.193 L
466.525 127.108 L
466.86 127.022 L
467.196 126.937 L
467.531 126.852 L
467.867 126.767 L
468.202 126.682 L
468.538 126.597 L
468.873 126.513 L
469.208 126.428 L
469.544 126.343 L
469.879 126.258 L
470.215 126.174 L
470.55 126.089 L
470.885 126.005 L
471.221 125.921 L
471.556 125.836 L
471.892 125.752 L
472.227 125.668 L
472.563 125.584 L
472.898 125.5 L
473.233 125.416 L
473.569 125.332 L
473.904 125.248 L
474.24 125.164 L
474.575 125.08 L
474.91 124.997 L
475.246 124.913 L
475.581 124.829 L
475.917 124.746 L
476.252 124.663 L
476.587 124.579 L
476.923 124.496 L
477.258 124.413 L
477.594 124.329 L
477.929 124.246 L
478.265 124.163 L
478.6 124.08 L
478.935 123.997 L
479.271 123.914 L
479.606 123.832 L
479.942 123.749 L
480.277 123.666 L
480.612 123.584 L
480.948 123.501 L
481.283 123.418 L
481.619 123.336 L
481.954 123.254 L
482.29 123.171 L
482.625 123.089 L
482.96 123.007 L
483.296 122.925 L
483.631 122.843 L
483.967 122.761 L
484.302 122.679 L
484.637 122.597 L
484.973 122.515 L
485.308 122.433 L
485.644 122.351 L
485.979 122.27 L
486.315 122.188 L
486.65 122.107 L
486.985 122.025 L
487.321 121.944 L
487.656 121.862 L
487.992 121.781 L
488.327 121.7 L
488.663 121.619 L
488.998 121.537 L
489.333 121.456 L
489.669 121.375 L
490.004 121.294 L
490.34 121.213 L
490.675 121.133 L
491.01 121.052 L
491.346 120.971 L
491.681 120.89 L
492.017 120.81 L
492.352 120.729 L
492.688 120.649 L
493.023 120.568 L
493.358 120.488 L
493.694 120.408 L
494.029 120.327 L
494.365 120.247 L
494.7 120.167 L
495.035 120.087 L
495.371 120.007 L
495.706 119.927 L
496.042 119.847 L
496.377 119.767 L
496.713 119.687 L
497.048 119.608 L
497.383 119.528 L
497.719 119.448 L
498.054 119.369 L
498.39 119.289 L
498.725 119.21 L
499.06 119.13 L
499.396 119.051 L
499.731 118.972 L
500.067 118.893 L
500.402 118.813 L
500.738 118.734 L
501.073 118.655 L
501.408 118.576 L
501.744 118.497 L
502.079 118.418 L
502.415 118.339 L
502.75 118.261 L
503.085 118.182 L
503.421 118.103 L
503.756 118.025 L
504.092 117.946 L
504.427 117.868 L
504.763 117.789 L
505.098 117.711 L
505.433 117.632 L
505.769 117.554 L
506.104 117.476 L
506.44 117.398 L
506.775 117.32 L
507.11 117.241 L
507.446 117.163 L
507.781 117.085 L
508.117 117.008 L
508.452 116.93 L
508.788 116.852 L
509.123 116.774 L
509.458 116.696 L
509.794 116.619 L
510.129 116.541 L
510.465 116.464 L
510.8 116.386 L
511.135 116.309 L
511.471 116.231 L
511.806 116.154 L
512.142 116.077 L
512.477 116 L
512.813 115.922 L
513.148 115.845 L
513.483 115.768 L
513.819 115.691 L
514.154 115.614 L
514.49 115.537 L
514.825 115.461 L
515.16 115.384 L
515.496 115.307 L
515.831 115.23 L
516.167 115.154 L
516.502 115.077 L
516.838 115.001 L
517.173 114.924 L
517.508 114.848 L
517.844 114.771 L
518.179 114.695 L
518.515 114.619 L
518.85 114.543 L
519.185 114.466 L
519.521 114.39 L
519.856 114.314 L
520.192 114.238 L
520.527 114.162 L
520.862 114.086 L
521.198 114.011 L
521.533 113.935 L
521.869 113.859 L
522.204 113.783 L
522.54 113.708 L
522.875 113.632 L
523.21 113.557 L
523.546 113.481 L
523.881 113.406 L
524.217 113.33 L
524.552 113.255 L
524.888 113.18 L
525.223 113.104 L
525.558 113.029 L
525.894 112.954 L
526.229 112.879 L
526.565 112.804 L
526.9 112.729 L
527.235 112.654 L
527.571 112.579 L
527.906 112.504 L
528.242 112.43 L
528.577 112.355 L
528.912 112.28 L
529.248 112.205 L
529.583 112.131 L
529.919 112.056 L
530.254 111.982 L
530.59 111.907 L
530.925 111.833 L
531.26 111.759 L
531.596 111.684 L
531.931 111.61 L
532.267 111.536 L
532.602 111.462 L
532.938 111.388 L
533.273 111.314 L
533.608 111.24 L
533.944 111.166 L
534.279 111.092 L
534.615 111.018 L
534.95 110.944 L
535.285 110.87 L
535.621 110.797 L
535.956 110.723 L
536.292 110.65 L
536.627 110.576 L
536.963 110.502 L
537.298 110.429 L
537.633 110.356 L
537.969 110.282 L
538.304 110.209 L
538.64 110.136 L
538.975 110.062 L
539.31 109.989 L
539.646 109.916 L
539.981 109.843 L
540.317 109.77 L
540.652 109.697 L
540.987 109.624 L
541.323 109.551 L
541.658 109.478 L
541.994 109.406 L
542.329 109.333 L
542.665 109.26 L
543 109.188 L
543.335 109.115 L
543.671 109.042 L
544.006 108.97 L
544.342 108.897 L
544.677 108.825 L
545.013 108.753 L
545.348 108.68 L
545.683 108.608 L
546.019 108.536 L
546.354 108.464 L
546.69 108.392 L
547.025 108.319 L
547.36 108.247 L
547.696 108.175 L
548.031 108.103 L
548.367 108.032 L
548.702 107.96 L
549.037 107.888 L
549.373 107.816 L
549.708 107.744 L
550.044 107.673 L
550.379 107.601 L
550.715 107.53 L
551.05 107.458 L
551.385 107.387 L
551.721 107.315 L
552.056 107.244 L
552.392 107.172 L
552.727 107.101 L
553.063 107.03 L
553.398 106.959 L
553.733 106.887 L
554.069 106.816 L
554.404 106.745 L
554.74 106.674 L
555.075 106.603 L
555.41 106.532 L
555.746 106.461 L
556.081 106.391 L
556.417 106.32 L
556.752 106.249 L
557.087 106.178 L
557.423 106.108 L
557.758 106.037 L
558.094 105.966 L
558.429 105.896 L
558.765 105.825 L
559.1 105.755 L
559.435 105.684 L
559.771 105.614 L
560.106 105.544 L
560.442 105.473 L
560.777 105.403 L
561.112 105.333 L
561.448 105.263 L
561.783 105.193 L
562.119 105.123 L
562.454 105.053 L
562.79 104.983 L
563.125 104.913 L
563.46 104.843 L
563.796 104.773 L
564.131 104.703 L
564.467 104.634 L
564.802 104.564 L
565.138 104.494 L
565.473 104.425 L
565.808 104.355 L
566.144 104.286 L
566.479 104.216 L
566.815 104.147 L
567.15 104.077 L
567.485 104.008 L
567.821 103.939 L
568.156 103.869 L
568.492 103.8 L
568.827 103.731 L
569.163 103.662 L
569.498 103.593 L
569.833 103.524 L
570.169 103.455 L
570.504 103.386 L
570.84 103.317 L
571.175 103.248 L
571.51 103.179 L
571.846 103.11 L
572.181 103.041 L
572.517 102.973 L
572.852 102.904 L
573.188 102.835 L
573.523 102.767 L
573.858 102.698 L
574.194 102.63 L
574.529 102.561 L
574.865 102.493 L
575.2 102.424 L
575.535 102.356 L
575.871 102.288 L
576.206 102.219 L
576.542 102.151 L
576.877 102.083 L
577.213 102.015 L
577.548 101.947 L
577.883 101.879 L
578.219 101.811 L
578.554 101.743 L
578.89 101.675 L
579.225 101.607 L
579.56 101.539 L
579.896 101.471 L
580.231 101.404 L
580.567 101.336 L
580.902 101.268 L
581.238 101.201 L
581.573 101.133 L
581.908 101.065 L
582.244 100.998 L
582.579 100.93 L
582.915 100.863 L
583.25 100.796 L
583.585 100.728 L
583.921 100.661 L
584.256 100.594 L
584.592 100.526 L
584.927 100.459 L
585.263 100.392 L
585.598 100.325 L
585.933 100.258 L
586.269 100.191 L
586.604 100.124 L
586.94 100.057 L
587.275 99.99 L
587.61 99.923 L
587.946 99.856 L
588.281 99.79 L
588.617 99.723 L
588.952 99.656 L
589.288 99.589 L
589.623 99.523 L
589.958 99.456 L
590.294 99.39 L
590.629 99.323 L
590.965 99.257 L
591.3 99.19 L
591.635 99.124 L
591.971 99.057 L
592.306 98.991 L
592.642 98.925 L
592.977 98.859 L
593.313 98.792 L
593.648 98.726 L
593.983 98.66 L
594.319 98.594 L
594.654 98.528 L
594.99 98.462 L
595.325 98.396 L
595.66 98.33 L
595.996 98.264 L
596.331 98.198 L
596.667 98.133 L
597.002 98.067 L
597.338 98.001 L
597.673 97.935 L
598.008 97.87 L
598.344 97.804 L
598.679 97.739 L
599.015 97.673 L
599.35 97.608 L
599.685 97.542 L
600.021 97.477 L
600.356 97.411 L
600.692 97.346 L
601.027 97.281 L
601.362 97.215 L
601.698 97.15 L
602.033 97.085 L
602.369 97.02 L
602.704 96.955 L
603.04 96.89 L
603.375 96.825 L
603.71 96.759 L
604.046 96.695 L
604.381 96.63 L
604.717 96.565 L
605.052 96.5 L
605.388 96.435 L
605.723 96.37 L
606.058 96.306 L
606.394 96.241 L
606.729 96.176 L
607.065 96.112 L
607.4 96.047 L
607.735 95.982 L
608.071 95.918 L
608.406 95.853 L
608.742 95.789 L
609.077 95.725 L
609.412 95.66 L
609.748 95.596 L
610.083 95.532 L
610.419 95.467 L
610.754 95.403 L
611.09 95.339 L
611.425 95.275 L
611.76 95.211 L
612.096 95.147 L
612.431 95.083 L
612.767 95.019 L
613.102 94.955 L
613.438 94.891 L
613.773 94.827 L
614.108 94.763 L
614.444 94.699 L
614.779 94.635 L
615.115 94.572 L
615.45 94.508 L
615.785 94.444 L
616.121 94.381 L
616.456 94.317 L
616.792 94.253 L
617.127 94.19 L
617.463 94.126 L
617.798 94.063 L
618.133 93.999 L
618.469 93.936 L
618.804 93.873 L
619.14 93.809 L
619.475 93.746 L
619.81 93.683 L
620.146 93.62 L
620.481 93.557 L
620.817 93.493 L
621.152 93.43 L
621.487 93.367 L
621.823 93.304 L
622.158 93.241 L
622.494 93.178 L
622.829 93.115 L
623.165 93.052 L
623.5 92.99 L
623.835 92.927 L
624.171 92.864 L
624.506 92.801 L
624.842 92.739 L
625.177 92.676 L
625.513 92.613 L
625.848 92.551 L
626.183 92.488 L
626.519 92.426 L
626.854 92.363 L
627.19 92.301 L
627.525 92.238 L
627.86 92.176 L
628.196 92.113 L
628.531 92.051 L
628.867 91.989 L
629.202 91.927 L
629.537 91.864 L
629.873 91.802 L
630.208 91.74 L
630.544 91.678 L
630.879 91.616 L
631.215 91.554 L
631.55 91.492 L
631.885 91.43 L
632.221 91.368 L
632.556 91.306 L
632.892 91.244 L
633.227 91.182 L
633.563 91.12 L
633.898 91.059 L
634.233 90.997 L
634.569 90.935 L
634.904 90.873 L
635.24 90.812 L
635.575 90.75 L
635.91 90.689 L
636.246 90.627 L
636.581 90.566 L
636.917 90.504 L
637.252 90.443 L
637.587 90.381 L
637.923 90.32 L
638.258 90.259 L
638.594 90.197 L
638.929 90.136 L
639.265 90.075 L
639.6 90.014 L
639.935 89.952 L
640.271 89.891 L
640.606 89.83 L
640.942 89.769 L
641.277 89.708 L
641.612 89.647 L
641.948 89.586 L
642.283 89.525 L
642.619 89.464 L
642.954 89.403 L
643.29 89.343 L
643.625 89.282 L
643.96 89.221 L
644.296 89.16 L
644.631 89.1 L
644.967 89.039 L
645.302 88.978 L
645.637 88.918 L
645.973 88.857 L
646.308 88.797 L
646.644 88.736 L
646.979 88.676 L
647.315 88.615 L
647.65 88.555 L
647.985 88.494 L
648.321 88.434 L
648.656 88.374 L
648.992 88.314 L
649.327 88.253 L
649.662 88.193 L
649.998 88.133 L
650.333 88.073 L
650.669 88.013 L
651.004 87.953 L
651.34 87.893 L
651.675 87.832 L
652.01 87.773 L
652.346 87.713 L
652.681 87.653 L
653.017 87.593 L
653.352 87.533 L
653.688 87.473 L
654.023 87.413 L
654.358 87.354 L
654.694 87.294 L
655.029 87.234 L
655.365 87.174 L
655.7 87.115 L
656.035 87.055 L
656.371 86.996 L
656.706 86.936 L
657.042 86.877 L
657.377 86.817 L
657.712 86.758 L
658.048 86.698 L
658.383 86.639 L
658.719 86.58 L
659.054 86.52 L
659.39 86.461 L
659.725 86.402 L
660.06 86.342 L
660.396 86.283 L
660.731 86.224 L
661.067 86.165 L
661.402 86.106 L
661.737 86.047 L
662.073 85.988 L
662.408 85.929 L
662.744 85.87 L
663.079 85.811 L
663.415 85.752 L
663.75 85.693 L
664.085 85.634 L
664.421 85.575 L
664.756 85.517 L
665.092 85.458 L
665.427 85.399 L
665.763 85.34 L
666.098 85.282 L
666.433 85.223 L
666.769 85.165 L
667.104 85.106 L
667.44 85.047 L
667.775 84.989 L
668.11 84.93 L
668.446 84.872 L
668.781 84.814 L
669.117 84.755 L
669.452 84.697 L
669.788 84.639 L
670.123 84.58 L
670.458 84.522 L
670.794 84.464 L
671.129 84.406 L
671.465 84.347 L
671.8 84.289 L
672.135 84.231 L
672.471 84.173 L
672.806 84.115 L
673.142 84.057 L
673.477 83.999 L
673.813 83.941 L
674.148 83.883 L
674.483 83.825 L
674.819 83.767 L
675.154 83.709 L
675.49 83.652 L
675.825 83.594 L
676.16 83.536 L
676.496 83.478 L
676.831 83.421 L
677.167 83.363 L
677.502 83.305 L
677.838 83.248 L
678.173 83.19 L
678.508 83.133 L
678.844 83.075 L
679.179 83.018 L
679.515 82.96 L
679.85 82.903 L
680.185 82.845 L
680.521 82.788 L
680.856 82.731 L
681.192 82.673 L
681.527 82.616 L
681.863 82.559 L
682.198 82.502 L
682.533 82.444 L
682.869 82.387 L
683.204 82.33 L
683.54 82.273 L
683.875 82.216 L
684.21 82.159 L
684.546 82.102 L
684.881 82.045 L
685.217 81.988 L
685.552 81.931 L
685.888 81.874 L
686.223 81.817 L
686.558 81.76 L
686.894 81.704 L
687.229 81.647 L
687.565 81.59 L
687.9 81.533 L
688.235 81.477 L
688.571 81.42 L
688.906 81.363 L
689.242 81.307 L
689.577 81.25 L
689.913 81.193 L
690.248 81.137 L
690.583 81.08 L
690.919 81.024 L
691.254 80.968 L
691.59 80.911 L
691.925 80.855 L
692.26 80.798 L
692.596 80.742 L
692.931 80.686 L
693.267 80.63 L
693.602 80.573 L
693.938 80.517 L
694.273 80.461 L
694.608 80.405 L
694.944 80.349 L
695.279 80.292 L
695.615 80.236 L
695.95 80.18 L
696.285 80.124 L
696.621 80.068 L
696.956 80.012 L
697.292 79.956 L
697.627 79.901 L
697.963 79.845 L
698.298 79.789 L
698.633 79.733 L
698.969 79.677 L
699.304 79.621 L
699.64 79.566 L
699.975 79.51 L
700.31 79.454 L
700.646 79.399 L
700.981 79.343 L
701.317 79.287 L
701.652 79.232 L
701.987 79.176 L
702.323 79.121 L
702.658 79.065 L
702.994 79.01 L
703.329 78.954 L
703.665 78.899 L
704 78.844 L
704.335 78.788 L
704.671 78.733 L
705.006 78.678 L
705.342 78.622 L
705.677 78.567 L
706.013 78.512 L
706.348 78.457 L
706.683 78.402 L
707.019 78.346 L
707.354 78.291 L
707.69 78.236 L
708.025 78.181 L
708.36 78.126 L
708.696 78.071 L
709.031 78.016 L
709.367 77.961 L
709.702 77.906 L
710.037 77.851 L
710.373 77.797 L
710.708 77.742 L
711.044 77.687 L
711.379 77.632 L
711.715 77.577 L
712.05 77.523 L
712.385 77.468 L
712.721 77.413 L
713.056 77.359 L
713.392 77.304 L
713.727 77.249 L
714.063 77.195 L
714.398 77.14 L
714.733 77.086 L
715.069 77.031 L
715.404 76.977 L
715.74 76.922 L
716.075 76.868 L
716.41 76.814 L
716.746 76.759 L
717.081 76.705 L
717.417 76.651 L
717.752 76.596 L
718.088 76.542 L
718.423 76.488 L
718.758 76.434 L
719.094 76.379 L
719.429 76.325 L
719.765 76.271 L
720.1 76.217 L
720.435 76.163 L
720.771 76.109 L
721.106 76.055 L
721.442 76.001 L
721.777 75.947 L
722.112 75.893 L
722.448 75.839 L
722.783 75.785 L
723.119 75.731 L
723.454 75.678 L
723.79 75.624 L
724.125 75.57 L
724.46 75.516 L
724.796 75.463 L
725.131 75.409 L
725.467 75.355 L
725.802 75.301 L
726.138 75.248 L
726.473 75.194 L
726.808 75.141 L
727.144 75.087 L
727.479 75.034 L
727.815 74.98 L
728.15 74.927 L
728.485 74.873 L
728.821 74.82 L
729.156 74.766 L
729.492 74.713 L
729.827 74.66 L
730.162 74.606 L
730.498 74.553 L
730.833 74.5 L
731.169 74.447 L
731.504 74.393 L
731.84 74.34 L
732.175 74.287 L
732.51 74.234 L
732.846 74.181 L
733.181 74.128 L
733.517 74.074 L
733.852 74.021 L
734.188 73.968 L
734.523 73.915 L
734.858 73.862 L
735.194 73.81 L
735.529 73.757 L
735.865 73.704 L
736.2 73.651 L
736.535 73.598 L
736.871 73.545 L
737.206 73.492 L
737.542 73.44 L
737.877 73.387 L
738.212 73.334 L
738.548 73.281 L
738.883 73.229 L
739.219 73.176 L
739.554 73.124 L
739.89 73.071 L
740.225 73.018 L
740.56 72.966 L
740.896 72.913 L
741.231 72.861 L
741.567 72.808 L
741.902 72.756 L
742.237 72.703 L
742.573 72.651 L
742.908 72.599 L
743.244 72.546 L
743.579 72.494 L
743.915 72.442 L
744.25 72.389 L
744.585 72.337 L
744.921 72.285 L
745.256 72.233 L
745.592 72.181 L
745.927 72.128 L
746.262 72.076 L
746.598 72.024 L
746.933 71.972 L
747.269 71.92 L
747.604 71.868 L
747.94 71.816 L
748.275 71.764 L
748.61 71.712 L
748.946 71.66 L
749.281 71.608 L
749.617 71.556 L
749.952 71.505 L
750.287 71.453 L
750.623 71.401 L
750.958 71.349 L
751.294 71.297 L
751.629 71.246 L
751.965 71.194 L
752.3 71.142 L
752.635 71.09 L
752.971 71.039 L
753.306 70.987 L
753.642 70.936 L
753.977 70.884 L
754.313 70.833 L
754.648 70.781 L
754.983 70.729 L
755.319 70.678 L
755.654 70.627 L
755.99 70.575 L
756.325 70.524 L
756.66 70.472 L
756.996 70.421 L
757.331 70.37 L
757.667 70.318 L
758.002 70.267 L
758.337 70.216 L
758.673 70.165 L
759.008 70.113 L
759.344 70.062 L
759.679 70.011 L
760.015 69.96 L
760.35 69.909 L
760.685 69.858 L
761.021 69.806 L
761.356 69.755 L
761.692 69.704 L
762.027 69.653 L
762.362 69.602 L
762.698 69.551 L
763.033 69.5 L
763.369 69.45 L
763.704 69.399 L
764.04 69.348 L
764.375 69.297 L
764.71 69.246 L
765.046 69.195 L
765.381 69.145 L
765.717 69.094 L
766.052 69.043 L
766.388 68.992 L
766.723 68.942 L
767.058 68.891 L
767.394 68.84 L
767.729 68.79 L
768.065 68.739 L
768.4 68.689 L
768.735 68.638 L
769.071 68.587 L
769.406 68.537 L
769.742 68.486 L
770.077 68.436 L
770.413 68.386 L
770.748 68.335 L
771.083 68.285 L
771.419 68.234 L
771.754 68.184 L
772.09 68.134 L
772.425 68.083 L
772.76 68.033 L
773.096 67.983 L
773.431 67.933 L
773.767 67.882 L
774.102 67.832 L
774.438 67.782 L
774.773 67.732 L
775.108 67.682 L
775.444 67.632 L
775.779 67.582 L
776.115 67.532 L
776.45 67.482 L
776.785 67.432 L
777.121 67.382 L
777.456 67.332 L
777.792 67.282 L
778.127 67.232 L
778.463 67.182 L
778.798 67.132 L
779.133 67.082 L
779.469 67.032 L
779.804 66.983 L
780.14 66.933 L
780.475 66.883 L
780.81 66.833 L
781.146 66.784 L
781.481 66.734 L
781.817 66.684 L
782.152 66.635 L
782.488 66.585 L
782.823 66.535 L
783.158 66.486 L
783.494 66.436 L
783.829 66.387 L
784.165 66.337 L
784.5 66.288 L
784.835 66.238 L
785.171 66.189 L
785.506 66.139 L
785.842 66.09 L
786.177 66.04 L
786.513 65.991 L
786.848 65.942 L
787.183 65.892 L
787.519 65.843 L
787.854 65.794 L
788.19 65.745 L
788.525 65.695 L
788.86 65.646 L
789.196 65.597 L
789.531 65.548 L
789.867 65.499 L
790.202 65.449 L
790.538 65.4 L
790.873 65.351 L
791.208 65.302 L
791.544 65.253 L
791.879 65.204 L
792.215 65.155 L
792.55 65.106 L
792.885 65.057 L
793.221 65.008 L
793.556 64.959 L
793.892 64.91 L
794.227 64.862 L
794.563 64.813 L
794.898 64.764 L
795.233 64.715 L
795.569 64.666 L
795.904 64.618 L
796.24 64.569 L
796.575 64.52 L
796.91 64.471 L
797.246 64.423 L
797.581 64.374 L
797.917 64.325 L
798.252 64.277 L
798.588 64.228 L
798.923 64.18 L
799.258 64.131 L
799.594 64.083 L
799.929 64.034 L
800.265 63.986 L
800.6 63.937 L
800.935 63.889 L
801.271 63.84 L
801.606 63.792 L
801.942 63.743 L
802.277 63.695 L
802.612 63.647 L
802.948 63.598 L
803.283 63.55 L
803.619 63.502 L
803.954 63.454 L
804.29 63.405 L
804.625 63.357 L
804.96 63.309 L
805.296 63.261 L
805.631 63.213 L
805.967 63.164 L
806.302 63.116 L
806.638 63.068 L
806.973 63.02 L
807.308 62.972 L
807.644 62.924 L
807.979 62.876 L
808.315 62.828 L
808.65 62.78 L
808.985 62.732 L
809.321 62.684 L
809.656 62.636 L
809.992 62.588 L
810.327 62.541 L
810.662 62.493 L
810.998 62.445 L
811.333 62.397 L
811.669 62.349 L
812.004 62.302 L
812.34 62.254 L
812.675 62.206 L
813.01 62.158 L
813.346 62.111 L
813.681 62.063 L
814.017 62.015 L
814.352 61.968 L
814.688 61.92 L
815.023 61.873 L
815.358 61.825 L
815.694 61.777 L
816.029 61.73 L
816.365 61.682 L
816.7 61.635 L
817.035 61.588 L
817.371 61.54 L
817.706 61.493 L
818.042 61.445 L
818.377 61.398 L
818.713 61.351 L
819.048 61.303 L
819.383 61.256 L
819.719 61.209 L
820.054 61.161 L
820.39 61.114 L
820.725 61.067 L
821.06 61.02 L
821.396 60.972 L
821.731 60.925 L
822.067 60.878 L
822.402 60.831 L
822.737 60.784 L
823.073 60.737 L
823.408 60.69 L
823.744 60.643 L
824.079 60.595 L
824.415 60.548 L
824.75 60.501 L
825.085 60.454 L
825.421 60.408 L
825.756 60.361 L
826.092 60.314 L
826.427 60.267 L
826.763 60.22 L
827.098 60.173 L
827.433 60.126 L
827.769 60.079 L
828.104 60.033 L
828.44 59.986 L
828.775 59.939 L
829.11 59.892 L
829.446 59.845 L
829.781 59.799 L
830.117 59.752 L
830.452 59.705 L
830.787 59.659 L
831.123 59.612 L
831.458 59.566 L
831.794 59.519 L
832.129 59.472 L
832.465 59.426 L
832.8 59.379 L
833.135 59.333 L
833.471 59.286 L
833.806 59.24 L
834.142 59.193 L
834.477 59.147 L
834.813 59.101 L
835.148 59.054 L
835.483 59.008 L
835.819 58.961 L
836.154 58.915 L
836.49 58.869 L
836.825 58.822 L
837.16 58.776 L
837.496 58.73 L
837.831 58.684 L
838.167 58.637 L
838.502 58.591 L
838.837 58.545 L
839.173 58.499 L
839.508 58.453 L
839.844 58.407 L
840.179 58.36 L
840.515 58.314 L
840.85 58.268 L
841.185 58.222 L
841.521 58.176 L
841.856 58.13 L
842.192 58.084 L
842.527 58.038 L
842.862 57.992 L
843.198 57.946 L
843.533 57.9 L
843.869 57.854 L
844.204 57.809 L
844.54 57.763 L
844.875 57.717 L
845.21 57.671 L
845.546 57.625 L
845.881 57.579 L
846.217 57.534 L
846.552 57.488 L
846.887 57.442 L
847.223 57.397 L
847.558 57.351 L
847.894 57.305 L
848.229 57.259 L
848.565 57.214 L
848.9 57.168 L
849.235 57.123 L
849.571 57.077 L
849.906 57.031 L
850.242 56.986 L
850.577 56.94 L
850.912 56.895 L
851.248 56.849 L
851.583 56.804 L
851.919 56.758 L
852.254 56.713 L
852.59 56.668 L
852.925 56.622 L
853.26 56.577 L
853.596 56.531 L
853.931 56.486 L
854.267 56.441 L
854.602 56.395 L
854.938 56.35 L
855.273 56.305 L
855.608 56.26 L
855.944 56.214 L
856.279 56.169 L
856.615 56.124 L
856.95 56.079 L
857.285 56.034 L
857.621 55.989 L
857.956 55.943 L
858.292 55.898 L
858.627 55.853 L
858.962 55.808 L
859.298 55.763 L
859.633 55.718 L
859.969 55.673 L
860.304 55.628 L
860.64 55.583 L
860.975 55.538 L
861.31 55.493 L
861.646 55.448 L
861.981 55.403 L
862.317 55.358 L
862.652 55.314 L
862.987 55.269 L
863.323 55.224 L
863.658 55.179 L
863.994 55.134 L
864.329 55.09 L
864.665 55.045 L
865 55 L
S
GR
GS
[0.6 0 0 0.60032 56.125 202.24532] CT
N
0.556 0 M
0.556 0.307 0.307 0.556 0 0.556 C
-0.307 0.556 -0.556 0.307 -0.556 0 C
-0.556 -0.307 -0.307 -0.556 0 -0.556 C
0.307 -0.556 0.556 -0.307 0.556 0 C
cp
f
GR
GS
[0.6 0 0 0.60032 0 -0.35001] CT
1 LJ
3.333 LW
N
93.542 415 M
93.542 337.478 L
S
GR
GS
[0.6 0 0 0.60032 76.25 175.02236] CT
N
/f1681404848{0.556 0 M
0.556 0.307 0.307 0.556 0 0.556 C
-0.307 0.556 -0.556 0.307 -0.556 0 C
-0.556 -0.307 -0.307 -0.556 0 -0.556 C
0.307 -0.556 0.556 -0.307 0.556 0 C
cp}def
f1681404848
f
GR
GS
[0.6 0 0 0.60032 0 -0.35001] CT
1 LJ
3.333 LW
N
127.083 415 M
127.083 292.131 L
S
GR
GS
[0.6 0 0 0.60032 96.375 155.70737] CT
N
f1681404848
f
GR
GS
[0.6 0 0 0.60032 0 -0.35001] CT
1 LJ
3.333 LW
N
160.625 415 M
160.625 259.956 L
S
GR
GS
[0.6 0 0 0.60032 498.87499 35.40845] CT
N
f1681404848
f
GR
GS
[0.6 0 0 0.60032 0 -0.35001] CT
1 LJ
3.333 LW
N
831.458 415 M
831.458 59.566 L
S
GR
GS
[0 -0.60032 0.6 0 58.2 195.35471] CT
N
0.922 0 M
0.781 0 0.781 -0.141 QT
0.781 -0.156 0.789 -0.164 QT
0.797 -0.172 0.797 -0.188 QT
6.656 -11.984 L
6.719 -12.172 6.953 -12.172 QT
7.188 -12.172 L
8.422 -12.172 8.5 -11.984 QT
14.344 -0.188 L
14.359 -0.172 14.359 -0.164 QT
14.359 -0.156 14.359 -0.141 QT
14.359 0 13.219 0 QT
0.922 0 L
cp
3.047 -1.359 M
11 -1.359 L
6.922 -9.578 L
3.047 -1.359 L
cp
f
GR
GS
[0 -0.60032 0.6 0 58.2 186.34989] CT
/Helvetica-Bold 16.667 F
GS
[1 0 0 1 0 0] CT
0 0 moveto 
1 -1 scale
(V) t 
GR
GR
GS
[0 -0.60032 0.6 0 63 179.14604] CT
/Helvetica-Bold 13.333 F
GS
[1 0 0 1 0 0] CT
0 0 moveto 
1 -1 scale
(1) t 
GR
GR
GS
[0 -0.60032 0.6 0 78 168.34025] CT
N
/f292158292{0.922 0 M
0.781 0 0.781 -0.141 QT
0.781 -0.156 0.789 -0.164 QT
0.797 -0.172 0.797 -0.188 QT
6.656 -11.984 L
6.719 -12.172 6.953 -12.172 QT
7.188 -12.172 L
8.422 -12.172 8.5 -11.984 QT
14.344 -0.188 L
14.359 -0.172 14.359 -0.164 QT
14.359 -0.156 14.359 -0.141 QT
14.359 0 13.219 0 QT
0.922 0 L
cp
3.047 -1.359 M
11 -1.359 L
6.922 -9.578 L
3.047 -1.359 L
cp}def
f292158292
f
GR
GS
[0 -0.60032 0.6 0 78 159.33544] CT
/Helvetica-Bold 16.667 F
GS
[1 0 0 1 0 0] CT
0 0 moveto 
1 -1 scale
(V) t 
GR
GR
GS
[0 -0.60032 0.6 0 82.8 152.13158] CT
/Helvetica-Bold 13.333 F
GS
[1 0 0 1 0 0] CT
0 0 moveto 
1 -1 scale
(2) t 
GR
GR
GS
[0 -0.60032 0.6 0 98.4 149.12998] CT
N
f292158292
f
GR
GS
[0 -0.60032 0.6 0 98.4 140.12516] CT
/Helvetica-Bold 16.667 F
GS
[1 0 0 1 0 0] CT
0 0 moveto 
1 -1 scale
(V) t 
GR
GR
GS
[0 -0.60032 0.6 0 103.2 132.9213] CT
/Helvetica-Bold 13.333 F
GS
[1 0 0 1 0 0] CT
0 0 moveto 
1 -1 scale
(3) t 
GR
GR
GS
[0 -0.60032 0.6 0 480.6 168.34025] CT
N
f292158292
f
GR
GS
[0 -0.60032 0.6 0 480.6 159.33544] CT
/Helvetica-Bold 16.667 F
GS
[1 0 0 1 0 0] CT
0 0 moveto 
1 -1 scale
(V) t 
GR
GR
GS
[0 -0.60032 0.6 0 485.4 152.13158] CT
/Helvetica-Bold 13.333 F
GS
[1 0 0 1 0 0] CT
0 0 moveto 
1 -1 scale
(Total) t 
GR
GR
GS
[0.6 0 0 0.60032 0 -0.35001] CT
1 GC
N
362.739 180.023 M
542.402 131.882 L
531.272 90.348 L
351.61 138.488 L
cp
f
GR
GS
[0.57956 -0.15537 0.15529 0.57987 218.4 97.50235] CT
/Helvetica 16.667 F
GS
[1 0 0 1 0 0] CT
0 0 moveto 
1 -1 scale
(v) t 
GR
GR
GS
[0.57956 -0.15537 0.15529 0.57987 225 100.50396] CT
/Helvetica 13.333 F
GS
[1 0 0 1 0 0] CT
0 0 moveto 
1 -1 scale
(e) t 
GR
GR
GS
[0.57956 -0.15537 0.15529 0.57987 222.6 91.49914] CT
/Helvetica 13.333 F
GS
[1 0 0 1 0 0] CT
0 0 moveto 
1 -1 scale
(\(1\)) t 
GR
GR
GS
[0.57956 -0.15537 0.15529 0.57987 233.4 93.3001] CT
/Helvetica 16.667 F
GS
[1 0 0 1 0 0] CT
0 0 moveto 
1 -1 scale
( = v) t 
GR
GR
GS
[0.57956 -0.15537 0.15529 0.57987 250.8 93.90042] CT
/Helvetica 13.333 F
GS
[1 0 0 1 0 0] CT
0 0 moveto 
1 -1 scale
(e) t 
GR
GR
GS
[0.57956 -0.15537 0.15529 0.57987 248.4 84.29528] CT
/Helvetica 13.333 F
GS
[1 0 0 1 0 0] CT
0 0 moveto 
1 -1 scale
(\(2\)) t 
GR
GR
GS
[0.57956 -0.15537 0.15529 0.57987 259.8 86.69657] CT
/Helvetica 16.667 F
GS
[1 0 0 1 0 0] CT
0 0 moveto 
1 -1 scale
( = v) t 
GR
GR
GS
[0.57956 -0.15537 0.15529 0.57987 277.2 86.69657] CT
/Helvetica 13.333 F
GS
[1 0 0 1 0 0] CT
0 0 moveto 
1 -1 scale
(e) t 
GR
GR
GS
[0.57956 -0.15537 0.15529 0.57987 274.8 77.69175] CT
/Helvetica 13.333 F
GS
[1 0 0 1 0 0] CT
0 0 moveto 
1 -1 scale
(\(3\)) t 
GR
GR
GS
[0.57956 -0.15537 0.15529 0.57987 285.6 79.49272] CT
/Helvetica 16.667 F
GS
[1 0 0 1 0 0] CT
0 0 moveto 
1 -1 scale
( = 1 v.u.) t 
GR
GR
GS
[0.6 0 0 0.60032 0 -0.35001] CT
1 GC
N
350 280.8 M
350 325.348 L
626 325.348 L
626 280.8 L
cp
f
GR
GS
[0.6 0 0 0.60032 0 -0.35001] CT
10.0 ML
0.833 LW
N
350 325.348 M
350 280.8 L
626 280.8 L
626 325.348 L
cp
S
GR
GS
[0.6 0 0 0.60032 214.8 182.74796] CT
N
/f-558051528{0.969 0 M
0.828 0 0.828 -0.141 QT
0.828 -0.156 0.836 -0.164 QT
0.844 -0.172 0.844 -0.203 QT
7.047 -12.688 L
7.125 -12.891 7.359 -12.891 QT
7.609 -12.891 L
8.859 -12.891 8.938 -12.688 QT
15.141 -0.203 L
15.141 -0.188 15.148 -0.172 QT
15.156 -0.156 15.156 -0.141 QT
15.156 0 14 0 QT
0.969 0 L
cp
3.156 -1.438 M
11.641 -1.438 L
7.297 -10.188 L
3.156 -1.438 L
cp}def
f-558051528
f
GR
GS
[0.6 0 0 0.60032 225 182.74796] CT
/Helvetica-Bold 18.333 F
GS
[1 0 0 1 0 0] CT
0 0 moveto 
1 -1 scale
(V) t 
GR
GR
GS
[0.6 0 0 0.60032 232.8 188.15085] CT
/Helvetica-Bold 14.667 F
GS
[1 0 0 1 0 0] CT
0 0 moveto 
1 -1 scale
(1) t 
GR
GR
GS
[0.6 0 0 0.60032 238.2 182.74796] CT
/Helvetica-Bold 18.333 F
GS
[1 0 0 1 0 0] CT
0 0 moveto 
1 -1 scale
( + ) t 
GR
GR
GS
[0.6 0 0 0.60032 250.8 182.74796] CT
N
f-558051528
f
GR
GS
[0.6 0 0 0.60032 261 182.74796] CT
/Helvetica-Bold 18.333 F
GS
[1 0 0 1 0 0] CT
0 0 moveto 
1 -1 scale
(V) t 
GR
GR
GS
[0.6 0 0 0.60032 268.8 188.15085] CT
/Helvetica-Bold 14.667 F
GS
[1 0 0 1 0 0] CT
0 0 moveto 
1 -1 scale
(2) t 
GR
GR
GS
[0.6 0 0 0.60032 274.2 182.74796] CT
/Helvetica-Bold 18.333 F
GS
[1 0 0 1 0 0] CT
0 0 moveto 
1 -1 scale
( + ) t 
GR
GR
GS
[0.6 0 0 0.60032 286.8 182.74796] CT
N
f-558051528
f
GR
GS
[0.6 0 0 0.60032 297 182.74796] CT
/Helvetica-Bold 18.333 F
GS
[1 0 0 1 0 0] CT
0 0 moveto 
1 -1 scale
(V) t 
GR
GR
GS
[0.6 0 0 0.60032 304.8 188.15085] CT
/Helvetica-Bold 14.667 F
GS
[1 0 0 1 0 0] CT
0 0 moveto 
1 -1 scale
(3) t 
GR
GR
GS
[0.6 0 0 0.60032 310.2 182.74796] CT
/Helvetica-Bold 18.333 F
GS
[1 0 0 1 0 0] CT
0 0 moveto 
1 -1 scale
( = ) t 
GR
GR
GS
[0.6 0 0 0.60032 322.8 182.74796] CT
N
f-558051528
f
GR
GS
[0.6 0 0 0.60032 333 182.74796] CT
/Helvetica-Bold 18.333 F
GS
[1 0 0 1 0 0] CT
0 0 moveto 
1 -1 scale
(V) t 
GR
GR
GS
[0.6 0 0 0.60032 340.8 188.15085] CT
/Helvetica-Bold 14.667 F
GS
[1 0 0 1 0 0] CT
0 0 moveto 
1 -1 scale
(Total) t 
GR
GR
%%Trailer
%%Pages: 1
%%EOF
