%!PS-Adobe-3.0 EPSF-3.0
%%Creator: (MATLAB, The Mathworks, Inc. Version 9.6.0.1072779 \(R2019a\). Operating System: Windows 10)
%%Title: ./ComparisonNodeDistribution.eps
%%CreationDate: 2020-05-15T13:01:08
%%Pages: (atend)
%%BoundingBox:     4     0   497   176
%%LanguageLevel: 3
%%EndComments
%%BeginProlog
%%BeginResource: procset (Apache XML Graphics Std ProcSet) 1.2 0
%%Version: 1.2 0
%%Copyright: (Copyright 2001-2003,2010 The Apache Software Foundation. License terms: http://www.apache.org/licenses/LICENSE-2.0)
/bd{bind def}bind def
/ld{load def}bd
/GR/grestore ld
/GS/gsave ld
/RM/rmoveto ld
/C/curveto ld
/t/show ld
/L/lineto ld
/ML/setmiterlimit ld
/CT/concat ld
/f/fill ld
/N/newpath ld
/S/stroke ld
/CC/setcmykcolor ld
/A/ashow ld
/cp/closepath ld
/RC/setrgbcolor ld
/LJ/setlinejoin ld
/GC/setgray ld
/LW/setlinewidth ld
/M/moveto ld
/re {4 2 roll M
1 index 0 rlineto
0 exch rlineto
neg 0 rlineto
cp } bd
/_ctm matrix def
/_tm matrix def
/BT { _ctm currentmatrix pop matrix _tm copy pop 0 0 moveto } bd
/ET { _ctm setmatrix } bd
/iTm { _ctm setmatrix _tm concat } bd
/Tm { _tm astore pop iTm 0 0 moveto } bd
/ux 0.0 def
/uy 0.0 def
/F {
  /Tp exch def
  /Tf exch def
  Tf findfont Tp scalefont setfont
  /cf Tf def  /cs Tp def
} bd
/ULS {currentpoint /uy exch def /ux exch def} bd
/ULE {
  /Tcx currentpoint pop def
  gsave
  newpath
  cf findfont cs scalefont dup
  /FontMatrix get 0 get /Ts exch def /FontInfo get dup
  /UnderlinePosition get Ts mul /To exch def
  /UnderlineThickness get Ts mul /Tt exch def
  ux uy To add moveto  Tcx uy To add lineto
  Tt setlinewidth stroke
  grestore
} bd
/OLE {
  /Tcx currentpoint pop def
  gsave
  newpath
  cf findfont cs scalefont dup
  /FontMatrix get 0 get /Ts exch def /FontInfo get dup
  /UnderlinePosition get Ts mul /To exch def
  /UnderlineThickness get Ts mul /Tt exch def
  ux uy To add cs add moveto Tcx uy To add cs add lineto
  Tt setlinewidth stroke
  grestore
} bd
/SOE {
  /Tcx currentpoint pop def
  gsave
  newpath
  cf findfont cs scalefont dup
  /FontMatrix get 0 get /Ts exch def /FontInfo get dup
  /UnderlinePosition get Ts mul /To exch def
  /UnderlineThickness get Ts mul /Tt exch def
  ux uy To add cs 10 mul 26 idiv add moveto Tcx uy To add cs 10 mul 26 idiv add lineto
  Tt setlinewidth stroke
  grestore
} bd
/QT {
/Y22 exch store
/X22 exch store
/Y21 exch store
/X21 exch store
currentpoint
/Y21 load 2 mul add 3 div exch
/X21 load 2 mul add 3 div exch
/X21 load 2 mul /X22 load add 3 div
/Y21 load 2 mul /Y22 load add 3 div
/X22 load /Y22 load curveto
} bd
/SSPD {
dup length /d exch dict def
{
/v exch def
/k exch def
currentpagedevice k known {
/cpdv currentpagedevice k get def
v cpdv ne {
/upd false def
/nullv v type /nulltype eq def
/nullcpdv cpdv type /nulltype eq def
nullv nullcpdv or
{
/upd true def
} {
/sametype v type cpdv type eq def
sametype {
v type /arraytype eq {
/vlen v length def
/cpdvlen cpdv length def
vlen cpdvlen eq {
0 1 vlen 1 sub {
/i exch def
/obj v i get def
/cpdobj cpdv i get def
obj cpdobj ne {
/upd true def
exit
} if
} for
} {
/upd true def
} ifelse
} {
v type /dicttype eq {
v {
/dv exch def
/dk exch def
/cpddv cpdv dk get def
dv cpddv ne {
/upd true def
exit
} if
} forall
} {
/upd true def
} ifelse
} ifelse
} if
} ifelse
upd true eq {
d k v put
} if
} if
} if
} forall
d length 0 gt {
d setpagedevice
} if
} bd
/RE { % /NewFontName [NewEncodingArray] /FontName RE -
  findfont dup length dict begin
  {
    1 index /FID ne
    {def} {pop pop} ifelse
  } forall
  /Encoding exch def
  /FontName 1 index def
  currentdict definefont pop
  end
} bind def
%%EndResource
%%BeginResource: procset (Apache XML Graphics EPS ProcSet) 1.0 0
%%Version: 1.0 0
%%Copyright: (Copyright 2002-2003 The Apache Software Foundation. License terms: http://www.apache.org/licenses/LICENSE-2.0)
/BeginEPSF { %def
/b4_Inc_state save def         % Save state for cleanup
/dict_count countdictstack def % Count objects on dict stack
/op_count count 1 sub def      % Count objects on operand stack
userdict begin                 % Push userdict on dict stack
/showpage { } def              % Redefine showpage, { } = null proc
0 setgray 0 setlinecap         % Prepare graphics state
1 setlinewidth 0 setlinejoin
10 setmiterlimit [ ] 0 setdash newpath
/languagelevel where           % If level not equal to 1 then
{pop languagelevel             % set strokeadjust and
1 ne                           % overprint to their defaults.
{false setstrokeadjust false setoverprint
} if
} if
} bd
/EndEPSF { %def
count op_count sub {pop} repeat            % Clean up stacks
countdictstack dict_count sub {end} repeat
b4_Inc_state restore
} bd
%%EndResource
%FOPBeginFontDict
%%IncludeResource: font Courier-Oblique
%%IncludeResource: font Courier-BoldOblique
%%IncludeResource: font Courier-Bold
%%IncludeResource: font ZapfDingbats
%%IncludeResource: font Symbol
%%IncludeResource: font Helvetica
%%IncludeResource: font Helvetica-Oblique
%%IncludeResource: font Helvetica-Bold
%%IncludeResource: font Helvetica-BoldOblique
%%IncludeResource: font Times-Roman
%%IncludeResource: font Times-Italic
%%IncludeResource: font Times-Bold
%%IncludeResource: font Times-BoldItalic
%%IncludeResource: font Courier
%FOPEndFontDict
%%BeginResource: encoding WinAnsiEncoding
/WinAnsiEncoding [
/.notdef /.notdef /.notdef /.notdef /.notdef
/.notdef /.notdef /.notdef /.notdef /.notdef
/.notdef /.notdef /.notdef /.notdef /.notdef
/.notdef /.notdef /.notdef /.notdef /.notdef
/.notdef /.notdef /.notdef /.notdef /.notdef
/.notdef /.notdef /.notdef /.notdef /.notdef
/.notdef /.notdef /space /exclam /quotedbl
/numbersign /dollar /percent /ampersand /quotesingle
/parenleft /parenright /asterisk /plus /comma
/hyphen /period /slash /zero /one
/two /three /four /five /six
/seven /eight /nine /colon /semicolon
/less /equal /greater /question /at
/A /B /C /D /E
/F /G /H /I /J
/K /L /M /N /O
/P /Q /R /S /T
/U /V /W /X /Y
/Z /bracketleft /backslash /bracketright /asciicircum
/underscore /quoteleft /a /b /c
/d /e /f /g /h
/i /j /k /l /m
/n /o /p /q /r
/s /t /u /v /w
/x /y /z /braceleft /bar
/braceright /asciitilde /bullet /Euro /bullet
/quotesinglbase /florin /quotedblbase /ellipsis /dagger
/daggerdbl /circumflex /perthousand /Scaron /guilsinglleft
/OE /bullet /Zcaron /bullet /bullet
/quoteleft /quoteright /quotedblleft /quotedblright /bullet
/endash /emdash /asciitilde /trademark /scaron
/guilsinglright /oe /bullet /zcaron /Ydieresis
/space /exclamdown /cent /sterling /currency
/yen /brokenbar /section /dieresis /copyright
/ordfeminine /guillemotleft /logicalnot /sfthyphen /registered
/macron /degree /plusminus /twosuperior /threesuperior
/acute /mu /paragraph /middot /cedilla
/onesuperior /ordmasculine /guillemotright /onequarter /onehalf
/threequarters /questiondown /Agrave /Aacute /Acircumflex
/Atilde /Adieresis /Aring /AE /Ccedilla
/Egrave /Eacute /Ecircumflex /Edieresis /Igrave
/Iacute /Icircumflex /Idieresis /Eth /Ntilde
/Ograve /Oacute /Ocircumflex /Otilde /Odieresis
/multiply /Oslash /Ugrave /Uacute /Ucircumflex
/Udieresis /Yacute /Thorn /germandbls /agrave
/aacute /acircumflex /atilde /adieresis /aring
/ae /ccedilla /egrave /eacute /ecircumflex
/edieresis /igrave /iacute /icircumflex /idieresis
/eth /ntilde /ograve /oacute /ocircumflex
/otilde /odieresis /divide /oslash /ugrave
/uacute /ucircumflex /udieresis /yacute /thorn
/ydieresis
] def
%%EndResource
%FOPBeginFontReencode
/Courier-Oblique findfont
dup length dict begin
  {1 index /FID ne {def} {pop pop} ifelse} forall
  /Encoding WinAnsiEncoding def
  currentdict
end
/Courier-Oblique exch definefont pop
/Courier-BoldOblique findfont
dup length dict begin
  {1 index /FID ne {def} {pop pop} ifelse} forall
  /Encoding WinAnsiEncoding def
  currentdict
end
/Courier-BoldOblique exch definefont pop
/Courier-Bold findfont
dup length dict begin
  {1 index /FID ne {def} {pop pop} ifelse} forall
  /Encoding WinAnsiEncoding def
  currentdict
end
/Courier-Bold exch definefont pop
/Helvetica findfont
dup length dict begin
  {1 index /FID ne {def} {pop pop} ifelse} forall
  /Encoding WinAnsiEncoding def
  currentdict
end
/Helvetica exch definefont pop
/Helvetica-Oblique findfont
dup length dict begin
  {1 index /FID ne {def} {pop pop} ifelse} forall
  /Encoding WinAnsiEncoding def
  currentdict
end
/Helvetica-Oblique exch definefont pop
/Helvetica-Bold findfont
dup length dict begin
  {1 index /FID ne {def} {pop pop} ifelse} forall
  /Encoding WinAnsiEncoding def
  currentdict
end
/Helvetica-Bold exch definefont pop
/Helvetica-BoldOblique findfont
dup length dict begin
  {1 index /FID ne {def} {pop pop} ifelse} forall
  /Encoding WinAnsiEncoding def
  currentdict
end
/Helvetica-BoldOblique exch definefont pop
/Times-Roman findfont
dup length dict begin
  {1 index /FID ne {def} {pop pop} ifelse} forall
  /Encoding WinAnsiEncoding def
  currentdict
end
/Times-Roman exch definefont pop
/Times-Italic findfont
dup length dict begin
  {1 index /FID ne {def} {pop pop} ifelse} forall
  /Encoding WinAnsiEncoding def
  currentdict
end
/Times-Italic exch definefont pop
/Times-Bold findfont
dup length dict begin
  {1 index /FID ne {def} {pop pop} ifelse} forall
  /Encoding WinAnsiEncoding def
  currentdict
end
/Times-Bold exch definefont pop
/Times-BoldItalic findfont
dup length dict begin
  {1 index /FID ne {def} {pop pop} ifelse} forall
  /Encoding WinAnsiEncoding def
  currentdict
end
/Times-BoldItalic exch definefont pop
/Courier findfont
dup length dict begin
  {1 index /FID ne {def} {pop pop} ifelse} forall
  /Encoding WinAnsiEncoding def
  currentdict
end
/Courier exch definefont pop
%FOPEndFontReencode
%%EndProlog
%%Page: 1 1
%%PageBoundingBox: 0 0 500 187
%%BeginPageSetup
[1 0 0 -1 0 187] CT
%%EndPageSetup
GS
[0.60054 0 0 0.60048 0 0.25] CT
N
0 0 M
832 0 L
832 311 L
0 311 L
0 0 L
cp
clip
1 GC
N
0 0 832 311 re
f
GR
GS
[0.60054 0 0 0.60048 0 0.25] CT
1 GC
N
0 0 832 311 re
f
GR
GS
[0.60054 0 0 0.60048 0 0.25] CT
1 GC
N
14 263 M
821 263 L
821 26 L
14 26 L
cp
f
GR
GS
[0.60054 0 0 0.60048 0 0.25] CT
0.873 GC
1 LJ
0.833 LW
N
821 195.286 M
14 195.286 L
S
GR
GS
[0.60054 0 0 0.60048 0 0.25] CT
0.873 GC
1 LJ
0.833 LW
N
821 93.714 M
14 93.714 L
S
GR
GS
[0.60054 0 0 0.60048 0 0.25] CT
0.149 GC
2 setlinecap
1 LJ
0.833 LW
N
14 263 M
821 263 L
S
GR
GS
[0.60054 0 0 0.60048 0 0.25] CT
0.149 GC
2 setlinecap
1 LJ
0.833 LW
N
14 26 M
821 26 L
S
GR
GS
[0.60054 0 0 0.60048 0 0.25] CT
0.149 GC
2 setlinecap
1 LJ
0.833 LW
N
14 263 M
14 254.93 L
S
GR
GS
[0.60054 0 0 0.60048 0 0.25] CT
0.149 GC
2 setlinecap
1 LJ
0.833 LW
N
94.7 263 M
94.7 254.93 L
S
GR
GS
[0.60054 0 0 0.60048 0 0.25] CT
0.149 GC
2 setlinecap
1 LJ
0.833 LW
N
175.4 263 M
175.4 254.93 L
S
GR
GS
[0.60054 0 0 0.60048 0 0.25] CT
0.149 GC
2 setlinecap
1 LJ
0.833 LW
N
256.1 263 M
256.1 254.93 L
S
GR
GS
[0.60054 0 0 0.60048 0 0.25] CT
0.149 GC
2 setlinecap
1 LJ
0.833 LW
N
336.8 263 M
336.8 254.93 L
S
GR
GS
[0.60054 0 0 0.60048 0 0.25] CT
0.149 GC
2 setlinecap
1 LJ
0.833 LW
N
417.5 263 M
417.5 254.93 L
S
GR
GS
[0.60054 0 0 0.60048 0 0.25] CT
0.149 GC
2 setlinecap
1 LJ
0.833 LW
N
498.2 263 M
498.2 254.93 L
S
GR
GS
[0.60054 0 0 0.60048 0 0.25] CT
0.149 GC
2 setlinecap
1 LJ
0.833 LW
N
578.9 263 M
578.9 254.93 L
S
GR
GS
[0.60054 0 0 0.60048 0 0.25] CT
0.149 GC
2 setlinecap
1 LJ
0.833 LW
N
659.6 263 M
659.6 254.93 L
S
GR
GS
[0.60054 0 0 0.60048 0 0.25] CT
0.149 GC
2 setlinecap
1 LJ
0.833 LW
N
740.3 263 M
740.3 254.93 L
S
GR
GS
[0.60054 0 0 0.60048 0 0.25] CT
0.149 GC
2 setlinecap
1 LJ
0.833 LW
N
821 263 M
821 254.93 L
S
GR
GS
[0.60054 0 0 0.60048 0 0.25] CT
0.149 GC
2 setlinecap
1 LJ
0.833 LW
N
14 26 M
14 34.07 L
S
GR
GS
[0.60054 0 0 0.60048 0 0.25] CT
0.149 GC
2 setlinecap
1 LJ
0.833 LW
N
94.7 26 M
94.7 34.07 L
S
GR
GS
[0.60054 0 0 0.60048 0 0.25] CT
0.149 GC
2 setlinecap
1 LJ
0.833 LW
N
175.4 26 M
175.4 34.07 L
S
GR
GS
[0.60054 0 0 0.60048 0 0.25] CT
0.149 GC
2 setlinecap
1 LJ
0.833 LW
N
256.1 26 M
256.1 34.07 L
S
GR
GS
[0.60054 0 0 0.60048 0 0.25] CT
0.149 GC
2 setlinecap
1 LJ
0.833 LW
N
336.8 26 M
336.8 34.07 L
S
GR
GS
[0.60054 0 0 0.60048 0 0.25] CT
0.149 GC
2 setlinecap
1 LJ
0.833 LW
N
417.5 26 M
417.5 34.07 L
S
GR
GS
[0.60054 0 0 0.60048 0 0.25] CT
0.149 GC
2 setlinecap
1 LJ
0.833 LW
N
498.2 26 M
498.2 34.07 L
S
GR
GS
[0.60054 0 0 0.60048 0 0.25] CT
0.149 GC
2 setlinecap
1 LJ
0.833 LW
N
578.9 26 M
578.9 34.07 L
S
GR
GS
[0.60054 0 0 0.60048 0 0.25] CT
0.149 GC
2 setlinecap
1 LJ
0.833 LW
N
659.6 26 M
659.6 34.07 L
S
GR
GS
[0.60054 0 0 0.60048 0 0.25] CT
0.149 GC
2 setlinecap
1 LJ
0.833 LW
N
740.3 26 M
740.3 34.07 L
S
GR
GS
[0.60054 0 0 0.60048 0 0.25] CT
0.149 GC
2 setlinecap
1 LJ
0.833 LW
N
821 26 M
821 34.07 L
S
GR
GS
[0.60054 0 0 0.60048 8.40757 161.57958] CT
0.149 GC
/Helvetica 15.833 F
GS
[1 0 0 1 0 0] CT
-7.5 16 moveto 
1 -1 scale
(-1) t 
GR
GR
GS
[0.60054 0 0 0.60048 56.87122 161.57958] CT
0.149 GC
/Helvetica 15.833 F
GS
[1 0 0 1 0 0] CT
-14 16 moveto 
1 -1 scale
(-0.8) t 
GR
GR
GS
[0.60054 0 0 0.60048 105.33486 161.57958] CT
0.149 GC
/Helvetica 15.833 F
GS
[1 0 0 1 0 0] CT
-14 16 moveto 
1 -1 scale
(-0.6) t 
GR
GR
GS
[0.60054 0 0 0.60048 153.79852 161.57958] CT
0.149 GC
/Helvetica 15.833 F
GS
[1 0 0 1 0 0] CT
-14 16 moveto 
1 -1 scale
(-0.4) t 
GR
GR
GS
[0.60054 0 0 0.60048 202.26215 161.57958] CT
0.149 GC
/Helvetica 15.833 F
GS
[1 0 0 1 0 0] CT
-14 16 moveto 
1 -1 scale
(-0.2) t 
GR
GR
GS
[0.60054 0 0 0.60048 250.72581 161.57958] CT
0.149 GC
/Helvetica 15.833 F
GS
[1 0 0 1 0 0] CT
-4.5 16 moveto 
1 -1 scale
(0) t 
GR
GR
GS
[0.60054 0 0 0.60048 299.18946 161.57958] CT
0.149 GC
/Helvetica 15.833 F
GS
[1 0 0 1 0 0] CT
-11 16 moveto 
1 -1 scale
(0.2) t 
GR
GR
GS
[0.60054 0 0 0.60048 347.65312 161.57958] CT
0.149 GC
/Helvetica 15.833 F
GS
[1 0 0 1 0 0] CT
-11 16 moveto 
1 -1 scale
(0.4) t 
GR
GR
GS
[0.60054 0 0 0.60048 396.11677 161.57958] CT
0.149 GC
/Helvetica 15.833 F
GS
[1 0 0 1 0 0] CT
-11 16 moveto 
1 -1 scale
(0.6) t 
GR
GR
GS
[0.60054 0 0 0.60048 444.58039 161.57958] CT
0.149 GC
/Helvetica 15.833 F
GS
[1 0 0 1 0 0] CT
-11 16 moveto 
1 -1 scale
(0.8) t 
GR
GR
GS
[0.60054 0 0 0.60048 493.04404 161.57958] CT
0.149 GC
/Helvetica 15.833 F
GS
[1 0 0 1 0 0] CT
-4.5 16 moveto 
1 -1 scale
(1) t 
GR
GR
GS
[0.60054 0 0 0.60048 168.75198 185.19855] CT
0.149 GC
/Helvetica 17.417 F
GS
[1 0 0 1 0 0] CT
0 0 moveto 
1 -1 scale
(Normalized independent variable, ) t 
GR
GR
GS
[0.60054 0 0 0.60048 327.89531 185.19855] CT
0.149 GC
N
2.641 -0.25 M
2.641 -0.375 2.672 -0.438 QT
4.453 -6.281 L
2.922 -6.281 L
2.297 -6.281 1.758 -5.891 QT
1.219 -5.5 0.859 -4.891 QT
0.828 -4.828 0.766 -4.828 QT
0.563 -4.828 L
0.406 -4.828 0.406 -5 QT
0.406 -5.031 0.438 -5.094 QT
1 -6.047 1.633 -6.688 QT
2.266 -7.328 3.063 -7.328 QT
8.281 -7.328 L
8.453 -7.328 8.578 -7.203 QT
8.703 -7.078 8.703 -6.891 QT
8.703 -6.656 8.523 -6.469 QT
8.344 -6.281 8.094 -6.281 QT
5.016 -6.281 L
3.875 -0.406 L
3.813 -0.141 3.625 0.039 QT
3.438 0.219 3.156 0.219 QT
2.953 0.219 2.797 0.086 QT
2.641 -0.047 2.641 -0.25 QT
cp
f
GR
GS
[0.60054 0 0 0.60048 0 0.25] CT
0.149 GC
2 setlinecap
1 LJ
0.833 LW
N
14 263 M
14 26 L
S
GR
GS
[0.60054 0 0 0.60048 0 0.25] CT
0.149 GC
2 setlinecap
1 LJ
0.833 LW
N
821 263 M
821 26 L
S
GR
GS
[0.60054 0 0 0.60048 0 0.25] CT
0.149 GC
2 setlinecap
1 LJ
0.833 LW
N
14 195.286 M
22.07 195.286 L
S
GR
GS
[0.60054 0 0 0.60048 0 0.25] CT
0.149 GC
2 setlinecap
1 LJ
0.833 LW
N
14 93.714 M
22.07 93.714 L
S
GR
GS
[0.60054 0 0 0.60048 0 0.25] CT
0.149 GC
2 setlinecap
1 LJ
0.833 LW
N
821 195.286 M
812.93 195.286 L
S
GR
GS
[0.60054 0 0 0.60048 0 0.25] CT
0.149 GC
2 setlinecap
1 LJ
0.833 LW
N
821 93.714 M
812.93 93.714 L
S
GR
GS
[0.60054 0 0 0.60048 250.72605 14.29378] CT
/Helvetica-Bold 17.417 F
GS
[1 0 0 1 0 0] CT
-2.5 -4 moveto 
1 -1 scale
( ) t 
GR
GR
GS
[0.60054 0 0 0.60048 22.61538 56.52377] CT
10.0 ML
2.5 LW
N
5 0 M
5 -2.761 2.761 -5 0 -5 C
-2.761 -5 -5 -2.761 -5 0 C
-5 2.761 -2.761 5 0 5 C
2.761 5 5 2.761 5 0 C
cp
S
GR
GS
[0.60054 0 0 0.60048 80.17186 56.52377] CT
10.0 ML
2.5 LW
N
5 0 M
5 -2.761 2.761 -5 0 -5 C
-2.761 -5 -5 -2.761 -5 0 C
-5 2.761 -2.761 5 0 5 C
2.761 5 5 2.761 5 0 C
cp
S
GR
GS
[0.60054 0 0 0.60048 171.72265 56.52377] CT
10.0 ML
2.5 LW
N
5 0 M
5 -2.761 2.761 -5 0 -5 C
-2.761 -5 -5 -2.761 -5 0 C
-5 2.761 -2.761 5 0 5 C
2.761 5 5 2.761 5 0 C
cp
S
GR
GS
[0.60054 0 0 0.60048 279.16018 56.52377] CT
10.0 ML
2.5 LW
N
5 0 M
5 -2.761 2.761 -5 0 -5 C
-2.761 -5 -5 -2.761 -5 0 C
-5 2.761 -2.761 5 0 5 C
2.761 5 5 2.761 5 0 C
cp
S
GR
GS
[0.60054 0 0 0.60048 381.20636 56.52377] CT
10.0 ML
2.5 LW
N
5 0 M
5 -2.761 2.761 -5 0 -5 C
-2.761 -5 -5 -2.761 -5 0 C
-5 2.761 -2.761 5 0 5 C
2.761 5 5 2.761 5 0 C
cp
S
GR
GS
[0.60054 0 0 0.60048 457.63926 56.52377] CT
10.0 ML
2.5 LW
N
5 0 M
5 -2.761 2.761 -5 0 -5 C
-2.761 -5 -5 -2.761 -5 0 C
-5 2.761 -2.761 5 0 5 C
2.761 5 5 2.761 5 0 C
cp
S
GR
GS
[0.60054 0 0 0.60048 493.04404 56.52377] CT
10.0 ML
2.5 LW
N
5 0 M
5 -2.761 2.761 -5 0 -5 C
-2.761 -5 -5 -2.761 -5 0 C
-5 2.761 -2.761 5 0 5 C
2.761 5 5 2.761 5 0 C
cp
S
GR
GS
[0.60054 0 0 0.60048 8.40757 56.52377] CT
0 0 1 RC
10.0 ML
2.5 LW
N
-4.714 -4.714 M
4.714 4.714 L
-4.714 4.714 M
4.714 -4.714 L
S
GR
GS
[0.60054 0 0 0.60048 8.40757 117.51561] CT
1 0 0 RC
10.0 ML
2.5 LW
N
-4 -4 M
-4 4 L
4 4 L
4 -4 L
cp
S
GR
GS
[0.60054 0 0 0.60048 89.18031 117.51561] CT
1 0 0 RC
10.0 ML
2.5 LW
N
-4 -4 M
-4 4 L
4 4 L
4 -4 L
cp
S
GR
GS
[0.60054 0 0 0.60048 169.95306 117.51561] CT
1 0 0 RC
10.0 ML
2.5 LW
N
-4 -4 M
-4 4 L
4 4 L
4 -4 L
cp
S
GR
GS
[0.60054 0 0 0.60048 250.72581 117.51561] CT
1 0 0 RC
10.0 ML
2.5 LW
N
-4 -4 M
-4 4 L
4 4 L
4 -4 L
cp
S
GR
GS
[0.60054 0 0 0.60048 331.49855 117.51561] CT
1 0 0 RC
10.0 ML
2.5 LW
N
-4 -4 M
-4 4 L
4 4 L
4 -4 L
cp
S
GR
GS
[0.60054 0 0 0.60048 412.2713 117.51561] CT
1 0 0 RC
10.0 ML
2.5 LW
N
-4 -4 M
-4 4 L
4 4 L
4 -4 L
cp
S
GR
GS
[0.60054 0 0 0.60048 493.04404 117.51561] CT
1 0 0 RC
10.0 ML
2.5 LW
N
-4 -4 M
-4 4 L
4 4 L
4 -4 L
cp
S
GR
GS
[0.60054 0 0 0.60048 0 0.25] CT
1 GC
N
225 176 M
225 113 L
27 113 L
27 176 L
cp
f
GR
GS
[0.60054 0 0 0.60048 51.54098 75.28181] CT
/Helvetica 14.25 F
GS
[1 0 0 1 0 0] CT
0 5.5 moveto 
1 -1 scale
(Flipped Radau Roots) t 
GR
GR
GS
[0.60054 0 0 0.60048 34.2536 75.28181] CT
10.0 ML
2.5 LW
N
5 0 M
5 -2.761 2.761 -5 0 -5 C
-2.761 -5 -5 -2.761 -5 0 C
-5 2.761 -2.761 5 0 5 C
2.761 5 5 2.761 5 0 C
cp
S
GR
GS
[0.60054 0 0 0.60048 51.54098 87.01969] CT
/Helvetica 14.25 F
GS
[1 0 0 1 0 0] CT
0 5.5 moveto 
1 -1 scale
(Discretization Point) t 
GR
GR
GS
[0.60054 0 0 0.60048 34.2536 87.01969] CT
0 0 1 RC
10.0 ML
2.5 LW
N
-4.714 -4.714 M
4.714 4.714 L
-4.714 4.714 M
4.714 -4.714 L
S
GR
GS
[0.60054 0 0 0.60048 51.54098 98.75758] CT
/Helvetica 14.25 F
GS
[1 0 0 1 0 0] CT
0 5.5 moveto 
1 -1 scale
(Uniform Distribution) t 
GR
GR
GS
[0.60054 0 0 0.60048 34.2536 98.75758] CT
1 0 0 RC
10.0 ML
2.5 LW
N
-4 -4 M
-4 4 L
4 4 L
4 -4 L
cp
S
GR
GS
[0.60054 0 0 0.60048 0 0.25] CT
0.149 GC
10.0 ML
0.833 LW
N
27 176 M
27 113 L
225 113 L
225 176 L
cp
S
GR
%%Trailer
%%Pages: 1
%%EOF
