%!PS-Adobe-3.0 EPSF-3.0
%%Creator: cairo 1.16.0 (https://cairographics.org)
%%CreationDate: Tue Sep 15 20:57:22 2020
%%Pages: 1
%%DocumentData: Clean7Bit
%%LanguageLevel: 2
%%BoundingBox: 0 0 211 146
%%EndComments
%%BeginProlog
50 dict begin
/q { gsave } bind def
/Q { grestore } bind def
/cm { 6 array astore concat } bind def
/w { setlinewidth } bind def
/J { setlinecap } bind def
/j { setlinejoin } bind def
/M { setmiterlimit } bind def
/d { setdash } bind def
/m { moveto } bind def
/l { lineto } bind def
/c { curveto } bind def
/h { closepath } bind def
/re { exch dup neg 3 1 roll 5 3 roll moveto 0 rlineto
      0 exch rlineto 0 rlineto closepath } bind def
/S { stroke } bind def
/f { fill } bind def
/f* { eofill } bind def
/n { newpath } bind def
/W { clip } bind def
/W* { eoclip } bind def
/BT { } bind def
/ET { } bind def
/BDC { mark 3 1 roll /BDC pdfmark } bind def
/EMC { mark /EMC pdfmark } bind def
/cairo_store_point { /cairo_point_y exch def /cairo_point_x exch def } def
/Tj { show currentpoint cairo_store_point } bind def
/TJ {
  {
    dup
    type /stringtype eq
    { show } { -0.001 mul 0 cairo_font_matrix dtransform rmoveto } ifelse
  } forall
  currentpoint cairo_store_point
} bind def
/cairo_selectfont { cairo_font_matrix aload pop pop pop 0 0 6 array astore
    cairo_font exch selectfont cairo_point_x cairo_point_y moveto } bind def
/Tf { pop /cairo_font exch def /cairo_font_matrix where
      { pop cairo_selectfont } if } bind def
/Td { matrix translate cairo_font_matrix matrix concatmatrix dup
      /cairo_font_matrix exch def dup 4 get exch 5 get cairo_store_point
      /cairo_font where { pop cairo_selectfont } if } bind def
/Tm { 2 copy 8 2 roll 6 array astore /cairo_font_matrix exch def
      cairo_store_point /cairo_font where { pop cairo_selectfont } if } bind def
/g { setgray } bind def
/rg { setrgbcolor } bind def
/d1 { setcachedevice } bind def
/cairo_data_source {
  CairoDataIndex CairoData length lt
    { CairoData CairoDataIndex get /CairoDataIndex CairoDataIndex 1 add def }
    { () } ifelse
} def
/cairo_flush_ascii85_file { cairo_ascii85_file status { cairo_ascii85_file flushfile } if } def
/cairo_image { image cairo_flush_ascii85_file } def
/cairo_imagemask { imagemask cairo_flush_ascii85_file } def
%%EndProlog
%%BeginSetup
%%EndSetup
%%Page: 1 1
%%BeginPageSetup
%%PageBoundingBox: 0 0 211 146
%%EndPageSetup
q 0 0 211 146 rectclip
1 0 0 -1 0 146 cm q
0 g
0.751181 w
0 J
0 j
[] 0.0 d
4 M q 1 0 0 1 0 0 cm
27.813 1.254 m 27.813 132.898 l 208.75 132.898 l S Q
24.48 9.285 m 27.801 0.258 l 31.121 9.285 l 29.16 7.844 26.48 7.852 24.48
 9.285 c h
24.48 9.285 m f*
0.516437 w
1 j
q 0 1 -1 0 0 0 cm
9.285 -24.48 m 0.258 -27.801 l 9.285 -31.121 l 7.844 -29.16 7.852 -26.48
 9.285 -24.48 c h
9.285 -24.48 m S Q
200.723 129.566 m 209.75 132.887 l 200.723 136.207 l 202.164 134.246 202.156
 131.566 200.723 129.566 c h
200.723 129.566 m f*
q -1 0 0 -1 0 0 cm
-200.723 -129.566 m -209.75 -132.887 l -200.723 -136.207 l -202.164 -134.246
 -202.156 -131.566 -200.723 -129.566 c h
-200.723 -129.566 m S Q
0.75 w
0 j
q 1 0 0 1 0 0 cm
75.984 66.238 m 75.984 66.238 84.176 50.93 119.934 42.828 c 155.594 34.75
 159.371 22.344 159.371 22.344 c S Q
76.676 64.941 m 77.406 65.332 77.684 66.242 77.293 66.973 c 76.902 67.703
 75.992 67.98 75.262 67.59 c 74.531 67.199 74.254 66.289 74.645 65.559 c
 75.035 64.828 75.945 64.551 76.676 64.941 c h
76.676 64.941 m f*
0.352687 w
q 0.535069 -1 1 0.535069 0 0 cm
-18.592 86.624 m -18.592 87.354 -19.184 87.948 -19.914 87.948 c -20.645
 87.949 -21.239 87.356 -21.239 86.626 c -21.239 85.896 -20.647 85.301 -19.917
 85.301 c -19.186 85.301 -18.592 85.893 -18.592 86.624 c h
-18.592 86.624 m S Q
159.801 20.938 m 160.594 21.18 161.039 22.016 160.797 22.809 c 160.559 
23.602 159.719 24.047 158.926 23.809 c 158.133 23.566 157.688 22.727 157.93
 21.934 c 158.172 21.141 159.008 20.695 159.801 20.938 c h
159.801 20.938 m f*
0.382632 w
q 0.304701 -1 1 0.304701 0 0 cm
25.396 152.063 m 25.396 152.856 24.755 153.496 23.962 153.496 c 23.17 153.499
 22.528 152.854 22.525 152.062 c 22.525 151.269 23.17 150.628 23.963 150.628
 c 24.756 150.629 25.397 151.269 25.396 152.063 c h
25.396 152.063 m S Q
0.75 w
q 1 0 0 1 0 0 cm
52.09 113.789 m 52.09 113.789 71.059 88.641 105.176 74.449 c 138.934 60.41
 159.371 22.344 159.371 22.344 c S Q
52.977 112.617 m 53.637 113.113 53.77 114.055 53.27 114.715 c 52.773 115.379
 51.832 115.508 51.168 115.012 c 50.508 114.512 50.375 113.57 50.875 112.91
 c 51.375 112.25 52.316 112.117 52.977 112.617 c h
52.977 112.617 m f*
0.319355 w
q 0.754198 -1 1 0.754198 0 0 cm
-46.317 87.909 m -46.316 88.568 -46.852 89.105 -47.513 89.104 c -48.175
 89.107 -48.709 88.569 -48.713 87.907 c -48.711 87.246 -48.175 86.708 -47.514
 86.71 c -46.853 86.711 -46.315 87.247 -46.317 87.909 c h
-46.317 87.909 m S Q
160.066 21.047 m 160.797 21.441 161.07 22.348 160.68 23.078 c 160.289 23.809
 159.379 24.082 158.648 23.691 c 157.918 23.301 157.645 22.391 158.035 21.66
 c 158.43 20.93 159.34 20.656 160.066 21.047 c h
160.066 21.047 m f*
0.35242 w
q 0.536883 -1 1 0.536883 0 0 cm
50.371 133.023 m 50.369 133.755 49.78 134.345 49.05 134.346 c 48.32 134.347
 47.728 133.754 47.727 133.025 c 47.726 132.295 48.319 131.703 49.048 131.702
 c 49.78 131.704 50.371 132.296 50.371 133.023 c h
50.371 133.023 m S Q
0.75 w
[ 0.75 2.25] 0 d
q 1 0 0 1 0 0 cm
52.09 113.789 m 52.09 133.141 l S Q
[ 0.75 2.25] 0 d
q 1 0 0 1 0 0 cm
75.984 66.238 m 75.984 133.141 l S Q
[ 0.75 2.25] 0 d
q 1 0 0 1 0 0 cm
52.09 113.789 m 28.223 113.789 l S Q
[ 0.75 2.25] 0 d
q 1 0 0 1 0 0 cm
75.984 66.238 m 27.895 66.238 l S Q
0.566929 w
[] 0.0 d
q 1 0 0 1 0 0 cm
53.074 127.391 m 74.82 127.391 l S Q
56.039 128.762 m 52.324 127.395 l 56.039 126.027 l 55.445 126.836 55.449
 127.938 56.039 128.762 c h
56.039 128.762 m f*
0.212598 w
1 j
q 1 0 0 1 0 0 cm
56.039 128.762 m 52.324 127.395 l 56.039 126.027 l 55.445 126.836 55.449
 127.938 56.039 128.762 c h
56.039 128.762 m S Q
71.855 126.016 m 75.57 127.383 l 71.855 128.75 l 72.449 127.941 72.445 
126.84 71.855 126.016 c h
71.855 126.016 m f*
q -1 0 0 -1 0 0 cm
-71.855 -126.016 m -75.57 -127.383 l -71.855 -128.75 l -72.449 -127.941
 -72.445 -126.84 -71.855 -126.016 c h
-71.855 -126.016 m S Q
0.566929 w
0 j
q 1 0 0 1 0 0 cm
35.961 67.512 m 35.961 112.578 l S Q
34.586 70.477 m 35.953 66.762 l 37.32 70.477 l 36.516 69.883 35.41 69.887
 34.586 70.477 c h
34.586 70.477 m f*
0.212598 w
1 j
q 0 1 -1 0 0 0 cm
70.477 -34.586 m 66.762 -35.953 l 70.477 -37.32 l 69.883 -36.516 69.887
 -35.41 70.477 -34.586 c h
70.477 -34.586 m S Q
37.332 109.613 m 35.965 113.328 l 34.598 109.613 l 35.406 110.207 36.508
 110.203 37.332 109.613 c h
37.332 109.613 m f*
q 0 -1 1 0 0 0 cm
-109.613 37.332 m -113.328 35.965 l -109.613 34.598 l -110.207 35.406 -110.203
 36.508 -109.613 37.332 c h
-109.613 37.332 m S Q
0.75 w
0 j
[ 0.75 2.25] 0 d
q 1 0 0 1 0 0 cm
159.371 22.344 m 159.371 132.898 l S Q
[ 0.75 2.25] 0 d
q 1 0 0 1 0 0 cm
159.371 22.344 m 27.898 22.344 l S Q
51.363 137.445 m 52.301 137.445 l 52.504 137.445 52.613 137.445 52.613 
137.242 c 52.613 137.133 52.504 137.133 52.332 137.133 c 51.457 137.133 
l 51.816 135.711 51.863 135.523 51.863 135.461 c 51.863 135.289 51.738 135.195
 51.566 135.195 c 51.535 135.195 51.254 135.195 51.176 135.555 c 50.785 
137.133 l 49.848 137.133 l 49.645 137.133 49.551 137.133 49.551 137.32 c
 49.551 137.445 49.629 137.445 49.832 137.445 c 50.707 137.445 l 49.988 
140.273 49.941 140.445 49.941 140.617 c 49.941 141.164 50.316 141.539 50.863
 141.539 c 51.879 141.539 52.441 140.086 52.441 140.008 c 52.441 139.898
 52.363 139.898 52.332 139.898 c 52.238 139.898 52.223 139.93 52.176 140.039
 c 51.754 141.086 51.223 141.32 50.879 141.32 c 50.676 141.32 50.566 141.195
 50.566 140.867 c 50.566 140.617 50.598 140.555 50.629 140.383 c h
51.363 137.445 m f
55.164 136.082 m 55.742 135.832 55.992 135.738 56.164 135.645 c 56.305 
135.598 56.367 135.566 56.367 135.426 c 56.367 135.316 56.273 135.207 56.148
 135.207 c 56.102 135.207 56.086 135.207 56.008 135.27 c 55.055 135.91 l
 55.164 134.879 l 55.18 134.754 55.164 134.582 54.945 134.582 c 54.867 134.582
 54.727 134.629 54.727 134.785 c 54.727 134.848 54.758 135.051 54.773 135.129
 c 54.789 135.238 54.836 135.754 54.852 135.91 c 53.898 135.27 l 53.836 
135.238 53.82 135.207 53.758 135.207 c 53.617 135.207 53.539 135.316 53.539
 135.426 c 53.539 135.566 53.617 135.613 53.68 135.629 c 54.727 136.082 
l 54.164 136.332 53.898 136.426 53.727 136.504 c 53.602 136.566 53.539 136.598
 53.539 136.723 c 53.539 136.848 53.617 136.941 53.758 136.941 c 53.805 
136.941 53.82 136.941 53.898 136.879 c 54.852 136.254 l 54.727 137.363 l
 54.727 137.52 54.867 137.582 54.945 137.582 c 55.039 137.582 55.164 137.52
 55.164 137.363 c 55.164 137.301 55.133 137.098 55.133 137.035 c 55.117 
136.91 55.07 136.41 55.055 136.254 c 55.883 136.801 l 56.07 136.941 56.086
 136.941 56.148 136.941 c 56.273 136.941 56.367 136.848 56.367 136.723 c
 56.367 136.582 56.273 136.551 56.211 136.52 c h
55.164 136.082 m f
56.508 141.684 m 56.508 140.918 56.414 140.355 56.102 139.871 c 55.883 
139.559 55.445 139.277 54.898 139.277 c 53.273 139.277 53.273 141.184 53.273
 141.684 c 53.273 142.184 53.273 144.043 54.898 144.043 c 56.508 144.043
 56.508 142.184 56.508 141.684 c h
54.898 143.84 m 54.57 143.84 54.148 143.652 54.008 143.09 c 53.914 142.684
 53.914 142.105 53.914 141.59 c 53.914 141.074 53.914 140.543 54.008 140.168
 c 54.164 139.621 54.602 139.465 54.898 139.465 c 55.273 139.465 55.633 
139.699 55.758 140.105 c 55.867 140.48 55.883 140.98 55.883 141.59 c 55.883
 142.105 55.883 142.621 55.789 143.059 c 55.648 143.699 55.18 143.84 54.898
 143.84 c h
54.898 143.84 m f
75.074 137.43 m 76.012 137.43 l 76.215 137.43 76.324 137.43 76.324 137.227
 c 76.324 137.117 76.215 137.117 76.043 137.117 c 75.168 137.117 l 75.527
 135.695 75.574 135.508 75.574 135.445 c 75.574 135.273 75.449 135.18 75.277
 135.18 c 75.246 135.18 74.965 135.18 74.887 135.539 c 74.496 137.117 l 
73.559 137.117 l 73.355 137.117 73.262 137.117 73.262 137.305 c 73.262 137.43
 73.34 137.43 73.543 137.43 c 74.418 137.43 l 73.699 140.258 73.652 140.43
 73.652 140.602 c 73.652 141.148 74.027 141.523 74.574 141.523 c 75.59 141.523
 76.152 140.07 76.152 139.992 c 76.152 139.883 76.074 139.883 76.043 139.883
 c 75.949 139.883 75.934 139.914 75.887 140.023 c 75.465 141.07 74.934 141.305
 74.59 141.305 c 74.387 141.305 74.277 141.18 74.277 140.852 c 74.277 140.602
 74.309 140.539 74.34 140.367 c h
75.074 137.43 m f
80.219 140.691 m 80.219 139.926 80.125 139.363 79.813 138.879 c 79.594 
138.566 79.156 138.285 78.609 138.285 c 76.984 138.285 76.984 140.191 76.984
 140.691 c 76.984 141.191 76.984 143.051 78.609 143.051 c 80.219 143.051
 80.219 141.191 80.219 140.691 c h
78.609 142.848 m 78.281 142.848 77.859 142.66 77.719 142.098 c 77.625 141.691
 77.625 141.113 77.625 140.598 c 77.625 140.082 77.625 139.551 77.719 139.176
 c 77.875 138.629 78.313 138.473 78.609 138.473 c 78.984 138.473 79.344 
138.707 79.469 139.113 c 79.578 139.488 79.594 139.988 79.594 140.598 c 
79.594 141.113 79.594 141.629 79.5 142.066 c 79.359 142.707 78.891 142.848
 78.609 142.848 c h
78.609 142.848 m f
61.418 119.102 m 60.184 119.398 59.215 120.695 59.215 121.898 c 59.215 
122.867 59.855 123.586 60.793 123.586 c 61.949 123.586 62.777 122.008 62.777
 120.633 c 62.777 119.727 62.387 119.227 62.043 118.789 c 61.684 118.336
 61.09 117.586 61.09 117.148 c 61.09 116.93 61.293 116.695 61.637 116.695
 c 61.949 116.695 62.137 116.82 62.355 116.961 c 62.559 117.086 62.746 117.211
 62.902 117.211 c 63.152 117.211 63.293 116.977 63.293 116.805 c 63.293 
116.586 63.137 116.57 62.777 116.477 c 62.262 116.367 62.121 116.367 61.965
 116.367 c 61.184 116.367 60.824 116.805 60.824 117.398 c 60.824 117.945
 61.121 118.492 61.418 119.102 c h
61.543 119.32 m 61.793 119.789 62.09 120.32 62.09 121.039 c 62.09 121.695
 61.715 123.367 60.793 123.367 c 60.246 123.367 59.824 122.945 59.824 122.18
 c 59.824 121.555 60.199 119.68 61.543 119.32 c h
61.543 119.32 m f
65.645 119.477 m 66.582 119.477 l 66.785 119.477 66.895 119.477 66.895 
119.273 c 66.895 119.164 66.785 119.164 66.613 119.164 c 65.738 119.164 
l 66.098 117.742 66.145 117.555 66.145 117.492 c 66.145 117.32 66.02 117.227
 65.848 117.227 c 65.816 117.227 65.535 117.227 65.457 117.586 c 65.066 
119.164 l 64.129 119.164 l 63.926 119.164 63.832 119.164 63.832 119.352 
c 63.832 119.477 63.91 119.477 64.113 119.477 c 64.988 119.477 l 64.27 122.305
 64.223 122.477 64.223 122.648 c 64.223 123.195 64.598 123.57 65.145 123.57
 c 66.16 123.57 66.723 122.117 66.723 122.039 c 66.723 121.93 66.645 121.93
 66.613 121.93 c 66.52 121.93 66.504 121.961 66.457 122.07 c 66.035 123.117
 65.504 123.352 65.16 123.352 c 64.957 123.352 64.848 123.227 64.848 122.898
 c 64.848 122.648 64.879 122.586 64.91 122.414 c h
65.645 119.477 m f
70.789 122.734 m 70.789 121.969 70.695 121.406 70.383 120.922 c 70.164 
120.609 69.727 120.328 69.18 120.328 c 67.555 120.328 67.555 122.234 67.555
 122.734 c 67.555 123.234 67.555 125.094 69.18 125.094 c 70.789 125.094 
70.789 123.234 70.789 122.734 c h
69.18 124.891 m 68.852 124.891 68.43 124.703 68.289 124.141 c 68.195 123.734
 68.195 123.156 68.195 122.641 c 68.195 122.125 68.195 121.594 68.289 121.219
 c 68.445 120.672 68.883 120.516 69.18 120.516 c 69.555 120.516 69.914 120.75
 70.039 121.156 c 70.148 121.531 70.164 122.031 70.164 122.641 c 70.164 
123.156 70.164 123.672 70.07 124.109 c 69.93 124.75 69.461 124.891 69.18
 124.891 c h
69.18 124.891 m f
9.66 65.215 m 9.301 65.324 9.129 65.652 9.129 65.902 c 9.129 66.121 9.285
 66.371 9.613 66.371 c 9.973 66.371 10.332 66.074 10.332 65.59 c 10.332 
65.059 9.816 64.715 9.207 64.715 c 8.629 64.715 8.27 65.137 8.129 65.324
 c 7.879 64.902 7.332 64.715 6.754 64.715 c 5.504 64.715 4.832 65.934 4.832
 66.262 c 4.832 66.402 4.973 66.402 5.066 66.402 c 5.191 66.402 5.254 66.402
 5.301 66.277 c 5.582 65.371 6.301 65.074 6.707 65.074 c 7.082 65.074 7.27
 65.246 7.27 65.559 c 7.27 65.762 7.129 66.309 7.035 66.668 c 6.691 68.027
 l 6.551 68.637 6.191 68.934 5.848 68.934 c 5.801 68.934 5.566 68.934 5.379
 68.793 c 5.738 68.684 5.91 68.34 5.91 68.105 c 5.91 67.887 5.738 67.637
 5.41 67.637 c 5.066 67.637 4.691 67.934 4.691 68.418 c 4.691 68.949 5.223
 69.293 5.832 69.293 c 6.395 69.293 6.77 68.871 6.895 68.684 c 7.145 69.105
 7.707 69.293 8.27 69.293 c 9.535 69.293 10.207 68.074 10.207 67.746 c 10.207
 67.605 10.051 67.605 9.973 67.605 c 9.848 67.605 9.785 67.605 9.738 67.73
 c 9.457 68.637 8.738 68.934 8.316 68.934 c 7.941 68.934 7.77 68.762 7.77
 68.434 c 7.77 68.23 7.895 67.699 7.988 67.324 c 8.051 67.074 8.285 66.137
 8.332 65.98 c 8.488 65.371 8.832 65.074 9.176 65.074 c 9.238 65.074 9.457
 65.074 9.66 65.215 c h
9.66 65.215 m f
14.18 71.605 m 14.18 71.574 14.18 71.559 14.008 71.387 c 12.773 70.137 
12.445 68.246 12.445 66.715 c 12.445 64.98 12.82 63.246 14.055 62.012 c 
14.18 61.887 14.18 61.871 14.18 61.84 c 14.18 61.762 14.148 61.73 14.086
 61.73 c 13.977 61.73 13.086 62.418 12.492 63.684 c 11.992 64.777 11.867
 65.887 11.867 66.715 c 11.867 67.496 11.977 68.699 12.523 69.84 c 13.133
 71.059 13.977 71.715 14.086 71.715 c 14.148 71.715 14.18 71.684 14.18 71.605
 c h
14.18 71.605 m f
16.805 65.23 m 17.742 65.23 l 17.945 65.23 18.055 65.23 18.055 65.027 c
 18.055 64.918 17.945 64.918 17.773 64.918 c 16.898 64.918 l 17.258 63.496
 17.305 63.309 17.305 63.246 c 17.305 63.074 17.18 62.98 17.008 62.98 c 
16.977 62.98 16.695 62.98 16.617 63.34 c 16.227 64.918 l 15.289 64.918 l
 15.086 64.918 14.992 64.918 14.992 65.105 c 14.992 65.23 15.07 65.23 15.273
 65.23 c 16.148 65.23 l 15.43 68.059 15.383 68.23 15.383 68.402 c 15.383
 68.949 15.758 69.324 16.305 69.324 c 17.32 69.324 17.883 67.871 17.883 
67.793 c 17.883 67.684 17.805 67.684 17.773 67.684 c 17.68 67.684 17.664
 67.715 17.617 67.824 c 17.195 68.871 16.664 69.105 16.32 69.105 c 16.117
 69.105 16.008 68.98 16.008 68.652 c 16.008 68.402 16.039 68.34 16.07 68.168
 c h
16.805 65.23 m f
21.949 68.492 m 21.949 67.727 21.855 67.164 21.543 66.68 c 21.324 66.367
 20.887 66.086 20.34 66.086 c 18.715 66.086 18.715 67.992 18.715 68.492 
c 18.715 68.992 18.715 70.852 20.34 70.852 c 21.949 70.852 21.949 68.992
 21.949 68.492 c h
20.34 70.648 m 20.012 70.648 19.59 70.461 19.449 69.898 c 19.355 69.492
 19.355 68.914 19.355 68.398 c 19.355 67.883 19.355 67.352 19.449 66.977
 c 19.605 66.43 20.043 66.273 20.34 66.273 c 20.715 66.273 21.074 66.508
 21.199 66.914 c 21.309 67.289 21.324 67.789 21.324 68.398 c 21.324 68.914
 21.324 69.43 21.23 69.867 c 21.09 70.508 20.621 70.648 20.34 70.648 c h
20.34 70.648 m f
25.699 66.715 m 25.699 65.949 25.59 64.746 25.043 63.605 c 24.449 62.387
 23.59 61.73 23.496 61.73 c 23.434 61.73 23.387 61.777 23.387 61.84 c 23.387
 61.871 23.387 61.887 23.574 62.074 c 24.559 63.059 25.121 64.637 25.121
 66.715 c 25.121 68.434 24.762 70.184 23.527 71.434 c 23.387 71.559 23.387
 71.574 23.387 71.605 c 23.387 71.668 23.434 71.715 23.496 71.715 c 23.59
 71.715 24.496 71.027 25.074 69.762 c 25.59 68.668 25.699 67.559 25.699 
66.715 c h
25.699 66.715 m f
106.086 36.211 m 105.727 36.32 105.555 36.648 105.555 36.898 c 105.555 
37.117 105.711 37.367 106.039 37.367 c 106.398 37.367 106.758 37.07 106.758
 36.586 c 106.758 36.055 106.242 35.711 105.633 35.711 c 105.055 35.711 
104.695 36.133 104.555 36.32 c 104.305 35.898 103.758 35.711 103.18 35.711
 c 101.93 35.711 101.258 36.93 101.258 37.258 c 101.258 37.398 101.398 37.398
 101.492 37.398 c 101.617 37.398 101.68 37.398 101.727 37.273 c 102.008 
36.367 102.727 36.07 103.133 36.07 c 103.508 36.07 103.695 36.242 103.695
 36.555 c 103.695 36.758 103.555 37.305 103.461 37.664 c 103.117 39.023 
l 102.977 39.633 102.617 39.93 102.273 39.93 c 102.227 39.93 101.992 39.93
 101.805 39.789 c 102.164 39.68 102.336 39.336 102.336 39.102 c 102.336 
38.883 102.164 38.633 101.836 38.633 c 101.492 38.633 101.117 38.93 101.117
 39.414 c 101.117 39.945 101.648 40.289 102.258 40.289 c 102.82 40.289 103.195
 39.867 103.32 39.68 c 103.57 40.102 104.133 40.289 104.695 40.289 c 105.961
 40.289 106.633 39.07 106.633 38.742 c 106.633 38.602 106.477 38.602 106.398
 38.602 c 106.273 38.602 106.211 38.602 106.164 38.727 c 105.883 39.633 
105.164 39.93 104.742 39.93 c 104.367 39.93 104.195 39.758 104.195 39.43
 c 104.195 39.227 104.32 38.695 104.414 38.32 c 104.477 38.07 104.711 37.133
 104.758 36.977 c 104.914 36.367 105.258 36.07 105.602 36.07 c 105.664 36.07
 105.883 36.07 106.086 36.211 c h
106.086 36.211 m f
110.602 42.602 m 110.602 42.57 110.602 42.555 110.43 42.383 c 109.195 41.133
 108.867 39.242 108.867 37.711 c 108.867 35.977 109.242 34.242 110.477 33.008
 c 110.602 32.883 110.602 32.867 110.602 32.836 c 110.602 32.758 110.57 
32.727 110.508 32.727 c 110.398 32.727 109.508 33.414 108.914 34.68 c 108.414
 35.773 108.289 36.883 108.289 37.711 c 108.289 38.492 108.398 39.695 108.945
 40.836 c 109.555 42.055 110.398 42.711 110.508 42.711 c 110.57 42.711 110.602
 42.68 110.602 42.602 c h
110.602 42.602 m f
113.227 36.227 m 114.164 36.227 l 114.367 36.227 114.477 36.227 114.477
 36.023 c 114.477 35.914 114.367 35.914 114.195 35.914 c 113.32 35.914 l
 113.68 34.492 113.727 34.305 113.727 34.242 c 113.727 34.07 113.602 33.977
 113.43 33.977 c 113.398 33.977 113.117 33.977 113.039 34.336 c 112.648 
35.914 l 111.711 35.914 l 111.508 35.914 111.414 35.914 111.414 36.102 c
 111.414 36.227 111.492 36.227 111.695 36.227 c 112.57 36.227 l 111.852 
39.055 111.805 39.227 111.805 39.398 c 111.805 39.945 112.18 40.32 112.727
 40.32 c 113.742 40.32 114.305 38.867 114.305 38.789 c 114.305 38.68 114.227
 38.68 114.195 38.68 c 114.102 38.68 114.086 38.711 114.039 38.82 c 113.617
 39.867 113.086 40.102 112.742 40.102 c 112.539 40.102 112.43 39.977 112.43
 39.648 c 112.43 39.398 112.461 39.336 112.492 39.164 c h
113.227 36.227 m f
117.652 37.711 m 117.652 36.945 117.543 35.742 116.996 34.602 c 116.402
 33.383 115.543 32.727 115.449 32.727 c 115.387 32.727 115.34 32.773 115.34
 32.836 c 115.34 32.867 115.34 32.883 115.527 33.07 c 116.512 34.055 117.074
 35.633 117.074 37.711 c 117.074 39.43 116.715 41.18 115.48 42.43 c 115.34
 42.555 115.34 42.57 115.34 42.602 c 115.34 42.664 115.387 42.711 115.449
 42.711 c 115.543 42.711 116.449 42.023 117.027 40.758 c 117.543 39.664 
117.652 38.555 117.652 37.711 c h
117.652 37.711 m f
109.516 76.906 m 109.156 77.016 108.984 77.344 108.984 77.594 c 108.984
 77.813 109.141 78.063 109.469 78.063 c 109.828 78.063 110.188 77.766 110.188
 77.281 c 110.188 76.75 109.672 76.406 109.063 76.406 c 108.484 76.406 108.125
 76.828 107.984 77.016 c 107.734 76.594 107.188 76.406 106.609 76.406 c 
105.359 76.406 104.688 77.625 104.688 77.953 c 104.688 78.094 104.828 78.094
 104.922 78.094 c 105.047 78.094 105.109 78.094 105.156 77.969 c 105.438
 77.063 106.156 76.766 106.563 76.766 c 106.938 76.766 107.125 76.938 107.125
 77.25 c 107.125 77.453 106.984 78 106.891 78.359 c 106.547 79.719 l 106.406
 80.328 106.047 80.625 105.703 80.625 c 105.656 80.625 105.422 80.625 105.234
 80.484 c 105.594 80.375 105.766 80.031 105.766 79.797 c 105.766 79.578 
105.594 79.328 105.266 79.328 c 104.922 79.328 104.547 79.625 104.547 80.109
 c 104.547 80.641 105.078 80.984 105.688 80.984 c 106.25 80.984 106.625 
80.563 106.75 80.375 c 107 80.797 107.563 80.984 108.125 80.984 c 109.391
 80.984 110.063 79.766 110.063 79.438 c 110.063 79.297 109.906 79.297 109.828
 79.297 c 109.703 79.297 109.641 79.297 109.594 79.422 c 109.313 80.328 
108.594 80.625 108.172 80.625 c 107.797 80.625 107.625 80.453 107.625 80.125
 c 107.625 79.922 107.75 79.391 107.844 79.016 c 107.906 78.766 108.141 
77.828 108.188 77.672 c 108.344 77.063 108.688 76.766 109.031 76.766 c 109.094
 76.766 109.313 76.766 109.516 76.906 c h
109.516 76.906 m f
112.988 75.559 m 113.566 75.309 113.816 75.215 113.988 75.121 c 114.129
 75.074 114.191 75.043 114.191 74.902 c 114.191 74.793 114.098 74.684 113.973
 74.684 c 113.926 74.684 113.91 74.684 113.832 74.746 c 112.879 75.387 l
 112.988 74.355 l 113.004 74.23 112.988 74.059 112.77 74.059 c 112.691 74.059
 112.551 74.105 112.551 74.262 c 112.551 74.324 112.582 74.527 112.598 74.605
 c 112.613 74.715 112.66 75.23 112.676 75.387 c 111.723 74.746 l 111.66 
74.715 111.645 74.684 111.582 74.684 c 111.441 74.684 111.363 74.793 111.363
 74.902 c 111.363 75.043 111.441 75.09 111.504 75.105 c 112.551 75.559 l
 111.988 75.809 111.723 75.902 111.551 75.98 c 111.426 76.043 111.363 76.074
 111.363 76.199 c 111.363 76.324 111.441 76.418 111.582 76.418 c 111.629
 76.418 111.645 76.418 111.723 76.355 c 112.676 75.73 l 112.551 76.84 l 
112.551 76.996 112.691 77.059 112.77 77.059 c 112.863 77.059 112.988 76.996
 112.988 76.84 c 112.988 76.777 112.957 76.574 112.957 76.512 c 112.941 
76.387 112.895 75.887 112.879 75.73 c 113.707 76.277 l 113.895 76.418 113.91
 76.418 113.973 76.418 c 114.098 76.418 114.191 76.324 114.191 76.199 c 
114.191 76.059 114.098 76.027 114.035 75.996 c h
112.988 75.559 m f
118.613 83.297 m 118.613 83.266 118.613 83.25 118.441 83.078 c 117.207 
81.828 116.879 79.938 116.879 78.406 c 116.879 76.672 117.254 74.938 118.488
 73.703 c 118.613 73.578 118.613 73.563 118.613 73.531 c 118.613 73.453 
118.582 73.422 118.52 73.422 c 118.41 73.422 117.52 74.109 116.926 75.375
 c 116.426 76.469 116.301 77.578 116.301 78.406 c 116.301 79.188 116.41 
80.391 116.957 81.531 c 117.566 82.75 118.41 83.406 118.52 83.406 c 118.582
 83.406 118.613 83.375 118.613 83.297 c h
118.613 83.297 m f
121.238 76.922 m 122.176 76.922 l 122.379 76.922 122.488 76.922 122.488
 76.719 c 122.488 76.609 122.379 76.609 122.207 76.609 c 121.332 76.609 
l 121.691 75.188 121.738 75 121.738 74.938 c 121.738 74.766 121.613 74.672
 121.441 74.672 c 121.41 74.672 121.129 74.672 121.051 75.031 c 120.66 76.609
 l 119.723 76.609 l 119.52 76.609 119.426 76.609 119.426 76.797 c 119.426
 76.922 119.504 76.922 119.707 76.922 c 120.582 76.922 l 119.863 79.75 119.816
 79.922 119.816 80.094 c 119.816 80.641 120.191 81.016 120.738 81.016 c 
121.754 81.016 122.316 79.563 122.316 79.484 c 122.316 79.375 122.238 79.375
 122.207 79.375 c 122.113 79.375 122.098 79.406 122.051 79.516 c 121.629
 80.563 121.098 80.797 120.754 80.797 c 120.551 80.797 120.441 80.672 120.441
 80.344 c 120.441 80.094 120.473 80.031 120.504 79.859 c h
121.238 76.922 m f
125.664 78.406 m 125.664 77.641 125.555 76.438 125.008 75.297 c 124.414
 74.078 123.555 73.422 123.461 73.422 c 123.398 73.422 123.352 73.469 123.352
 73.531 c 123.352 73.563 123.352 73.578 123.539 73.766 c 124.523 74.75 125.086
 76.328 125.086 78.406 c 125.086 80.125 124.727 81.875 123.492 83.125 c 
123.352 83.25 123.352 83.266 123.352 83.297 c 123.352 83.359 123.398 83.406
 123.461 83.406 c 123.555 83.406 124.461 82.719 125.039 81.453 c 125.555
 80.359 125.664 79.25 125.664 78.406 c h
125.664 78.406 m f
4.969 112.563 m 4.609 112.672 4.438 113 4.438 113.25 c 4.438 113.469 4.594
 113.719 4.922 113.719 c 5.281 113.719 5.641 113.422 5.641 112.938 c 5.641
 112.406 5.125 112.063 4.516 112.063 c 3.938 112.063 3.578 112.484 3.438
 112.672 c 3.188 112.25 2.641 112.063 2.063 112.063 c 0.813 112.063 0.141
 113.281 0.141 113.609 c 0.141 113.75 0.281 113.75 0.375 113.75 c 0.5 113.75
 0.563 113.75 0.609 113.625 c 0.891 112.719 1.609 112.422 2.016 112.422 
c 2.391 112.422 2.578 112.594 2.578 112.906 c 2.578 113.109 2.438 113.656
 2.344 114.016 c 2 115.375 l 1.859 115.984 1.5 116.281 1.156 116.281 c 1.109
 116.281 0.875 116.281 0.688 116.141 c 1.047 116.031 1.219 115.688 1.219
 115.453 c 1.219 115.234 1.047 114.984 0.719 114.984 c 0.375 114.984 0 115.281
 0 115.766 c 0 116.297 0.531 116.641 1.141 116.641 c 1.703 116.641 2.078
 116.219 2.203 116.031 c 2.453 116.453 3.016 116.641 3.578 116.641 c 4.844
 116.641 5.516 115.422 5.516 115.094 c 5.516 114.953 5.359 114.953 5.281
 114.953 c 5.156 114.953 5.094 114.953 5.047 115.078 c 4.766 115.984 4.047
 116.281 3.625 116.281 c 3.25 116.281 3.078 116.109 3.078 115.781 c 3.078
 115.578 3.203 115.047 3.297 114.672 c 3.359 114.422 3.594 113.484 3.641
 113.328 c 3.797 112.719 4.141 112.422 4.484 112.422 c 4.547 112.422 4.766
 112.422 4.969 112.563 c h
4.969 112.563 m f
8.441 111.211 m 9.02 110.961 9.27 110.867 9.441 110.773 c 9.582 110.727
 9.645 110.695 9.645 110.555 c 9.645 110.445 9.551 110.336 9.426 110.336
 c 9.379 110.336 9.363 110.336 9.285 110.398 c 8.332 111.039 l 8.441 110.008
 l 8.457 109.883 8.441 109.711 8.223 109.711 c 8.145 109.711 8.004 109.758
 8.004 109.914 c 8.004 109.977 8.035 110.18 8.051 110.258 c 8.066 110.367
 8.113 110.883 8.129 111.039 c 7.176 110.398 l 7.113 110.367 7.098 110.336
 7.035 110.336 c 6.895 110.336 6.816 110.445 6.816 110.555 c 6.816 110.695
 6.895 110.742 6.957 110.758 c 8.004 111.211 l 7.441 111.461 7.176 111.555
 7.004 111.633 c 6.879 111.695 6.816 111.727 6.816 111.852 c 6.816 111.977
 6.895 112.07 7.035 112.07 c 7.082 112.07 7.098 112.07 7.176 112.008 c 8.129
 111.383 l 8.004 112.492 l 8.004 112.648 8.145 112.711 8.223 112.711 c 8.316
 112.711 8.441 112.648 8.441 112.492 c 8.441 112.43 8.41 112.227 8.41 112.164
 c 8.395 112.039 8.348 111.539 8.332 111.383 c 9.16 111.93 l 9.348 112.07
 9.363 112.07 9.426 112.07 c 9.551 112.07 9.645 111.977 9.645 111.852 c 
9.645 111.711 9.551 111.68 9.488 111.648 c h
8.441 111.211 m f
14.066 118.953 m 14.066 118.922 14.066 118.906 13.895 118.734 c 12.66 117.484
 12.332 115.594 12.332 114.063 c 12.332 112.328 12.707 110.594 13.941 109.359
 c 14.066 109.234 14.066 109.219 14.066 109.188 c 14.066 109.109 14.035 
109.078 13.973 109.078 c 13.863 109.078 12.973 109.766 12.379 111.031 c 
11.879 112.125 11.754 113.234 11.754 114.063 c 11.754 114.844 11.863 116.047
 12.41 117.188 c 13.02 118.406 13.863 119.063 13.973 119.063 c 14.035 119.063
 14.066 119.031 14.066 118.953 c h
14.066 118.953 m f
16.691 112.578 m 17.629 112.578 l 17.832 112.578 17.941 112.578 17.941 
112.375 c 17.941 112.266 17.832 112.266 17.66 112.266 c 16.785 112.266 l
 17.145 110.844 17.191 110.656 17.191 110.594 c 17.191 110.422 17.066 110.328
 16.895 110.328 c 16.863 110.328 16.582 110.328 16.504 110.688 c 16.113 
112.266 l 15.176 112.266 l 14.973 112.266 14.879 112.266 14.879 112.453 
c 14.879 112.578 14.957 112.578 15.16 112.578 c 16.035 112.578 l 15.316 
115.406 15.27 115.578 15.27 115.75 c 15.27 116.297 15.645 116.672 16.191
 116.672 c 17.207 116.672 17.77 115.219 17.77 115.141 c 17.77 115.031 17.691
 115.031 17.66 115.031 c 17.566 115.031 17.551 115.063 17.504 115.172 c 
17.082 116.219 16.551 116.453 16.207 116.453 c 16.004 116.453 15.895 116.328
 15.895 116 c 15.895 115.75 15.926 115.688 15.957 115.516 c h
16.691 112.578 m f
20.492 111.211 m 21.07 110.961 21.32 110.867 21.492 110.773 c 21.633 110.727
 21.695 110.695 21.695 110.555 c 21.695 110.445 21.602 110.336 21.477 110.336
 c 21.43 110.336 21.414 110.336 21.336 110.398 c 20.383 111.039 l 20.492
 110.008 l 20.508 109.883 20.492 109.711 20.273 109.711 c 20.195 109.711
 20.055 109.758 20.055 109.914 c 20.055 109.977 20.086 110.18 20.102 110.258
 c 20.117 110.367 20.164 110.883 20.18 111.039 c 19.227 110.398 l 19.164
 110.367 19.148 110.336 19.086 110.336 c 18.945 110.336 18.867 110.445 18.867
 110.555 c 18.867 110.695 18.945 110.742 19.008 110.758 c 20.055 111.211
 l 19.492 111.461 19.227 111.555 19.055 111.633 c 18.93 111.695 18.867 111.727
 18.867 111.852 c 18.867 111.977 18.945 112.07 19.086 112.07 c 19.133 112.07
 19.148 112.07 19.227 112.008 c 20.18 111.383 l 20.055 112.492 l 20.055 
112.648 20.195 112.711 20.273 112.711 c 20.367 112.711 20.492 112.648 20.492
 112.492 c 20.492 112.43 20.461 112.227 20.461 112.164 c 20.445 112.039 
20.398 111.539 20.383 111.383 c 21.211 111.93 l 21.398 112.07 21.414 112.07
 21.477 112.07 c 21.602 112.07 21.695 111.977 21.695 111.852 c 21.695 111.711
 21.602 111.68 21.539 111.648 c h
20.492 111.211 m f
21.836 116.816 m 21.836 116.051 21.742 115.488 21.43 115.004 c 21.211 114.691
 20.773 114.41 20.227 114.41 c 18.602 114.41 18.602 116.316 18.602 116.816
 c 18.602 117.316 18.602 119.176 20.227 119.176 c 21.836 119.176 21.836 
117.316 21.836 116.816 c h
20.227 118.973 m 19.898 118.973 19.477 118.785 19.336 118.223 c 19.242 
117.816 19.242 117.238 19.242 116.723 c 19.242 116.207 19.242 115.676 19.336
 115.301 c 19.492 114.754 19.93 114.598 20.227 114.598 c 20.602 114.598 
20.961 114.832 21.086 115.238 c 21.195 115.613 21.211 116.113 21.211 116.723
 c 21.211 117.238 21.211 117.754 21.117 118.191 c 20.977 118.832 20.508 
118.973 20.227 118.973 c h
20.227 118.973 m f
25.699 114.063 m 25.699 113.297 25.59 112.094 25.043 110.953 c 24.449 109.734
 23.59 109.078 23.496 109.078 c 23.434 109.078 23.387 109.125 23.387 109.188
 c 23.387 109.219 23.387 109.234 23.574 109.422 c 24.559 110.406 25.121 
111.984 25.121 114.063 c 25.121 115.781 24.762 117.531 23.527 118.781 c 
23.387 118.906 23.387 118.922 23.387 118.953 c 23.387 119.016 23.434 119.063
 23.496 119.063 c 23.59 119.063 24.496 118.375 25.074 117.109 c 25.59 116.016
 25.699 114.906 25.699 114.063 c h
25.699 114.063 m f
40.371 88.91 m 39.137 89.207 38.168 90.504 38.168 91.707 c 38.168 92.676
 38.809 93.395 39.746 93.395 c 40.902 93.395 41.73 91.816 41.73 90.441 c
 41.73 89.535 41.34 89.035 40.996 88.598 c 40.637 88.145 40.043 87.395 40.043
 86.957 c 40.043 86.738 40.246 86.504 40.59 86.504 c 40.902 86.504 41.09
 86.629 41.309 86.77 c 41.512 86.895 41.699 87.02 41.855 87.02 c 42.105 
87.02 42.246 86.785 42.246 86.613 c 42.246 86.395 42.09 86.379 41.73 86.285
 c 41.215 86.176 41.074 86.176 40.918 86.176 c 40.137 86.176 39.777 86.613
 39.777 87.207 c 39.777 87.754 40.074 88.301 40.371 88.91 c h
40.496 89.129 m 40.746 89.598 41.043 90.129 41.043 90.848 c 41.043 91.504
 40.668 93.176 39.746 93.176 c 39.199 93.176 38.777 92.754 38.777 91.988
 c 38.777 91.363 39.152 89.488 40.496 89.129 c h
40.496 89.129 m f
47.895 89.27 m 47.535 89.379 47.363 89.707 47.363 89.957 c 47.363 90.176
 47.52 90.426 47.848 90.426 c 48.207 90.426 48.566 90.129 48.566 89.645 
c 48.566 89.113 48.051 88.77 47.441 88.77 c 46.863 88.77 46.504 89.191 46.363
 89.379 c 46.113 88.957 45.566 88.77 44.988 88.77 c 43.738 88.77 43.066 
89.988 43.066 90.316 c 43.066 90.457 43.207 90.457 43.301 90.457 c 43.426
 90.457 43.488 90.457 43.535 90.332 c 43.816 89.426 44.535 89.129 44.941
 89.129 c 45.316 89.129 45.504 89.301 45.504 89.613 c 45.504 89.816 45.363
 90.363 45.27 90.723 c 44.926 92.082 l 44.785 92.691 44.426 92.988 44.082
 92.988 c 44.035 92.988 43.801 92.988 43.613 92.848 c 43.973 92.738 44.145
 92.395 44.145 92.16 c 44.145 91.941 43.973 91.691 43.645 91.691 c 43.301
 91.691 42.926 91.988 42.926 92.473 c 42.926 93.004 43.457 93.348 44.066
 93.348 c 44.629 93.348 45.004 92.926 45.129 92.738 c 45.379 93.16 45.941
 93.348 46.504 93.348 c 47.77 93.348 48.441 92.129 48.441 91.801 c 48.441
 91.66 48.285 91.66 48.207 91.66 c 48.082 91.66 48.02 91.66 47.973 91.785
 c 47.691 92.691 46.973 92.988 46.551 92.988 c 46.176 92.988 46.004 92.816
 46.004 92.488 c 46.004 92.285 46.129 91.754 46.223 91.379 c 46.285 91.129
 46.52 90.191 46.566 90.035 c 46.723 89.426 47.066 89.129 47.41 89.129 c
 47.473 89.129 47.691 89.129 47.895 89.27 c h
47.895 89.27 m f
52.711 92.547 m 52.711 91.781 52.617 91.219 52.305 90.734 c 52.086 90.422
 51.648 90.141 51.102 90.141 c 49.477 90.141 49.477 92.047 49.477 92.547
 c 49.477 93.047 49.477 94.906 51.102 94.906 c 52.711 94.906 52.711 93.047
 52.711 92.547 c h
51.102 94.703 m 50.773 94.703 50.352 94.516 50.211 93.953 c 50.117 93.547
 50.117 92.969 50.117 92.453 c 50.117 91.938 50.117 91.406 50.211 91.031
 c 50.367 90.484 50.805 90.328 51.102 90.328 c 51.477 90.328 51.836 90.563
 51.961 90.969 c 52.07 91.344 52.086 91.844 52.086 92.453 c 52.086 92.969
 52.086 93.484 51.992 93.922 c 51.852 94.563 51.383 94.703 51.102 94.703
 c h
51.102 94.703 m f
146.688 137.445 m 147.625 137.445 l 147.828 137.445 147.938 137.445 147.938
 137.242 c 147.938 137.133 147.828 137.133 147.656 137.133 c 146.781 137.133
 l 147.141 135.711 147.188 135.523 147.188 135.461 c 147.188 135.289 147.063
 135.195 146.891 135.195 c 146.859 135.195 146.578 135.195 146.5 135.555
 c 146.109 137.133 l 145.172 137.133 l 144.969 137.133 144.875 137.133 144.875
 137.32 c 144.875 137.445 144.953 137.445 145.156 137.445 c 146.031 137.445
 l 145.313 140.273 145.266 140.445 145.266 140.617 c 145.266 141.164 145.641
 141.539 146.188 141.539 c 147.203 141.539 147.766 140.086 147.766 140.008
 c 147.766 139.898 147.688 139.898 147.656 139.898 c 147.563 139.898 147.547
 139.93 147.5 140.039 c 147.078 141.086 146.547 141.32 146.203 141.32 c 
146 141.32 145.891 141.195 145.891 140.867 c 145.891 140.617 145.922 140.555
 145.953 140.383 c h
146.688 137.445 m f
151.082 140.176 m 151.754 140.176 l 151.895 140.176 151.988 140.176 151.988
 140.02 c 151.988 139.926 151.895 139.926 151.77 139.926 c 151.129 139.926
 l 151.285 139.035 151.332 138.723 151.395 138.52 c 151.426 138.363 151.582
 138.223 151.754 138.223 c 151.754 138.223 151.941 138.223 152.082 138.301
 c 151.785 138.395 151.77 138.645 151.77 138.676 c 151.77 138.832 151.895
 138.941 152.051 138.941 c 152.238 138.941 152.441 138.785 152.441 138.52
 c 152.441 138.191 152.113 138.02 151.754 138.02 c 151.441 138.02 151.098
 138.191 150.91 138.535 c 150.77 138.801 150.723 139.113 150.566 139.926
 c 150.02 139.926 l 149.879 139.926 149.785 139.926 149.785 140.082 c 149.785
 140.176 149.879 140.176 150.004 140.176 c 150.52 140.176 l 150.52 140.223
 150.082 142.723 149.91 143.473 c 149.879 143.629 149.754 144.145 149.426
 144.145 c 149.41 144.145 149.254 144.145 149.113 144.066 c 149.395 143.973
 149.426 143.723 149.426 143.691 c 149.426 143.535 149.301 143.426 149.145
 143.426 c 148.957 143.426 148.754 143.582 148.754 143.848 c 148.754 144.16
 149.082 144.348 149.426 144.348 c 149.863 144.348 150.176 143.895 150.254
 143.738 c 150.504 143.27 150.676 142.41 150.691 142.332 c h
151.082 140.176 m f
163.012 138.164 m 163.168 138.164 163.355 138.164 163.355 137.977 c 163.355
 137.773 163.168 137.773 163.027 137.773 c 157.059 137.773 l 156.918 137.773
 156.73 137.773 156.73 137.977 c 156.73 138.164 156.918 138.164 157.059 
138.164 c h
163.027 140.102 m 163.168 140.102 163.355 140.102 163.355 139.898 c 163.355
 139.711 163.168 139.711 163.012 139.711 c 157.059 139.711 l 156.918 139.711
 156.73 139.711 156.73 139.898 c 156.73 140.102 156.918 140.102 157.059 
140.102 c h
163.027 140.102 m f
168.73 137.445 m 169.668 137.445 l 169.871 137.445 169.98 137.445 169.98
 137.242 c 169.98 137.133 169.871 137.133 169.699 137.133 c 168.824 137.133
 l 169.184 135.711 169.23 135.523 169.23 135.461 c 169.23 135.289 169.105
 135.195 168.934 135.195 c 168.902 135.195 168.621 135.195 168.543 135.555
 c 168.152 137.133 l 167.215 137.133 l 167.012 137.133 166.918 137.133 166.918
 137.32 c 166.918 137.445 166.996 137.445 167.199 137.445 c 168.074 137.445
 l 167.355 140.273 167.309 140.445 167.309 140.617 c 167.309 141.164 167.684
 141.539 168.23 141.539 c 169.246 141.539 169.809 140.086 169.809 140.008
 c 169.809 139.898 169.73 139.898 169.699 139.898 c 169.605 139.898 169.59
 139.93 169.543 140.039 c 169.121 141.086 168.59 141.32 168.246 141.32 c
 168.043 141.32 167.934 141.195 167.934 140.867 c 167.934 140.617 167.965
 140.555 167.996 140.383 c h
168.73 137.445 m f
172.535 136.082 m 173.113 135.832 173.363 135.738 173.535 135.645 c 173.676
 135.598 173.738 135.566 173.738 135.426 c 173.738 135.316 173.645 135.207
 173.52 135.207 c 173.473 135.207 173.457 135.207 173.379 135.27 c 172.426
 135.91 l 172.535 134.879 l 172.551 134.754 172.535 134.582 172.316 134.582
 c 172.238 134.582 172.098 134.629 172.098 134.785 c 172.098 134.848 172.129
 135.051 172.145 135.129 c 172.16 135.238 172.207 135.754 172.223 135.91
 c 171.27 135.27 l 171.207 135.238 171.191 135.207 171.129 135.207 c 170.988
 135.207 170.91 135.316 170.91 135.426 c 170.91 135.566 170.988 135.613 
171.051 135.629 c 172.098 136.082 l 171.535 136.332 171.27 136.426 171.098
 136.504 c 170.973 136.566 170.91 136.598 170.91 136.723 c 170.91 136.848
 170.988 136.941 171.129 136.941 c 171.176 136.941 171.191 136.941 171.27
 136.879 c 172.223 136.254 l 172.098 137.363 l 172.098 137.52 172.238 137.582
 172.316 137.582 c 172.41 137.582 172.535 137.52 172.535 137.363 c 172.535
 137.301 172.504 137.098 172.504 137.035 c 172.488 136.91 172.441 136.41
 172.426 136.254 c 173.254 136.801 l 173.441 136.941 173.457 136.941 173.52
 136.941 c 173.645 136.941 173.738 136.848 173.738 136.723 c 173.738 136.582
 173.645 136.551 173.582 136.52 c h
172.535 136.082 m f
173.129 141.504 m 173.801 141.504 l 173.941 141.504 174.035 141.504 174.035
 141.348 c 174.035 141.254 173.941 141.254 173.816 141.254 c 173.176 141.254
 l 173.332 140.363 173.379 140.051 173.441 139.848 c 173.473 139.691 173.629
 139.551 173.801 139.551 c 173.801 139.551 173.988 139.551 174.129 139.629
 c 173.832 139.723 173.816 139.973 173.816 140.004 c 173.816 140.16 173.941
 140.27 174.098 140.27 c 174.285 140.27 174.488 140.113 174.488 139.848 
c 174.488 139.52 174.16 139.348 173.801 139.348 c 173.488 139.348 173.145
 139.52 172.957 139.863 c 172.816 140.129 172.77 140.441 172.613 141.254
 c 172.066 141.254 l 171.926 141.254 171.832 141.254 171.832 141.41 c 171.832
 141.504 171.926 141.504 172.051 141.504 c 172.566 141.504 l 172.566 141.551
 172.129 144.051 171.957 144.801 c 171.926 144.957 171.801 145.473 171.473
 145.473 c 171.457 145.473 171.301 145.473 171.16 145.395 c 171.441 145.301
 171.473 145.051 171.473 145.02 c 171.473 144.863 171.348 144.754 171.191
 144.754 c 171.004 144.754 170.801 144.91 170.801 145.176 c 170.801 145.488
 171.129 145.676 171.473 145.676 c 171.91 145.676 172.223 145.223 172.301
 145.066 c 172.551 144.598 172.723 143.738 172.738 143.66 c h
173.129 141.504 m f
166.512 23.285 m 165.277 23.582 164.309 24.879 164.309 26.082 c 164.309
 27.051 164.949 27.77 165.887 27.77 c 167.043 27.77 167.871 26.191 167.871
 24.816 c 167.871 23.91 167.48 23.41 167.137 22.973 c 166.777 22.52 166.184
 21.77 166.184 21.332 c 166.184 21.113 166.387 20.879 166.73 20.879 c 167.043
 20.879 167.23 21.004 167.449 21.145 c 167.652 21.27 167.84 21.395 167.996
 21.395 c 168.246 21.395 168.387 21.16 168.387 20.988 c 168.387 20.77 168.23
 20.754 167.871 20.66 c 167.355 20.551 167.215 20.551 167.059 20.551 c 166.277
 20.551 165.918 20.988 165.918 21.582 c 165.918 22.129 166.215 22.676 166.512
 23.285 c h
166.637 23.504 m 166.887 23.973 167.184 24.504 167.184 25.223 c 167.184
 25.879 166.809 27.551 165.887 27.551 c 165.34 27.551 164.918 27.129 164.918
 26.363 c 164.918 25.738 165.293 23.863 166.637 23.504 c h
166.637 23.504 m f
170.742 23.66 m 171.68 23.66 l 171.883 23.66 171.992 23.66 171.992 23.457
 c 171.992 23.348 171.883 23.348 171.711 23.348 c 170.836 23.348 l 171.195
 21.926 171.242 21.738 171.242 21.676 c 171.242 21.504 171.117 21.41 170.945
 21.41 c 170.914 21.41 170.633 21.41 170.555 21.77 c 170.164 23.348 l 169.227
 23.348 l 169.023 23.348 168.93 23.348 168.93 23.535 c 168.93 23.66 169.008
 23.66 169.211 23.66 c 170.086 23.66 l 169.367 26.488 169.32 26.66 169.32
 26.832 c 169.32 27.379 169.695 27.754 170.242 27.754 c 171.258 27.754 171.82
 26.301 171.82 26.223 c 171.82 26.113 171.742 26.113 171.711 26.113 c 171.617
 26.113 171.602 26.145 171.555 26.254 c 171.133 27.301 170.602 27.535 170.258
 27.535 c 170.055 27.535 169.945 27.41 169.945 27.082 c 169.945 26.832 169.977
 26.77 170.008 26.598 c h
170.742 23.66 m f
175.137 26.391 m 175.809 26.391 l 175.949 26.391 176.043 26.391 176.043
 26.234 c 176.043 26.141 175.949 26.141 175.824 26.141 c 175.184 26.141 
l 175.34 25.25 175.387 24.938 175.449 24.734 c 175.48 24.578 175.637 24.438
 175.809 24.438 c 175.809 24.438 175.996 24.438 176.137 24.516 c 175.84 
24.609 175.824 24.859 175.824 24.891 c 175.824 25.047 175.949 25.156 176.105
 25.156 c 176.293 25.156 176.496 25 176.496 24.734 c 176.496 24.406 176.168
 24.234 175.809 24.234 c 175.496 24.234 175.152 24.406 174.965 24.75 c 174.824
 25.016 174.777 25.328 174.621 26.141 c 174.074 26.141 l 173.934 26.141 
173.84 26.141 173.84 26.297 c 173.84 26.391 173.934 26.391 174.059 26.391
 c 174.574 26.391 l 174.574 26.438 174.137 28.938 173.965 29.688 c 173.934
 29.844 173.809 30.359 173.48 30.359 c 173.465 30.359 173.309 30.359 173.168
 30.281 c 173.449 30.188 173.48 29.938 173.48 29.906 c 173.48 29.75 173.355
 29.641 173.199 29.641 c 173.012 29.641 172.809 29.797 172.809 30.063 c 
172.809 30.375 173.137 30.563 173.48 30.563 c 173.918 30.563 174.23 30.109
 174.309 29.953 c 174.559 29.484 174.73 28.625 174.746 28.547 c h
175.137 26.391 m f
187.066 24.379 m 187.223 24.379 187.41 24.379 187.41 24.191 c 187.41 23.988
 187.223 23.988 187.082 23.988 c 181.113 23.988 l 180.973 23.988 180.785
 23.988 180.785 24.191 c 180.785 24.379 180.973 24.379 181.113 24.379 c 
h
187.082 26.316 m 187.223 26.316 187.41 26.316 187.41 26.113 c 187.41 25.926
 187.223 25.926 187.066 25.926 c 181.113 25.926 l 180.973 25.926 180.785
 25.926 180.785 26.113 c 180.785 26.316 180.973 26.316 181.113 26.316 c 
h
187.082 26.316 m f
195.32 24.457 m 195.32 23.66 195.273 22.863 194.93 22.129 c 194.477 21.16
 193.648 21.004 193.242 21.004 c 192.633 21.004 191.914 21.27 191.492 22.191
 c 191.18 22.879 191.133 23.66 191.133 24.457 c 191.133 25.207 191.164 26.098
 191.586 26.863 c 192.008 27.66 192.742 27.863 193.227 27.863 c 193.758 
27.863 194.523 27.66 194.961 26.707 c 195.273 26.02 195.32 25.238 195.32
 24.457 c h
193.227 27.645 m 192.836 27.645 192.242 27.395 192.07 26.441 c 191.961 
25.848 191.961 24.926 191.961 24.332 c 191.961 23.691 191.961 23.035 192.039
 22.504 c 192.227 21.316 192.977 21.223 193.227 21.223 c 193.555 21.223 
194.211 21.41 194.398 22.395 c 194.508 22.957 194.508 23.707 194.508 24.332
 c 194.508 25.082 194.508 25.754 194.398 26.395 c 194.242 27.348 193.68 
27.645 193.227 27.645 c h
193.227 27.645 m f
163.547 8.352 m 162.313 8.648 161.344 9.945 161.344 11.148 c 161.344 12.117
 161.984 12.836 162.922 12.836 c 164.078 12.836 164.906 11.258 164.906 9.883
 c 164.906 8.977 164.516 8.477 164.172 8.039 c 163.813 7.586 163.219 6.836
 163.219 6.398 c 163.219 6.18 163.422 5.945 163.766 5.945 c 164.078 5.945
 164.266 6.07 164.484 6.211 c 164.688 6.336 164.875 6.461 165.031 6.461 
c 165.281 6.461 165.422 6.227 165.422 6.055 c 165.422 5.836 165.266 5.82
 164.906 5.727 c 164.391 5.617 164.25 5.617 164.094 5.617 c 163.313 5.617
 162.953 6.055 162.953 6.648 c 162.953 7.195 163.25 7.742 163.547 8.352 
c h
163.672 8.57 m 163.922 9.039 164.219 9.57 164.219 10.289 c 164.219 10.945
 163.844 12.617 162.922 12.617 c 162.375 12.617 161.953 12.195 161.953 11.43
 c 161.953 10.805 162.328 8.93 163.672 8.57 c h
163.672 8.57 m f
171.07 8.711 m 170.711 8.82 170.539 9.148 170.539 9.398 c 170.539 9.617
 170.695 9.867 171.023 9.867 c 171.383 9.867 171.742 9.57 171.742 9.086 
c 171.742 8.555 171.227 8.211 170.617 8.211 c 170.039 8.211 169.68 8.633
 169.539 8.82 c 169.289 8.398 168.742 8.211 168.164 8.211 c 166.914 8.211
 166.242 9.43 166.242 9.758 c 166.242 9.898 166.383 9.898 166.477 9.898 
c 166.602 9.898 166.664 9.898 166.711 9.773 c 166.992 8.867 167.711 8.57
 168.117 8.57 c 168.492 8.57 168.68 8.742 168.68 9.055 c 168.68 9.258 168.539
 9.805 168.445 10.164 c 168.102 11.523 l 167.961 12.133 167.602 12.43 167.258
 12.43 c 167.211 12.43 166.977 12.43 166.789 12.289 c 167.148 12.18 167.32
 11.836 167.32 11.602 c 167.32 11.383 167.148 11.133 166.82 11.133 c 166.477
 11.133 166.102 11.43 166.102 11.914 c 166.102 12.445 166.633 12.789 167.242
 12.789 c 167.805 12.789 168.18 12.367 168.305 12.18 c 168.555 12.602 169.117
 12.789 169.68 12.789 c 170.945 12.789 171.617 11.57 171.617 11.242 c 171.617
 11.102 171.461 11.102 171.383 11.102 c 171.258 11.102 171.195 11.102 171.148
 11.227 c 170.867 12.133 170.148 12.43 169.727 12.43 c 169.352 12.43 169.18
 12.258 169.18 11.93 c 169.18 11.727 169.305 11.195 169.398 10.82 c 169.461
 10.57 169.695 9.633 169.742 9.477 c 169.898 8.867 170.242 8.57 170.586 
8.57 c 170.648 8.57 170.867 8.57 171.07 8.711 c h
171.07 8.711 m f
175.137 11.457 m 175.809 11.457 l 175.949 11.457 176.043 11.457 176.043
 11.301 c 176.043 11.207 175.949 11.207 175.824 11.207 c 175.184 11.207 
l 175.34 10.316 175.387 10.004 175.449 9.801 c 175.48 9.645 175.637 9.504
 175.809 9.504 c 175.809 9.504 175.996 9.504 176.137 9.582 c 175.84 9.676
 175.824 9.926 175.824 9.957 c 175.824 10.113 175.949 10.223 176.105 10.223
 c 176.293 10.223 176.496 10.066 176.496 9.801 c 176.496 9.473 176.168 9.301
 175.809 9.301 c 175.496 9.301 175.152 9.473 174.965 9.816 c 174.824 10.082
 174.777 10.395 174.621 11.207 c 174.074 11.207 l 173.934 11.207 173.84 
11.207 173.84 11.363 c 173.84 11.457 173.934 11.457 174.059 11.457 c 174.574
 11.457 l 174.574 11.504 174.137 14.004 173.965 14.754 c 173.934 14.91 173.809
 15.426 173.48 15.426 c 173.465 15.426 173.309 15.426 173.168 15.348 c 173.449
 15.254 173.48 15.004 173.48 14.973 c 173.48 14.816 173.355 14.707 173.199
 14.707 c 173.012 14.707 172.809 14.863 172.809 15.129 c 172.809 15.441 
173.137 15.629 173.48 15.629 c 173.918 15.629 174.23 15.176 174.309 15.02
 c 174.559 14.551 174.73 13.691 174.746 13.613 c h
175.137 11.457 m f
187.066 9.445 m 187.223 9.445 187.41 9.445 187.41 9.258 c 187.41 9.055 
187.223 9.055 187.082 9.055 c 181.113 9.055 l 180.973 9.055 180.785 9.055
 180.785 9.258 c 180.785 9.445 180.973 9.445 181.113 9.445 c h
187.082 11.383 m 187.223 11.383 187.41 11.383 187.41 11.18 c 187.41 10.992
 187.223 10.992 187.066 10.992 c 181.113 10.992 l 180.973 10.992 180.785
 10.992 180.785 11.18 c 180.785 11.383 180.973 11.383 181.113 11.383 c h
187.082 11.383 m f
195.32 9.523 m 195.32 8.727 195.273 7.93 194.93 7.195 c 194.477 6.227 193.648
 6.07 193.242 6.07 c 192.633 6.07 191.914 6.336 191.492 7.258 c 191.18 7.945
 191.133 8.727 191.133 9.523 c 191.133 10.273 191.164 11.164 191.586 11.93
 c 192.008 12.727 192.742 12.93 193.227 12.93 c 193.758 12.93 194.523 12.727
 194.961 11.773 c 195.273 11.086 195.32 10.305 195.32 9.523 c h
193.227 12.711 m 192.836 12.711 192.242 12.461 192.07 11.508 c 191.961 
10.914 191.961 9.992 191.961 9.398 c 191.961 8.758 191.961 8.102 192.039
 7.57 c 192.227 6.383 192.977 6.289 193.227 6.289 c 193.555 6.289 194.211
 6.477 194.398 7.461 c 194.508 8.023 194.508 8.773 194.508 9.398 c 194.508
 10.148 194.508 10.82 194.398 11.461 c 194.242 12.414 193.68 12.711 193.227
 12.711 c h
193.227 12.711 m f
8.965 20.637 m 8.605 20.746 8.434 21.074 8.434 21.324 c 8.434 21.543 8.59
 21.793 8.918 21.793 c 9.277 21.793 9.637 21.496 9.637 21.012 c 9.637 20.48
 9.121 20.137 8.512 20.137 c 7.934 20.137 7.574 20.559 7.434 20.746 c 7.184
 20.324 6.637 20.137 6.059 20.137 c 4.809 20.137 4.137 21.355 4.137 21.684
 c 4.137 21.824 4.277 21.824 4.371 21.824 c 4.496 21.824 4.559 21.824 4.605
 21.699 c 4.887 20.793 5.605 20.496 6.012 20.496 c 6.387 20.496 6.574 20.668
 6.574 20.98 c 6.574 21.184 6.434 21.73 6.34 22.09 c 5.996 23.449 l 5.855
 24.059 5.496 24.355 5.152 24.355 c 5.105 24.355 4.871 24.355 4.684 24.215
 c 5.043 24.105 5.215 23.762 5.215 23.527 c 5.215 23.309 5.043 23.059 4.715
 23.059 c 4.371 23.059 3.996 23.355 3.996 23.84 c 3.996 24.371 4.527 24.715
 5.137 24.715 c 5.699 24.715 6.074 24.293 6.199 24.105 c 6.449 24.527 7.012
 24.715 7.574 24.715 c 8.84 24.715 9.512 23.496 9.512 23.168 c 9.512 23.027
 9.355 23.027 9.277 23.027 c 9.152 23.027 9.09 23.027 9.043 23.152 c 8.762
 24.059 8.043 24.355 7.621 24.355 c 7.246 24.355 7.074 24.184 7.074 23.855
 c 7.074 23.652 7.199 23.121 7.293 22.746 c 7.355 22.496 7.59 21.559 7.637
 21.402 c 7.793 20.793 8.137 20.496 8.48 20.496 c 8.543 20.496 8.762 20.496
 8.965 20.637 c h
8.965 20.637 m f
13.484 27.027 m 13.484 26.996 13.484 26.98 13.313 26.809 c 12.078 25.559
 11.75 23.668 11.75 22.137 c 11.75 20.402 12.125 18.668 13.359 17.434 c 
13.484 17.309 13.484 17.293 13.484 17.262 c 13.484 17.184 13.453 17.152 
13.391 17.152 c 13.281 17.152 12.391 17.84 11.797 19.105 c 11.297 20.199
 11.172 21.309 11.172 22.137 c 11.172 22.918 11.281 24.121 11.828 25.262
 c 12.438 26.48 13.281 27.137 13.391 27.137 c 13.453 27.137 13.484 27.105
 13.484 27.027 c h
13.484 27.027 m f
16.105 20.652 m 17.043 20.652 l 17.246 20.652 17.355 20.652 17.355 20.449
 c 17.355 20.34 17.246 20.34 17.074 20.34 c 16.199 20.34 l 16.559 18.918
 16.605 18.73 16.605 18.668 c 16.605 18.496 16.48 18.402 16.309 18.402 c
 16.277 18.402 15.996 18.402 15.918 18.762 c 15.527 20.34 l 14.59 20.34 
l 14.387 20.34 14.293 20.34 14.293 20.527 c 14.293 20.652 14.371 20.652 
14.574 20.652 c 15.449 20.652 l 14.73 23.48 14.684 23.652 14.684 23.824 
c 14.684 24.371 15.059 24.746 15.605 24.746 c 16.621 24.746 17.184 23.293
 17.184 23.215 c 17.184 23.105 17.105 23.105 17.074 23.105 c 16.98 23.105
 16.965 23.137 16.918 23.246 c 16.496 24.293 15.965 24.527 15.621 24.527
 c 15.418 24.527 15.309 24.402 15.309 24.074 c 15.309 23.824 15.34 23.762
 15.371 23.59 c h
16.105 20.652 m f
20.5 23.383 m 21.172 23.383 l 21.313 23.383 21.406 23.383 21.406 23.227
 c 21.406 23.133 21.313 23.133 21.188 23.133 c 20.547 23.133 l 20.703 22.242
 20.75 21.93 20.813 21.727 c 20.844 21.57 21 21.43 21.172 21.43 c 21.172
 21.43 21.359 21.43 21.5 21.508 c 21.203 21.602 21.188 21.852 21.188 21.883
 c 21.188 22.039 21.313 22.148 21.469 22.148 c 21.656 22.148 21.859 21.992
 21.859 21.727 c 21.859 21.398 21.531 21.227 21.172 21.227 c 20.859 21.227
 20.516 21.398 20.328 21.742 c 20.188 22.008 20.141 22.32 19.984 23.133 
c 19.438 23.133 l 19.297 23.133 19.203 23.133 19.203 23.289 c 19.203 23.383
 19.297 23.383 19.422 23.383 c 19.938 23.383 l 19.938 23.43 19.5 25.93 19.328
 26.68 c 19.297 26.836 19.172 27.352 18.844 27.352 c 18.828 27.352 18.672
 27.352 18.531 27.273 c 18.813 27.18 18.844 26.93 18.844 26.898 c 18.844
 26.742 18.719 26.633 18.563 26.633 c 18.375 26.633 18.172 26.789 18.172
 27.055 c 18.172 27.367 18.5 27.555 18.844 27.555 c 19.281 27.555 19.594
 27.102 19.672 26.945 c 19.922 26.477 20.094 25.617 20.109 25.539 c h
20.5 23.383 m f
25.699 22.137 m 25.699 21.371 25.59 20.168 25.043 19.027 c 24.449 17.809
 23.59 17.152 23.496 17.152 c 23.434 17.152 23.387 17.199 23.387 17.262 
c 23.387 17.293 23.387 17.309 23.574 17.496 c 24.559 18.48 25.121 20.059
 25.121 22.137 c 25.121 23.855 24.762 25.605 23.527 26.855 c 23.387 26.98
 23.387 26.996 23.387 27.027 c 23.387 27.09 23.434 27.137 23.496 27.137 
c 23.59 27.137 24.496 26.449 25.074 25.184 c 25.59 24.09 25.699 22.98 25.699
 22.137 c h
25.699 22.137 m f
Q Q
showpage
%%Trailer
end
%%EOF
