%!PS-Adobe-3.0 EPSF-3.0
%%Creator: (MATLAB, The Mathworks, Inc. Version 9.6.0.1072779 \(R2019a\). Operating System: Windows 10)
%%Title: ./Hamiltonian.eps
%%CreationDate: 2020-12-24T02:19:37
%%Pages: (atend)
%%BoundingBox:    26    11   418   377
%%LanguageLevel: 3
%%EndComments
%%BeginProlog
%%BeginResource: procset (Apache XML Graphics Std ProcSet) 1.2 0
%%Version: 1.2 0
%%Copyright: (Copyright 2001-2003,2010 The Apache Software Foundation. License terms: http://www.apache.org/licenses/LICENSE-2.0)
/bd{bind def}bind def
/ld{load def}bd
/GR/grestore ld
/GS/gsave ld
/RM/rmoveto ld
/C/curveto ld
/t/show ld
/L/lineto ld
/ML/setmiterlimit ld
/CT/concat ld
/f/fill ld
/N/newpath ld
/S/stroke ld
/CC/setcmykcolor ld
/A/ashow ld
/cp/closepath ld
/RC/setrgbcolor ld
/LJ/setlinejoin ld
/GC/setgray ld
/LW/setlinewidth ld
/M/moveto ld
/re {4 2 roll M
1 index 0 rlineto
0 exch rlineto
neg 0 rlineto
cp } bd
/_ctm matrix def
/_tm matrix def
/BT { _ctm currentmatrix pop matrix _tm copy pop 0 0 moveto } bd
/ET { _ctm setmatrix } bd
/iTm { _ctm setmatrix _tm concat } bd
/Tm { _tm astore pop iTm 0 0 moveto } bd
/ux 0.0 def
/uy 0.0 def
/F {
  /Tp exch def
  /Tf exch def
  Tf findfont Tp scalefont setfont
  /cf Tf def  /cs Tp def
} bd
/ULS {currentpoint /uy exch def /ux exch def} bd
/ULE {
  /Tcx currentpoint pop def
  gsave
  newpath
  cf findfont cs scalefont dup
  /FontMatrix get 0 get /Ts exch def /FontInfo get dup
  /UnderlinePosition get Ts mul /To exch def
  /UnderlineThickness get Ts mul /Tt exch def
  ux uy To add moveto  Tcx uy To add lineto
  Tt setlinewidth stroke
  grestore
} bd
/OLE {
  /Tcx currentpoint pop def
  gsave
  newpath
  cf findfont cs scalefont dup
  /FontMatrix get 0 get /Ts exch def /FontInfo get dup
  /UnderlinePosition get Ts mul /To exch def
  /UnderlineThickness get Ts mul /Tt exch def
  ux uy To add cs add moveto Tcx uy To add cs add lineto
  Tt setlinewidth stroke
  grestore
} bd
/SOE {
  /Tcx currentpoint pop def
  gsave
  newpath
  cf findfont cs scalefont dup
  /FontMatrix get 0 get /Ts exch def /FontInfo get dup
  /UnderlinePosition get Ts mul /To exch def
  /UnderlineThickness get Ts mul /Tt exch def
  ux uy To add cs 10 mul 26 idiv add moveto Tcx uy To add cs 10 mul 26 idiv add lineto
  Tt setlinewidth stroke
  grestore
} bd
/QT {
/Y22 exch store
/X22 exch store
/Y21 exch store
/X21 exch store
currentpoint
/Y21 load 2 mul add 3 div exch
/X21 load 2 mul add 3 div exch
/X21 load 2 mul /X22 load add 3 div
/Y21 load 2 mul /Y22 load add 3 div
/X22 load /Y22 load curveto
} bd
/SSPD {
dup length /d exch dict def
{
/v exch def
/k exch def
currentpagedevice k known {
/cpdv currentpagedevice k get def
v cpdv ne {
/upd false def
/nullv v type /nulltype eq def
/nullcpdv cpdv type /nulltype eq def
nullv nullcpdv or
{
/upd true def
} {
/sametype v type cpdv type eq def
sametype {
v type /arraytype eq {
/vlen v length def
/cpdvlen cpdv length def
vlen cpdvlen eq {
0 1 vlen 1 sub {
/i exch def
/obj v i get def
/cpdobj cpdv i get def
obj cpdobj ne {
/upd true def
exit
} if
} for
} {
/upd true def
} ifelse
} {
v type /dicttype eq {
v {
/dv exch def
/dk exch def
/cpddv cpdv dk get def
dv cpddv ne {
/upd true def
exit
} if
} forall
} {
/upd true def
} ifelse
} ifelse
} if
} ifelse
upd true eq {
d k v put
} if
} if
} if
} forall
d length 0 gt {
d setpagedevice
} if
} bd
/RE { % /NewFontName [NewEncodingArray] /FontName RE -
  findfont dup length dict begin
  {
    1 index /FID ne
    {def} {pop pop} ifelse
  } forall
  /Encoding exch def
  /FontName 1 index def
  currentdict definefont pop
  end
} bind def
%%EndResource
%%BeginResource: procset (Apache XML Graphics EPS ProcSet) 1.0 0
%%Version: 1.0 0
%%Copyright: (Copyright 2002-2003 The Apache Software Foundation. License terms: http://www.apache.org/licenses/LICENSE-2.0)
/BeginEPSF { %def
/b4_Inc_state save def         % Save state for cleanup
/dict_count countdictstack def % Count objects on dict stack
/op_count count 1 sub def      % Count objects on operand stack
userdict begin                 % Push userdict on dict stack
/showpage { } def              % Redefine showpage, { } = null proc
0 setgray 0 setlinecap         % Prepare graphics state
1 setlinewidth 0 setlinejoin
10 setmiterlimit [ ] 0 setdash newpath
/languagelevel where           % If level not equal to 1 then
{pop languagelevel             % set strokeadjust and
1 ne                           % overprint to their defaults.
{false setstrokeadjust false setoverprint
} if
} if
} bd
/EndEPSF { %def
count op_count sub {pop} repeat            % Clean up stacks
countdictstack dict_count sub {end} repeat
b4_Inc_state restore
} bd
%%EndResource
%FOPBeginFontDict
%%IncludeResource: font Courier-Oblique
%%IncludeResource: font Courier-BoldOblique
%%IncludeResource: font Courier-Bold
%%IncludeResource: font ZapfDingbats
%%IncludeResource: font Symbol
%%IncludeResource: font Helvetica
%%IncludeResource: font Helvetica-Oblique
%%IncludeResource: font Helvetica-Bold
%%IncludeResource: font Helvetica-BoldOblique
%%IncludeResource: font Times-Roman
%%IncludeResource: font Times-Italic
%%IncludeResource: font Times-Bold
%%IncludeResource: font Times-BoldItalic
%%IncludeResource: font Courier
%FOPEndFontDict
%%BeginResource: encoding WinAnsiEncoding
/WinAnsiEncoding [
/.notdef /.notdef /.notdef /.notdef /.notdef
/.notdef /.notdef /.notdef /.notdef /.notdef
/.notdef /.notdef /.notdef /.notdef /.notdef
/.notdef /.notdef /.notdef /.notdef /.notdef
/.notdef /.notdef /.notdef /.notdef /.notdef
/.notdef /.notdef /.notdef /.notdef /.notdef
/.notdef /.notdef /space /exclam /quotedbl
/numbersign /dollar /percent /ampersand /quotesingle
/parenleft /parenright /asterisk /plus /comma
/hyphen /period /slash /zero /one
/two /three /four /five /six
/seven /eight /nine /colon /semicolon
/less /equal /greater /question /at
/A /B /C /D /E
/F /G /H /I /J
/K /L /M /N /O
/P /Q /R /S /T
/U /V /W /X /Y
/Z /bracketleft /backslash /bracketright /asciicircum
/underscore /quoteleft /a /b /c
/d /e /f /g /h
/i /j /k /l /m
/n /o /p /q /r
/s /t /u /v /w
/x /y /z /braceleft /bar
/braceright /asciitilde /bullet /Euro /bullet
/quotesinglbase /florin /quotedblbase /ellipsis /dagger
/daggerdbl /circumflex /perthousand /Scaron /guilsinglleft
/OE /bullet /Zcaron /bullet /bullet
/quoteleft /quoteright /quotedblleft /quotedblright /bullet
/endash /emdash /asciitilde /trademark /scaron
/guilsinglright /oe /bullet /zcaron /Ydieresis
/space /exclamdown /cent /sterling /currency
/yen /brokenbar /section /dieresis /copyright
/ordfeminine /guillemotleft /logicalnot /sfthyphen /registered
/macron /degree /plusminus /twosuperior /threesuperior
/acute /mu /paragraph /middot /cedilla
/onesuperior /ordmasculine /guillemotright /onequarter /onehalf
/threequarters /questiondown /Agrave /Aacute /Acircumflex
/Atilde /Adieresis /Aring /AE /Ccedilla
/Egrave /Eacute /Ecircumflex /Edieresis /Igrave
/Iacute /Icircumflex /Idieresis /Eth /Ntilde
/Ograve /Oacute /Ocircumflex /Otilde /Odieresis
/multiply /Oslash /Ugrave /Uacute /Ucircumflex
/Udieresis /Yacute /Thorn /germandbls /agrave
/aacute /acircumflex /atilde /adieresis /aring
/ae /ccedilla /egrave /eacute /ecircumflex
/edieresis /igrave /iacute /icircumflex /idieresis
/eth /ntilde /ograve /oacute /ocircumflex
/otilde /odieresis /divide /oslash /ugrave
/uacute /ucircumflex /udieresis /yacute /thorn
/ydieresis
] def
%%EndResource
%FOPBeginFontReencode
/Courier-Oblique findfont
dup length dict begin
  {1 index /FID ne {def} {pop pop} ifelse} forall
  /Encoding WinAnsiEncoding def
  currentdict
end
/Courier-Oblique exch definefont pop
/Courier-BoldOblique findfont
dup length dict begin
  {1 index /FID ne {def} {pop pop} ifelse} forall
  /Encoding WinAnsiEncoding def
  currentdict
end
/Courier-BoldOblique exch definefont pop
/Courier-Bold findfont
dup length dict begin
  {1 index /FID ne {def} {pop pop} ifelse} forall
  /Encoding WinAnsiEncoding def
  currentdict
end
/Courier-Bold exch definefont pop
/Helvetica findfont
dup length dict begin
  {1 index /FID ne {def} {pop pop} ifelse} forall
  /Encoding WinAnsiEncoding def
  currentdict
end
/Helvetica exch definefont pop
/Helvetica-Oblique findfont
dup length dict begin
  {1 index /FID ne {def} {pop pop} ifelse} forall
  /Encoding WinAnsiEncoding def
  currentdict
end
/Helvetica-Oblique exch definefont pop
/Helvetica-Bold findfont
dup length dict begin
  {1 index /FID ne {def} {pop pop} ifelse} forall
  /Encoding WinAnsiEncoding def
  currentdict
end
/Helvetica-Bold exch definefont pop
/Helvetica-BoldOblique findfont
dup length dict begin
  {1 index /FID ne {def} {pop pop} ifelse} forall
  /Encoding WinAnsiEncoding def
  currentdict
end
/Helvetica-BoldOblique exch definefont pop
/Times-Roman findfont
dup length dict begin
  {1 index /FID ne {def} {pop pop} ifelse} forall
  /Encoding WinAnsiEncoding def
  currentdict
end
/Times-Roman exch definefont pop
/Times-Italic findfont
dup length dict begin
  {1 index /FID ne {def} {pop pop} ifelse} forall
  /Encoding WinAnsiEncoding def
  currentdict
end
/Times-Italic exch definefont pop
/Times-Bold findfont
dup length dict begin
  {1 index /FID ne {def} {pop pop} ifelse} forall
  /Encoding WinAnsiEncoding def
  currentdict
end
/Times-Bold exch definefont pop
/Times-BoldItalic findfont
dup length dict begin
  {1 index /FID ne {def} {pop pop} ifelse} forall
  /Encoding WinAnsiEncoding def
  currentdict
end
/Times-BoldItalic exch definefont pop
/Courier findfont
dup length dict begin
  {1 index /FID ne {def} {pop pop} ifelse} forall
  /Encoding WinAnsiEncoding def
  currentdict
end
/Courier exch definefont pop
%FOPEndFontReencode
%%EndProlog
%%Page: 1 1
%%PageBoundingBox: 0 0 450 394
%%BeginPageSetup
[1 0 0 -1 0 394] CT
%%EndPageSetup
GS
[0.6 0 0 0.60023 0 0.25] CT
1 GC
N
0 0 750 656 re
f
GR
GS
[0.6 0 0 0.60023 0 0.25] CT
1 GC
N
0 0 750 656 re
f
GR
GS
[0.6 0 0 0.60023 0 0.25] CT
1 GC
N
98 584 M
679 584 L
679 49 L
98 49 L
cp
f
GR
GS
[0.6 0 0 0.60023 0 0.25] CT
0.775 GC
[1 3] 0 setdash
2 LJ
0.833 LW
N
109.62 584 M
109.62 49 L
S
GR
GS
[0.6 0 0 0.60023 0 0.25] CT
0.775 GC
[1 3] 0 setdash
2 LJ
0.833 LW
N
121.24 584 M
121.24 49 L
S
GR
GS
[0.6 0 0 0.60023 0 0.25] CT
0.775 GC
[1 3] 0 setdash
2 LJ
0.833 LW
N
132.86 584 M
132.86 49 L
S
GR
GS
[0.6 0 0 0.60023 0 0.25] CT
0.775 GC
[1 3] 0 setdash
2 LJ
0.833 LW
N
144.48 584 M
144.48 49 L
S
GR
GS
[0.6 0 0 0.60023 0 0.25] CT
0.775 GC
[1 3] 0 setdash
2 LJ
0.833 LW
N
167.72 584 M
167.72 49 L
S
GR
GS
[0.6 0 0 0.60023 0 0.25] CT
0.775 GC
[1 3] 0 setdash
2 LJ
0.833 LW
N
179.34 584 M
179.34 49 L
S
GR
GS
[0.6 0 0 0.60023 0 0.25] CT
0.775 GC
[1 3] 0 setdash
2 LJ
0.833 LW
N
190.96 584 M
190.96 49 L
S
GR
GS
[0.6 0 0 0.60023 0 0.25] CT
0.775 GC
[1 3] 0 setdash
2 LJ
0.833 LW
N
202.58 584 M
202.58 49 L
S
GR
GS
[0.6 0 0 0.60023 0 0.25] CT
0.775 GC
[1 3] 0 setdash
2 LJ
0.833 LW
N
225.82 584 M
225.82 49 L
S
GR
GS
[0.6 0 0 0.60023 0 0.25] CT
0.775 GC
[1 3] 0 setdash
2 LJ
0.833 LW
N
237.44 584 M
237.44 49 L
S
GR
GS
[0.6 0 0 0.60023 0 0.25] CT
0.775 GC
[1 3] 0 setdash
2 LJ
0.833 LW
N
249.06 584 M
249.06 49 L
S
GR
GS
[0.6 0 0 0.60023 0 0.25] CT
0.775 GC
[1 3] 0 setdash
2 LJ
0.833 LW
N
260.68 584 M
260.68 49 L
S
GR
GS
[0.6 0 0 0.60023 0 0.25] CT
0.775 GC
[1 3] 0 setdash
2 LJ
0.833 LW
N
283.92 584 M
283.92 49 L
S
GR
GS
[0.6 0 0 0.60023 0 0.25] CT
0.775 GC
[1 3] 0 setdash
2 LJ
0.833 LW
N
295.54 584 M
295.54 49 L
S
GR
GS
[0.6 0 0 0.60023 0 0.25] CT
0.775 GC
[1 3] 0 setdash
2 LJ
0.833 LW
N
307.16 584 M
307.16 49 L
S
GR
GS
[0.6 0 0 0.60023 0 0.25] CT
0.775 GC
[1 3] 0 setdash
2 LJ
0.833 LW
N
318.78 584 M
318.78 49 L
S
GR
GS
[0.6 0 0 0.60023 0 0.25] CT
0.775 GC
[1 3] 0 setdash
2 LJ
0.833 LW
N
342.02 584 M
342.02 49 L
S
GR
GS
[0.6 0 0 0.60023 0 0.25] CT
0.775 GC
[1 3] 0 setdash
2 LJ
0.833 LW
N
353.64 584 M
353.64 49 L
S
GR
GS
[0.6 0 0 0.60023 0 0.25] CT
0.775 GC
[1 3] 0 setdash
2 LJ
0.833 LW
N
365.26 584 M
365.26 49 L
S
GR
GS
[0.6 0 0 0.60023 0 0.25] CT
0.775 GC
[1 3] 0 setdash
2 LJ
0.833 LW
N
376.88 584 M
376.88 49 L
S
GR
GS
[0.6 0 0 0.60023 0 0.25] CT
0.775 GC
[1 3] 0 setdash
2 LJ
0.833 LW
N
400.12 584 M
400.12 49 L
S
GR
GS
[0.6 0 0 0.60023 0 0.25] CT
0.775 GC
[1 3] 0 setdash
2 LJ
0.833 LW
N
411.74 584 M
411.74 49 L
S
GR
GS
[0.6 0 0 0.60023 0 0.25] CT
0.775 GC
[1 3] 0 setdash
2 LJ
0.833 LW
N
423.36 584 M
423.36 49 L
S
GR
GS
[0.6 0 0 0.60023 0 0.25] CT
0.775 GC
[1 3] 0 setdash
2 LJ
0.833 LW
N
434.98 584 M
434.98 49 L
S
GR
GS
[0.6 0 0 0.60023 0 0.25] CT
0.775 GC
[1 3] 0 setdash
2 LJ
0.833 LW
N
458.22 584 M
458.22 49 L
S
GR
GS
[0.6 0 0 0.60023 0 0.25] CT
0.775 GC
[1 3] 0 setdash
2 LJ
0.833 LW
N
469.84 584 M
469.84 49 L
S
GR
GS
[0.6 0 0 0.60023 0 0.25] CT
0.775 GC
[1 3] 0 setdash
2 LJ
0.833 LW
N
481.46 584 M
481.46 49 L
S
GR
GS
[0.6 0 0 0.60023 0 0.25] CT
0.775 GC
[1 3] 0 setdash
2 LJ
0.833 LW
N
493.08 584 M
493.08 49 L
S
GR
GS
[0.6 0 0 0.60023 0 0.25] CT
0.775 GC
[1 3] 0 setdash
2 LJ
0.833 LW
N
516.32 584 M
516.32 49 L
S
GR
GS
[0.6 0 0 0.60023 0 0.25] CT
0.775 GC
[1 3] 0 setdash
2 LJ
0.833 LW
N
527.94 584 M
527.94 49 L
S
GR
GS
[0.6 0 0 0.60023 0 0.25] CT
0.775 GC
[1 3] 0 setdash
2 LJ
0.833 LW
N
539.56 584 M
539.56 49 L
S
GR
GS
[0.6 0 0 0.60023 0 0.25] CT
0.775 GC
[1 3] 0 setdash
2 LJ
0.833 LW
N
551.18 584 M
551.18 49 L
S
GR
GS
[0.6 0 0 0.60023 0 0.25] CT
0.775 GC
[1 3] 0 setdash
2 LJ
0.833 LW
N
574.42 584 M
574.42 49 L
S
GR
GS
[0.6 0 0 0.60023 0 0.25] CT
0.775 GC
[1 3] 0 setdash
2 LJ
0.833 LW
N
586.04 584 M
586.04 49 L
S
GR
GS
[0.6 0 0 0.60023 0 0.25] CT
0.775 GC
[1 3] 0 setdash
2 LJ
0.833 LW
N
597.66 584 M
597.66 49 L
S
GR
GS
[0.6 0 0 0.60023 0 0.25] CT
0.775 GC
[1 3] 0 setdash
2 LJ
0.833 LW
N
609.28 584 M
609.28 49 L
S
GR
GS
[0.6 0 0 0.60023 0 0.25] CT
0.775 GC
[1 3] 0 setdash
2 LJ
0.833 LW
N
632.52 584 M
632.52 49 L
S
GR
GS
[0.6 0 0 0.60023 0 0.25] CT
0.775 GC
[1 3] 0 setdash
2 LJ
0.833 LW
N
644.14 584 M
644.14 49 L
S
GR
GS
[0.6 0 0 0.60023 0 0.25] CT
0.775 GC
[1 3] 0 setdash
2 LJ
0.833 LW
N
655.76 584 M
655.76 49 L
S
GR
GS
[0.6 0 0 0.60023 0 0.25] CT
0.775 GC
[1 3] 0 setdash
2 LJ
0.833 LW
N
667.38 584 M
667.38 49 L
S
GR
GS
[0.6 0 0 0.60023 0 0.25] CT
0.873 GC
1 LJ
0.833 LW
N
98 584 M
98 49 L
S
GR
GS
[0.6 0 0 0.60023 0 0.25] CT
0.873 GC
1 LJ
0.833 LW
N
156.1 584 M
156.1 49 L
S
GR
GS
[0.6 0 0 0.60023 0 0.25] CT
0.873 GC
1 LJ
0.833 LW
N
214.2 584 M
214.2 49 L
S
GR
GS
[0.6 0 0 0.60023 0 0.25] CT
0.873 GC
1 LJ
0.833 LW
N
272.3 584 M
272.3 49 L
S
GR
GS
[0.6 0 0 0.60023 0 0.25] CT
0.873 GC
1 LJ
0.833 LW
N
330.4 584 M
330.4 49 L
S
GR
GS
[0.6 0 0 0.60023 0 0.25] CT
0.873 GC
1 LJ
0.833 LW
N
388.5 584 M
388.5 49 L
S
GR
GS
[0.6 0 0 0.60023 0 0.25] CT
0.873 GC
1 LJ
0.833 LW
N
446.6 584 M
446.6 49 L
S
GR
GS
[0.6 0 0 0.60023 0 0.25] CT
0.873 GC
1 LJ
0.833 LW
N
504.7 584 M
504.7 49 L
S
GR
GS
[0.6 0 0 0.60023 0 0.25] CT
0.873 GC
1 LJ
0.833 LW
N
562.8 584 M
562.8 49 L
S
GR
GS
[0.6 0 0 0.60023 0 0.25] CT
0.873 GC
1 LJ
0.833 LW
N
620.9 584 M
620.9 49 L
S
GR
GS
[0.6 0 0 0.60023 0 0.25] CT
0.873 GC
1 LJ
0.833 LW
N
679 584 M
679 49 L
S
GR
GS
[0.6 0 0 0.60023 0 0.25] CT
0.775 GC
[1 3] 0 setdash
2 LJ
0.833 LW
N
679 568.714 M
98 568.714 L
S
GR
GS
[0.6 0 0 0.60023 0 0.25] CT
0.775 GC
[1 3] 0 setdash
2 LJ
0.833 LW
N
679 553.429 M
98 553.429 L
S
GR
GS
[0.6 0 0 0.60023 0 0.25] CT
0.775 GC
[1 3] 0 setdash
2 LJ
0.833 LW
N
679 538.143 M
98 538.143 L
S
GR
GS
[0.6 0 0 0.60023 0 0.25] CT
0.775 GC
[1 3] 0 setdash
2 LJ
0.833 LW
N
679 522.857 M
98 522.857 L
S
GR
GS
[0.6 0 0 0.60023 0 0.25] CT
0.775 GC
[1 3] 0 setdash
2 LJ
0.833 LW
N
679 492.286 M
98 492.286 L
S
GR
GS
[0.6 0 0 0.60023 0 0.25] CT
0.775 GC
[1 3] 0 setdash
2 LJ
0.833 LW
N
679 477 M
98 477 L
S
GR
GS
[0.6 0 0 0.60023 0 0.25] CT
0.775 GC
[1 3] 0 setdash
2 LJ
0.833 LW
N
679 461.714 M
98 461.714 L
S
GR
GS
[0.6 0 0 0.60023 0 0.25] CT
0.775 GC
[1 3] 0 setdash
2 LJ
0.833 LW
N
679 446.429 M
98 446.429 L
S
GR
GS
[0.6 0 0 0.60023 0 0.25] CT
0.775 GC
[1 3] 0 setdash
2 LJ
0.833 LW
N
679 415.857 M
98 415.857 L
S
GR
GS
[0.6 0 0 0.60023 0 0.25] CT
0.775 GC
[1 3] 0 setdash
2 LJ
0.833 LW
N
679 400.571 M
98 400.571 L
S
GR
GS
[0.6 0 0 0.60023 0 0.25] CT
0.775 GC
[1 3] 0 setdash
2 LJ
0.833 LW
N
679 385.286 M
98 385.286 L
S
GR
GS
[0.6 0 0 0.60023 0 0.25] CT
0.775 GC
[1 3] 0 setdash
2 LJ
0.833 LW
N
679 370 M
98 370 L
S
GR
GS
[0.6 0 0 0.60023 0 0.25] CT
0.775 GC
[1 3] 0 setdash
2 LJ
0.833 LW
N
679 339.429 M
98 339.429 L
S
GR
GS
[0.6 0 0 0.60023 0 0.25] CT
0.775 GC
[1 3] 0 setdash
2 LJ
0.833 LW
N
679 324.143 M
98 324.143 L
S
GR
GS
[0.6 0 0 0.60023 0 0.25] CT
0.775 GC
[1 3] 0 setdash
2 LJ
0.833 LW
N
679 308.857 M
98 308.857 L
S
GR
GS
[0.6 0 0 0.60023 0 0.25] CT
0.775 GC
[1 3] 0 setdash
2 LJ
0.833 LW
N
679 293.571 M
98 293.571 L
S
GR
GS
[0.6 0 0 0.60023 0 0.25] CT
0.775 GC
[1 3] 0 setdash
2 LJ
0.833 LW
N
679 263 M
98 263 L
S
GR
GS
[0.6 0 0 0.60023 0 0.25] CT
0.775 GC
[1 3] 0 setdash
2 LJ
0.833 LW
N
679 247.714 M
98 247.714 L
S
GR
GS
[0.6 0 0 0.60023 0 0.25] CT
0.775 GC
[1 3] 0 setdash
2 LJ
0.833 LW
N
679 232.429 M
98 232.429 L
S
GR
GS
[0.6 0 0 0.60023 0 0.25] CT
0.775 GC
[1 3] 0 setdash
2 LJ
0.833 LW
N
679 217.143 M
98 217.143 L
S
GR
GS
[0.6 0 0 0.60023 0 0.25] CT
0.775 GC
[1 3] 0 setdash
2 LJ
0.833 LW
N
679 186.571 M
98 186.571 L
S
GR
GS
[0.6 0 0 0.60023 0 0.25] CT
0.775 GC
[1 3] 0 setdash
2 LJ
0.833 LW
N
679 171.286 M
98 171.286 L
S
GR
GS
[0.6 0 0 0.60023 0 0.25] CT
0.775 GC
[1 3] 0 setdash
2 LJ
0.833 LW
N
679 156 M
98 156 L
S
GR
GS
[0.6 0 0 0.60023 0 0.25] CT
0.775 GC
[1 3] 0 setdash
2 LJ
0.833 LW
N
679 140.714 M
98 140.714 L
S
GR
GS
[0.6 0 0 0.60023 0 0.25] CT
0.775 GC
[1 3] 0 setdash
2 LJ
0.833 LW
N
679 110.143 M
98 110.143 L
S
GR
GS
[0.6 0 0 0.60023 0 0.25] CT
0.775 GC
[1 3] 0 setdash
2 LJ
0.833 LW
N
679 94.857 M
98 94.857 L
S
GR
GS
[0.6 0 0 0.60023 0 0.25] CT
0.775 GC
[1 3] 0 setdash
2 LJ
0.833 LW
N
679 79.571 M
98 79.571 L
S
GR
GS
[0.6 0 0 0.60023 0 0.25] CT
0.775 GC
[1 3] 0 setdash
2 LJ
0.833 LW
N
679 64.286 M
98 64.286 L
S
GR
GS
[0.6 0 0 0.60023 0 0.25] CT
0.873 GC
1 LJ
0.833 LW
N
679 584 M
98 584 L
S
GR
GS
[0.6 0 0 0.60023 0 0.25] CT
0.873 GC
1 LJ
0.833 LW
N
679 507.571 M
98 507.571 L
S
GR
GS
[0.6 0 0 0.60023 0 0.25] CT
0.873 GC
1 LJ
0.833 LW
N
679 431.143 M
98 431.143 L
S
GR
GS
[0.6 0 0 0.60023 0 0.25] CT
0.873 GC
1 LJ
0.833 LW
N
679 354.714 M
98 354.714 L
S
GR
GS
[0.6 0 0 0.60023 0 0.25] CT
0.873 GC
1 LJ
0.833 LW
N
679 278.286 M
98 278.286 L
S
GR
GS
[0.6 0 0 0.60023 0 0.25] CT
0.873 GC
1 LJ
0.833 LW
N
679 201.857 M
98 201.857 L
S
GR
GS
[0.6 0 0 0.60023 0 0.25] CT
0.873 GC
1 LJ
0.833 LW
N
679 125.429 M
98 125.429 L
S
GR
GS
[0.6 0 0 0.60023 0 0.25] CT
0.873 GC
1 LJ
0.833 LW
N
679 49 M
98 49 L
S
GR
GS
[0.6 0 0 0.60023 0 0.25] CT
0.149 GC
2 setlinecap
1 LJ
0.833 LW
N
98 584 M
679 584 L
S
GR
GS
[0.6 0 0 0.60023 0 0.25] CT
0.149 GC
2 setlinecap
1 LJ
0.833 LW
N
98 49 M
679 49 L
S
GR
GS
[0.6 0 0 0.60023 0 0.25] CT
0.149 GC
2 setlinecap
1 LJ
0.833 LW
N
98 584 M
98 578.19 L
S
GR
GS
[0.6 0 0 0.60023 0 0.25] CT
0.149 GC
2 setlinecap
1 LJ
0.833 LW
N
156.1 584 M
156.1 578.19 L
S
GR
GS
[0.6 0 0 0.60023 0 0.25] CT
0.149 GC
2 setlinecap
1 LJ
0.833 LW
N
214.2 584 M
214.2 578.19 L
S
GR
GS
[0.6 0 0 0.60023 0 0.25] CT
0.149 GC
2 setlinecap
1 LJ
0.833 LW
N
272.3 584 M
272.3 578.19 L
S
GR
GS
[0.6 0 0 0.60023 0 0.25] CT
0.149 GC
2 setlinecap
1 LJ
0.833 LW
N
330.4 584 M
330.4 578.19 L
S
GR
GS
[0.6 0 0 0.60023 0 0.25] CT
0.149 GC
2 setlinecap
1 LJ
0.833 LW
N
388.5 584 M
388.5 578.19 L
S
GR
GS
[0.6 0 0 0.60023 0 0.25] CT
0.149 GC
2 setlinecap
1 LJ
0.833 LW
N
446.6 584 M
446.6 578.19 L
S
GR
GS
[0.6 0 0 0.60023 0 0.25] CT
0.149 GC
2 setlinecap
1 LJ
0.833 LW
N
504.7 584 M
504.7 578.19 L
S
GR
GS
[0.6 0 0 0.60023 0 0.25] CT
0.149 GC
2 setlinecap
1 LJ
0.833 LW
N
562.8 584 M
562.8 578.19 L
S
GR
GS
[0.6 0 0 0.60023 0 0.25] CT
0.149 GC
2 setlinecap
1 LJ
0.833 LW
N
620.9 584 M
620.9 578.19 L
S
GR
GS
[0.6 0 0 0.60023 0 0.25] CT
0.149 GC
2 setlinecap
1 LJ
0.833 LW
N
679 584 M
679 578.19 L
S
GR
GS
[0.6 0 0 0.60023 0 0.25] CT
0.149 GC
2 setlinecap
1 LJ
0.833 LW
N
98 49 M
98 54.81 L
S
GR
GS
[0.6 0 0 0.60023 0 0.25] CT
0.149 GC
2 setlinecap
1 LJ
0.833 LW
N
156.1 49 M
156.1 54.81 L
S
GR
GS
[0.6 0 0 0.60023 0 0.25] CT
0.149 GC
2 setlinecap
1 LJ
0.833 LW
N
214.2 49 M
214.2 54.81 L
S
GR
GS
[0.6 0 0 0.60023 0 0.25] CT
0.149 GC
2 setlinecap
1 LJ
0.833 LW
N
272.3 49 M
272.3 54.81 L
S
GR
GS
[0.6 0 0 0.60023 0 0.25] CT
0.149 GC
2 setlinecap
1 LJ
0.833 LW
N
330.4 49 M
330.4 54.81 L
S
GR
GS
[0.6 0 0 0.60023 0 0.25] CT
0.149 GC
2 setlinecap
1 LJ
0.833 LW
N
388.5 49 M
388.5 54.81 L
S
GR
GS
[0.6 0 0 0.60023 0 0.25] CT
0.149 GC
2 setlinecap
1 LJ
0.833 LW
N
446.6 49 M
446.6 54.81 L
S
GR
GS
[0.6 0 0 0.60023 0 0.25] CT
0.149 GC
2 setlinecap
1 LJ
0.833 LW
N
504.7 49 M
504.7 54.81 L
S
GR
GS
[0.6 0 0 0.60023 0 0.25] CT
0.149 GC
2 setlinecap
1 LJ
0.833 LW
N
562.8 49 M
562.8 54.81 L
S
GR
GS
[0.6 0 0 0.60023 0 0.25] CT
0.149 GC
2 setlinecap
1 LJ
0.833 LW
N
620.9 49 M
620.9 54.81 L
S
GR
GS
[0.6 0 0 0.60023 0 0.25] CT
0.149 GC
2 setlinecap
1 LJ
0.833 LW
N
679 49 M
679 54.81 L
S
GR
GS
[0.6 0 0 0.60023 58.8 354.78504] CT
0.149 GC
/Helvetica 16.667 F
GS
[1 0 0 1 0 0] CT
-5 17 moveto 
1 -1 scale
(0) t 
GR
GR
GS
[0.6 0 0 0.60023 93.66 354.78504] CT
0.149 GC
/Helvetica 16.667 F
GS
[1 0 0 1 0 0] CT
-14 17 moveto 
1 -1 scale
(100) t 
GR
GR
GS
[0.6 0 0 0.60023 128.52 354.78504] CT
0.149 GC
/Helvetica 16.667 F
GS
[1 0 0 1 0 0] CT
-14 17 moveto 
1 -1 scale
(200) t 
GR
GR
GS
[0.6 0 0 0.60023 163.37999 354.78504] CT
0.149 GC
/Helvetica 16.667 F
GS
[1 0 0 1 0 0] CT
-14 17 moveto 
1 -1 scale
(300) t 
GR
GR
GS
[0.6 0 0 0.60023 198.24 354.78504] CT
0.149 GC
/Helvetica 16.667 F
GS
[1 0 0 1 0 0] CT
-14 17 moveto 
1 -1 scale
(400) t 
GR
GR
GS
[0.6 0 0 0.60023 233.1 354.78504] CT
0.149 GC
/Helvetica 16.667 F
GS
[1 0 0 1 0 0] CT
-14 17 moveto 
1 -1 scale
(500) t 
GR
GR
GS
[0.6 0 0 0.60023 267.96 354.78504] CT
0.149 GC
/Helvetica 16.667 F
GS
[1 0 0 1 0 0] CT
-14 17 moveto 
1 -1 scale
(600) t 
GR
GR
GS
[0.6 0 0 0.60023 302.82001 354.78504] CT
0.149 GC
/Helvetica 16.667 F
GS
[1 0 0 1 0 0] CT
-14 17 moveto 
1 -1 scale
(700) t 
GR
GR
GS
[0.6 0 0 0.60023 337.67999 354.78504] CT
0.149 GC
/Helvetica 16.667 F
GS
[1 0 0 1 0 0] CT
-14 17 moveto 
1 -1 scale
(800) t 
GR
GR
GS
[0.6 0 0 0.60023 372.54001 354.78504] CT
0.149 GC
/Helvetica 16.667 F
GS
[1 0 0 1 0 0] CT
-14 17 moveto 
1 -1 scale
(900) t 
GR
GR
GS
[0.6 0 0 0.60023 407.4 354.78504] CT
0.149 GC
/Helvetica 16.667 F
GS
[1 0 0 1 0 0] CT
-19 17 moveto 
1 -1 scale
(1000) t 
GR
GR
GS
[0.6 0 0 0.60023 233.10016 368.39023] CT
0.149 GC
/Helvetica 18.333 F
GS
[1 0 0 1 0 0] CT
-34 19 moveto 
1 -1 scale
(Time \(s\)) t 
GR
GR
GS
[0.6 0 0 0.60023 0 0.25] CT
0.149 GC
2 setlinecap
1 LJ
0.833 LW
N
98 584 M
98 49 L
S
GR
GS
[0.6 0 0 0.60023 0 0.25] CT
0.149 GC
2 setlinecap
1 LJ
0.833 LW
N
679 584 M
679 49 L
S
GR
GS
[0.6 0 0 0.60023 0 0.25] CT
0.149 GC
2 setlinecap
1 LJ
0.833 LW
N
98 584 M
103.81 584 L
S
GR
GS
[0.6 0 0 0.60023 0 0.25] CT
0.149 GC
2 setlinecap
1 LJ
0.833 LW
N
98 507.571 M
103.81 507.571 L
S
GR
GS
[0.6 0 0 0.60023 0 0.25] CT
0.149 GC
2 setlinecap
1 LJ
0.833 LW
N
98 431.143 M
103.81 431.143 L
S
GR
GS
[0.6 0 0 0.60023 0 0.25] CT
0.149 GC
2 setlinecap
1 LJ
0.833 LW
N
98 354.714 M
103.81 354.714 L
S
GR
GS
[0.6 0 0 0.60023 0 0.25] CT
0.149 GC
2 setlinecap
1 LJ
0.833 LW
N
98 278.286 M
103.81 278.286 L
S
GR
GS
[0.6 0 0 0.60023 0 0.25] CT
0.149 GC
2 setlinecap
1 LJ
0.833 LW
N
98 201.857 M
103.81 201.857 L
S
GR
GS
[0.6 0 0 0.60023 0 0.25] CT
0.149 GC
2 setlinecap
1 LJ
0.833 LW
N
98 125.429 M
103.81 125.429 L
S
GR
GS
[0.6 0 0 0.60023 0 0.25] CT
0.149 GC
2 setlinecap
1 LJ
0.833 LW
N
98 49 M
103.81 49 L
S
GR
GS
[0.6 0 0 0.60023 0 0.25] CT
0.149 GC
2 setlinecap
1 LJ
0.833 LW
N
679 584 M
673.19 584 L
S
GR
GS
[0.6 0 0 0.60023 0 0.25] CT
0.149 GC
2 setlinecap
1 LJ
0.833 LW
N
679 507.571 M
673.19 507.571 L
S
GR
GS
[0.6 0 0 0.60023 0 0.25] CT
0.149 GC
2 setlinecap
1 LJ
0.833 LW
N
679 431.143 M
673.19 431.143 L
S
GR
GS
[0.6 0 0 0.60023 0 0.25] CT
0.149 GC
2 setlinecap
1 LJ
0.833 LW
N
679 354.714 M
673.19 354.714 L
S
GR
GS
[0.6 0 0 0.60023 0 0.25] CT
0.149 GC
2 setlinecap
1 LJ
0.833 LW
N
679 278.286 M
673.19 278.286 L
S
GR
GS
[0.6 0 0 0.60023 0 0.25] CT
0.149 GC
2 setlinecap
1 LJ
0.833 LW
N
679 201.857 M
673.19 201.857 L
S
GR
GS
[0.6 0 0 0.60023 0 0.25] CT
0.149 GC
2 setlinecap
1 LJ
0.833 LW
N
679 125.429 M
673.19 125.429 L
S
GR
GS
[0.6 0 0 0.60023 0 0.25] CT
0.149 GC
2 setlinecap
1 LJ
0.833 LW
N
679 49 M
673.19 49 L
S
GR
GS
[0.6 0 0 0.60023 54.8 350.78354] CT
0.149 GC
/Helvetica 16.667 F
GS
[1 0 0 1 0 0] CT
-25 6.5 moveto 
1 -1 scale
(-60) t 
GR
GR
GS
[0.6 0 0 0.60023 54.8 304.90893] CT
0.149 GC
/Helvetica 16.667 F
GS
[1 0 0 1 0 0] CT
-25 6.5 moveto 
1 -1 scale
(-50) t 
GR
GR
GS
[0.6 0 0 0.60023 54.8 259.0343] CT
0.149 GC
/Helvetica 16.667 F
GS
[1 0 0 1 0 0] CT
-25 6.5 moveto 
1 -1 scale
(-40) t 
GR
GR
GS
[0.6 0 0 0.60023 54.8 213.15969] CT
0.149 GC
/Helvetica 16.667 F
GS
[1 0 0 1 0 0] CT
-25 6.5 moveto 
1 -1 scale
(-30) t 
GR
GR
GS
[0.6 0 0 0.60023 54.8 167.28506] CT
0.149 GC
/Helvetica 16.667 F
GS
[1 0 0 1 0 0] CT
-25 6.5 moveto 
1 -1 scale
(-20) t 
GR
GR
GS
[0.6 0 0 0.60023 54.8 121.41044] CT
0.149 GC
/Helvetica 16.667 F
GS
[1 0 0 1 0 0] CT
-25 6.5 moveto 
1 -1 scale
(-10) t 
GR
GR
GS
[0.6 0 0 0.60023 54.8 75.53582] CT
0.149 GC
/Helvetica 16.667 F
GS
[1 0 0 1 0 0] CT
-10 6.5 moveto 
1 -1 scale
(0) t 
GR
GR
GS
[0.6 0 0 0.60023 54.8 29.6612] CT
0.149 GC
/Helvetica 16.667 F
GS
[1 0 0 1 0 0] CT
-19 6.5 moveto 
1 -1 scale
(10) t 
GR
GR
GS
[0 -0.60023 0.6 0 36.8 190.22221] CT
0.149 GC
/Helvetica 18.333 F
GS
[1 0 0 1 0 0] CT
-48.5 -5 moveto 
1 -1 scale
(Hamiltonian) t 
GR
GR
GS
[0.6 0 0 0.60023 233.10022 28.01058] CT
/Helvetica-Bold 18.333 F
GS
[1 0 0 1 0 0] CT
-89.5 -5 moveto 
1 -1 scale
(Hamiltonian vs Time) t 
GR
GR
GS
[0.6 0 0 0.60023 0 0.25] CT
1 0 0 RC
1 LJ
3.333 LW
N
98 422.396 M
98.982 422.396 L
103.01 422.396 L
109.613 422.398 L
117.785 422.397 L
126.285 422.4 L
133.816 422.399 L
139.233 422.403 L
141.691 422.4 L
S
GR
GS
[0.6 0 0 0.60023 0 0.25] CT
1 0 0 RC
1 LJ
3.333 LW
N
141.691 395.176 M
142.673 395.177 L
146.702 395.178 L
153.304 395.179 L
161.477 395.18 L
169.976 395.18 L
177.507 395.181 L
182.924 395.18 L
185.382 395.183 L
S
GR
GS
[0.6 0 0 0.60023 0 0.25] CT
1 0 0 RC
1 LJ
3.333 LW
N
185.382 330.524 M
186.827 330.525 L
192.752 330.524 L
202.462 330.524 L
214.482 330.525 L
226.982 330.523 L
238.059 330.526 L
246.026 330.521 L
249.641 330.535 L
S
GR
GS
[0.6 0 0 0.60023 0 0.25] CT
1 0 0 RC
1 LJ
3.333 LW
N
249.641 125.429 M
251.814 125.429 L
261 125.429 L
277.155 125.429 L
299.662 125.429 L
327.657 125.429 L
360.064 125.429 L
395.638 125.429 L
433.011 125.429 L
470.748 125.429 L
507.398 125.429 L
541.553 125.429 L
571.9 125.429 L
597.273 125.429 L
616.696 125.429 L
629.422 125.429 L
634.92 125.429 L
S
GR
GS
[0.6 0 0 0.60023 0 0.25] CT
[12 12] 0 setdash
2 LJ
3.333 LW
N
98 565.707 M
141.691 565.707 L
S
GR
GS
[0.6 0 0 0.60023 0 0.25] CT
[12 12] 0 setdash
2 LJ
3.333 LW
N
141.691 395.298 M
185.382 395.298 L
S
GR
GS
[0.6 0 0 0.60023 0 0.25] CT
[12 12] 0 setdash
2 LJ
3.333 LW
N
185.382 222.941 M
249.641 222.527 L
S
GR
GS
[0.6 0 0 0.60023 0 0.25] CT
[12 12] 0 setdash
2 LJ
3.333 LW
N
249.641 125.429 M
635.785 125.429 L
S
GR
GS
[0.6 0 0 0.60023 0 0.25] CT
1 GC
N
666 571 M
666 525 L
428 525 L
428 571 L
cp
f
GR
GS
[0.6 0 0 0.60023 292.08706 322.93456] CT
/Helvetica 15 F
GS
[1 0 0 1 0 0] CT
0 6 moveto 
1 -1 scale
(SPARTAN) t 
GR
GR
GS
[0.6 0 0 0.60023 0 0.25] CT
1 0 0 RC
1 LJ
3.333 LW
N
433.005 537.603 M
483.058 537.603 L
S
GR
GS
[0.6 0 0 0.60023 292.08706 335.41605] CT
/Helvetica 15 F
GS
[1 0 0 1 0 0] CT
0 6 moveto 
1 -1 scale
(2010, Rao et al. \(GPOPS\)) t 
GR
GR
GS
[0.6 0 0 0.60023 0 0.25] CT
[12 12] 0 setdash
2 LJ
3.333 LW
N
433.005 558.397 M
483.058 558.397 L
S
GR
GS
[0.6 0 0 0.60023 0 0.25] CT
0.149 GC
10.0 ML
0.833 LW
N
428 571 M
428 525 L
666 525 L
666 571 L
cp
S
GR
%%Trailer
%%Pages: 1
%%EOF
