%!PS-Adobe-3.0 EPSF-3.0
%%Creator: (MATLAB, The Mathworks, Inc. Version 9.6.0.1072779 \(R2019a\). Operating System: Windows 10)
%%Title: ./Hamiltonian.eps
%%CreationDate: 2020-11-24T15:44:03
%%Pages: (atend)
%%BoundingBox:    15     4   423   369
%%LanguageLevel: 3
%%EndComments
%%BeginProlog
%%BeginResource: procset (Apache XML Graphics Std ProcSet) 1.2 0
%%Version: 1.2 0
%%Copyright: (Copyright 2001-2003,2010 The Apache Software Foundation. License terms: http://www.apache.org/licenses/LICENSE-2.0)
/bd{bind def}bind def
/ld{load def}bd
/GR/grestore ld
/GS/gsave ld
/RM/rmoveto ld
/C/curveto ld
/t/show ld
/L/lineto ld
/ML/setmiterlimit ld
/CT/concat ld
/f/fill ld
/N/newpath ld
/S/stroke ld
/CC/setcmykcolor ld
/A/ashow ld
/cp/closepath ld
/RC/setrgbcolor ld
/LJ/setlinejoin ld
/GC/setgray ld
/LW/setlinewidth ld
/M/moveto ld
/re {4 2 roll M
1 index 0 rlineto
0 exch rlineto
neg 0 rlineto
cp } bd
/_ctm matrix def
/_tm matrix def
/BT { _ctm currentmatrix pop matrix _tm copy pop 0 0 moveto } bd
/ET { _ctm setmatrix } bd
/iTm { _ctm setmatrix _tm concat } bd
/Tm { _tm astore pop iTm 0 0 moveto } bd
/ux 0.0 def
/uy 0.0 def
/F {
  /Tp exch def
  /Tf exch def
  Tf findfont Tp scalefont setfont
  /cf Tf def  /cs Tp def
} bd
/ULS {currentpoint /uy exch def /ux exch def} bd
/ULE {
  /Tcx currentpoint pop def
  gsave
  newpath
  cf findfont cs scalefont dup
  /FontMatrix get 0 get /Ts exch def /FontInfo get dup
  /UnderlinePosition get Ts mul /To exch def
  /UnderlineThickness get Ts mul /Tt exch def
  ux uy To add moveto  Tcx uy To add lineto
  Tt setlinewidth stroke
  grestore
} bd
/OLE {
  /Tcx currentpoint pop def
  gsave
  newpath
  cf findfont cs scalefont dup
  /FontMatrix get 0 get /Ts exch def /FontInfo get dup
  /UnderlinePosition get Ts mul /To exch def
  /UnderlineThickness get Ts mul /Tt exch def
  ux uy To add cs add moveto Tcx uy To add cs add lineto
  Tt setlinewidth stroke
  grestore
} bd
/SOE {
  /Tcx currentpoint pop def
  gsave
  newpath
  cf findfont cs scalefont dup
  /FontMatrix get 0 get /Ts exch def /FontInfo get dup
  /UnderlinePosition get Ts mul /To exch def
  /UnderlineThickness get Ts mul /Tt exch def
  ux uy To add cs 10 mul 26 idiv add moveto Tcx uy To add cs 10 mul 26 idiv add lineto
  Tt setlinewidth stroke
  grestore
} bd
/QT {
/Y22 exch store
/X22 exch store
/Y21 exch store
/X21 exch store
currentpoint
/Y21 load 2 mul add 3 div exch
/X21 load 2 mul add 3 div exch
/X21 load 2 mul /X22 load add 3 div
/Y21 load 2 mul /Y22 load add 3 div
/X22 load /Y22 load curveto
} bd
/SSPD {
dup length /d exch dict def
{
/v exch def
/k exch def
currentpagedevice k known {
/cpdv currentpagedevice k get def
v cpdv ne {
/upd false def
/nullv v type /nulltype eq def
/nullcpdv cpdv type /nulltype eq def
nullv nullcpdv or
{
/upd true def
} {
/sametype v type cpdv type eq def
sametype {
v type /arraytype eq {
/vlen v length def
/cpdvlen cpdv length def
vlen cpdvlen eq {
0 1 vlen 1 sub {
/i exch def
/obj v i get def
/cpdobj cpdv i get def
obj cpdobj ne {
/upd true def
exit
} if
} for
} {
/upd true def
} ifelse
} {
v type /dicttype eq {
v {
/dv exch def
/dk exch def
/cpddv cpdv dk get def
dv cpddv ne {
/upd true def
exit
} if
} forall
} {
/upd true def
} ifelse
} ifelse
} if
} ifelse
upd true eq {
d k v put
} if
} if
} if
} forall
d length 0 gt {
d setpagedevice
} if
} bd
/RE { % /NewFontName [NewEncodingArray] /FontName RE -
  findfont dup length dict begin
  {
    1 index /FID ne
    {def} {pop pop} ifelse
  } forall
  /Encoding exch def
  /FontName 1 index def
  currentdict definefont pop
  end
} bind def
%%EndResource
%%BeginResource: procset (Apache XML Graphics EPS ProcSet) 1.0 0
%%Version: 1.0 0
%%Copyright: (Copyright 2002-2003 The Apache Software Foundation. License terms: http://www.apache.org/licenses/LICENSE-2.0)
/BeginEPSF { %def
/b4_Inc_state save def         % Save state for cleanup
/dict_count countdictstack def % Count objects on dict stack
/op_count count 1 sub def      % Count objects on operand stack
userdict begin                 % Push userdict on dict stack
/showpage { } def              % Redefine showpage, { } = null proc
0 setgray 0 setlinecap         % Prepare graphics state
1 setlinewidth 0 setlinejoin
10 setmiterlimit [ ] 0 setdash newpath
/languagelevel where           % If level not equal to 1 then
{pop languagelevel             % set strokeadjust and
1 ne                           % overprint to their defaults.
{false setstrokeadjust false setoverprint
} if
} if
} bd
/EndEPSF { %def
count op_count sub {pop} repeat            % Clean up stacks
countdictstack dict_count sub {end} repeat
b4_Inc_state restore
} bd
%%EndResource
%FOPBeginFontDict
%%IncludeResource: font Courier-Oblique
%%IncludeResource: font Courier-BoldOblique
%%IncludeResource: font Courier-Bold
%%IncludeResource: font ZapfDingbats
%%IncludeResource: font Symbol
%%IncludeResource: font Helvetica
%%IncludeResource: font Helvetica-Oblique
%%IncludeResource: font Helvetica-Bold
%%IncludeResource: font Helvetica-BoldOblique
%%IncludeResource: font Times-Roman
%%IncludeResource: font Times-Italic
%%IncludeResource: font Times-Bold
%%IncludeResource: font Times-BoldItalic
%%IncludeResource: font Courier
%FOPEndFontDict
%%BeginResource: encoding WinAnsiEncoding
/WinAnsiEncoding [
/.notdef /.notdef /.notdef /.notdef /.notdef
/.notdef /.notdef /.notdef /.notdef /.notdef
/.notdef /.notdef /.notdef /.notdef /.notdef
/.notdef /.notdef /.notdef /.notdef /.notdef
/.notdef /.notdef /.notdef /.notdef /.notdef
/.notdef /.notdef /.notdef /.notdef /.notdef
/.notdef /.notdef /space /exclam /quotedbl
/numbersign /dollar /percent /ampersand /quotesingle
/parenleft /parenright /asterisk /plus /comma
/hyphen /period /slash /zero /one
/two /three /four /five /six
/seven /eight /nine /colon /semicolon
/less /equal /greater /question /at
/A /B /C /D /E
/F /G /H /I /J
/K /L /M /N /O
/P /Q /R /S /T
/U /V /W /X /Y
/Z /bracketleft /backslash /bracketright /asciicircum
/underscore /quoteleft /a /b /c
/d /e /f /g /h
/i /j /k /l /m
/n /o /p /q /r
/s /t /u /v /w
/x /y /z /braceleft /bar
/braceright /asciitilde /bullet /Euro /bullet
/quotesinglbase /florin /quotedblbase /ellipsis /dagger
/daggerdbl /circumflex /perthousand /Scaron /guilsinglleft
/OE /bullet /Zcaron /bullet /bullet
/quoteleft /quoteright /quotedblleft /quotedblright /bullet
/endash /emdash /asciitilde /trademark /scaron
/guilsinglright /oe /bullet /zcaron /Ydieresis
/space /exclamdown /cent /sterling /currency
/yen /brokenbar /section /dieresis /copyright
/ordfeminine /guillemotleft /logicalnot /sfthyphen /registered
/macron /degree /plusminus /twosuperior /threesuperior
/acute /mu /paragraph /middot /cedilla
/onesuperior /ordmasculine /guillemotright /onequarter /onehalf
/threequarters /questiondown /Agrave /Aacute /Acircumflex
/Atilde /Adieresis /Aring /AE /Ccedilla
/Egrave /Eacute /Ecircumflex /Edieresis /Igrave
/Iacute /Icircumflex /Idieresis /Eth /Ntilde
/Ograve /Oacute /Ocircumflex /Otilde /Odieresis
/multiply /Oslash /Ugrave /Uacute /Ucircumflex
/Udieresis /Yacute /Thorn /germandbls /agrave
/aacute /acircumflex /atilde /adieresis /aring
/ae /ccedilla /egrave /eacute /ecircumflex
/edieresis /igrave /iacute /icircumflex /idieresis
/eth /ntilde /ograve /oacute /ocircumflex
/otilde /odieresis /divide /oslash /ugrave
/uacute /ucircumflex /udieresis /yacute /thorn
/ydieresis
] def
%%EndResource
%FOPBeginFontReencode
/Courier-Oblique findfont
dup length dict begin
  {1 index /FID ne {def} {pop pop} ifelse} forall
  /Encoding WinAnsiEncoding def
  currentdict
end
/Courier-Oblique exch definefont pop
/Courier-BoldOblique findfont
dup length dict begin
  {1 index /FID ne {def} {pop pop} ifelse} forall
  /Encoding WinAnsiEncoding def
  currentdict
end
/Courier-BoldOblique exch definefont pop
/Courier-Bold findfont
dup length dict begin
  {1 index /FID ne {def} {pop pop} ifelse} forall
  /Encoding WinAnsiEncoding def
  currentdict
end
/Courier-Bold exch definefont pop
/Helvetica findfont
dup length dict begin
  {1 index /FID ne {def} {pop pop} ifelse} forall
  /Encoding WinAnsiEncoding def
  currentdict
end
/Helvetica exch definefont pop
/Helvetica-Oblique findfont
dup length dict begin
  {1 index /FID ne {def} {pop pop} ifelse} forall
  /Encoding WinAnsiEncoding def
  currentdict
end
/Helvetica-Oblique exch definefont pop
/Helvetica-Bold findfont
dup length dict begin
  {1 index /FID ne {def} {pop pop} ifelse} forall
  /Encoding WinAnsiEncoding def
  currentdict
end
/Helvetica-Bold exch definefont pop
/Helvetica-BoldOblique findfont
dup length dict begin
  {1 index /FID ne {def} {pop pop} ifelse} forall
  /Encoding WinAnsiEncoding def
  currentdict
end
/Helvetica-BoldOblique exch definefont pop
/Times-Roman findfont
dup length dict begin
  {1 index /FID ne {def} {pop pop} ifelse} forall
  /Encoding WinAnsiEncoding def
  currentdict
end
/Times-Roman exch definefont pop
/Times-Italic findfont
dup length dict begin
  {1 index /FID ne {def} {pop pop} ifelse} forall
  /Encoding WinAnsiEncoding def
  currentdict
end
/Times-Italic exch definefont pop
/Times-Bold findfont
dup length dict begin
  {1 index /FID ne {def} {pop pop} ifelse} forall
  /Encoding WinAnsiEncoding def
  currentdict
end
/Times-Bold exch definefont pop
/Times-BoldItalic findfont
dup length dict begin
  {1 index /FID ne {def} {pop pop} ifelse} forall
  /Encoding WinAnsiEncoding def
  currentdict
end
/Times-BoldItalic exch definefont pop
/Courier findfont
dup length dict begin
  {1 index /FID ne {def} {pop pop} ifelse} forall
  /Encoding WinAnsiEncoding def
  currentdict
end
/Courier exch definefont pop
%FOPEndFontReencode
%%EndProlog
%%Page: 1 1
%%PageBoundingBox: 0 0 450 394
%%BeginPageSetup
[1 0 0 -1 0 394] CT
%%EndPageSetup
GS
[0.6 0 0 0.60023 0 0.25] CT
1 GC
N
0 0 750 656 re
f
GR
GS
[0.6 0 0 0.60023 0 0.25] CT
1 GC
N
0 0 750 656 re
f
GR
GS
[0.6 0 0 0.60023 0 0.25] CT
1 GC
N
98 584 M
679 584 L
679 49 L
98 49 L
cp
f
GR
GS
[0.6 0 0 0.60023 0 0.25] CT
0.775 GC
[1 3] 0 setdash
2 LJ
0.833 LW
N
127.05 584 M
127.05 49 L
S
GR
GS
[0.6 0 0 0.60023 0 0.25] CT
0.775 GC
[1 3] 0 setdash
2 LJ
0.833 LW
N
156.1 584 M
156.1 49 L
S
GR
GS
[0.6 0 0 0.60023 0 0.25] CT
0.775 GC
[1 3] 0 setdash
2 LJ
0.833 LW
N
185.15 584 M
185.15 49 L
S
GR
GS
[0.6 0 0 0.60023 0 0.25] CT
0.775 GC
[1 3] 0 setdash
2 LJ
0.833 LW
N
243.25 584 M
243.25 49 L
S
GR
GS
[0.6 0 0 0.60023 0 0.25] CT
0.775 GC
[1 3] 0 setdash
2 LJ
0.833 LW
N
272.3 584 M
272.3 49 L
S
GR
GS
[0.6 0 0 0.60023 0 0.25] CT
0.775 GC
[1 3] 0 setdash
2 LJ
0.833 LW
N
301.35 584 M
301.35 49 L
S
GR
GS
[0.6 0 0 0.60023 0 0.25] CT
0.775 GC
[1 3] 0 setdash
2 LJ
0.833 LW
N
359.45 584 M
359.45 49 L
S
GR
GS
[0.6 0 0 0.60023 0 0.25] CT
0.775 GC
[1 3] 0 setdash
2 LJ
0.833 LW
N
388.5 584 M
388.5 49 L
S
GR
GS
[0.6 0 0 0.60023 0 0.25] CT
0.775 GC
[1 3] 0 setdash
2 LJ
0.833 LW
N
417.55 584 M
417.55 49 L
S
GR
GS
[0.6 0 0 0.60023 0 0.25] CT
0.775 GC
[1 3] 0 setdash
2 LJ
0.833 LW
N
475.65 584 M
475.65 49 L
S
GR
GS
[0.6 0 0 0.60023 0 0.25] CT
0.775 GC
[1 3] 0 setdash
2 LJ
0.833 LW
N
504.7 584 M
504.7 49 L
S
GR
GS
[0.6 0 0 0.60023 0 0.25] CT
0.775 GC
[1 3] 0 setdash
2 LJ
0.833 LW
N
533.75 584 M
533.75 49 L
S
GR
GS
[0.6 0 0 0.60023 0 0.25] CT
0.775 GC
[1 3] 0 setdash
2 LJ
0.833 LW
N
591.85 584 M
591.85 49 L
S
GR
GS
[0.6 0 0 0.60023 0 0.25] CT
0.775 GC
[1 3] 0 setdash
2 LJ
0.833 LW
N
620.9 584 M
620.9 49 L
S
GR
GS
[0.6 0 0 0.60023 0 0.25] CT
0.775 GC
[1 3] 0 setdash
2 LJ
0.833 LW
N
649.95 584 M
649.95 49 L
S
GR
GS
[0.6 0 0 0.60023 0 0.25] CT
0.873 GC
1 LJ
0.833 LW
N
98 584 M
98 49 L
S
GR
GS
[0.6 0 0 0.60023 0 0.25] CT
0.873 GC
1 LJ
0.833 LW
N
214.2 584 M
214.2 49 L
S
GR
GS
[0.6 0 0 0.60023 0 0.25] CT
0.873 GC
1 LJ
0.833 LW
N
330.4 584 M
330.4 49 L
S
GR
GS
[0.6 0 0 0.60023 0 0.25] CT
0.873 GC
1 LJ
0.833 LW
N
446.6 584 M
446.6 49 L
S
GR
GS
[0.6 0 0 0.60023 0 0.25] CT
0.873 GC
1 LJ
0.833 LW
N
562.8 584 M
562.8 49 L
S
GR
GS
[0.6 0 0 0.60023 0 0.25] CT
0.873 GC
1 LJ
0.833 LW
N
679 584 M
679 49 L
S
GR
GS
[0.6 0 0 0.60023 0 0.25] CT
0.775 GC
[1 3] 0 setdash
2 LJ
0.833 LW
N
679 568.714 M
98 568.714 L
S
GR
GS
[0.6 0 0 0.60023 0 0.25] CT
0.775 GC
[1 3] 0 setdash
2 LJ
0.833 LW
N
679 553.429 M
98 553.429 L
S
GR
GS
[0.6 0 0 0.60023 0 0.25] CT
0.775 GC
[1 3] 0 setdash
2 LJ
0.833 LW
N
679 538.143 M
98 538.143 L
S
GR
GS
[0.6 0 0 0.60023 0 0.25] CT
0.775 GC
[1 3] 0 setdash
2 LJ
0.833 LW
N
679 522.857 M
98 522.857 L
S
GR
GS
[0.6 0 0 0.60023 0 0.25] CT
0.775 GC
[1 3] 0 setdash
2 LJ
0.833 LW
N
679 492.286 M
98 492.286 L
S
GR
GS
[0.6 0 0 0.60023 0 0.25] CT
0.775 GC
[1 3] 0 setdash
2 LJ
0.833 LW
N
679 477 M
98 477 L
S
GR
GS
[0.6 0 0 0.60023 0 0.25] CT
0.775 GC
[1 3] 0 setdash
2 LJ
0.833 LW
N
679 461.714 M
98 461.714 L
S
GR
GS
[0.6 0 0 0.60023 0 0.25] CT
0.775 GC
[1 3] 0 setdash
2 LJ
0.833 LW
N
679 446.429 M
98 446.429 L
S
GR
GS
[0.6 0 0 0.60023 0 0.25] CT
0.775 GC
[1 3] 0 setdash
2 LJ
0.833 LW
N
679 415.857 M
98 415.857 L
S
GR
GS
[0.6 0 0 0.60023 0 0.25] CT
0.775 GC
[1 3] 0 setdash
2 LJ
0.833 LW
N
679 400.571 M
98 400.571 L
S
GR
GS
[0.6 0 0 0.60023 0 0.25] CT
0.775 GC
[1 3] 0 setdash
2 LJ
0.833 LW
N
679 385.286 M
98 385.286 L
S
GR
GS
[0.6 0 0 0.60023 0 0.25] CT
0.775 GC
[1 3] 0 setdash
2 LJ
0.833 LW
N
679 370 M
98 370 L
S
GR
GS
[0.6 0 0 0.60023 0 0.25] CT
0.775 GC
[1 3] 0 setdash
2 LJ
0.833 LW
N
679 339.429 M
98 339.429 L
S
GR
GS
[0.6 0 0 0.60023 0 0.25] CT
0.775 GC
[1 3] 0 setdash
2 LJ
0.833 LW
N
679 324.143 M
98 324.143 L
S
GR
GS
[0.6 0 0 0.60023 0 0.25] CT
0.775 GC
[1 3] 0 setdash
2 LJ
0.833 LW
N
679 308.857 M
98 308.857 L
S
GR
GS
[0.6 0 0 0.60023 0 0.25] CT
0.775 GC
[1 3] 0 setdash
2 LJ
0.833 LW
N
679 293.571 M
98 293.571 L
S
GR
GS
[0.6 0 0 0.60023 0 0.25] CT
0.775 GC
[1 3] 0 setdash
2 LJ
0.833 LW
N
679 263 M
98 263 L
S
GR
GS
[0.6 0 0 0.60023 0 0.25] CT
0.775 GC
[1 3] 0 setdash
2 LJ
0.833 LW
N
679 247.714 M
98 247.714 L
S
GR
GS
[0.6 0 0 0.60023 0 0.25] CT
0.775 GC
[1 3] 0 setdash
2 LJ
0.833 LW
N
679 232.429 M
98 232.429 L
S
GR
GS
[0.6 0 0 0.60023 0 0.25] CT
0.775 GC
[1 3] 0 setdash
2 LJ
0.833 LW
N
679 217.143 M
98 217.143 L
S
GR
GS
[0.6 0 0 0.60023 0 0.25] CT
0.775 GC
[1 3] 0 setdash
2 LJ
0.833 LW
N
679 186.571 M
98 186.571 L
S
GR
GS
[0.6 0 0 0.60023 0 0.25] CT
0.775 GC
[1 3] 0 setdash
2 LJ
0.833 LW
N
679 171.286 M
98 171.286 L
S
GR
GS
[0.6 0 0 0.60023 0 0.25] CT
0.775 GC
[1 3] 0 setdash
2 LJ
0.833 LW
N
679 156 M
98 156 L
S
GR
GS
[0.6 0 0 0.60023 0 0.25] CT
0.775 GC
[1 3] 0 setdash
2 LJ
0.833 LW
N
679 140.714 M
98 140.714 L
S
GR
GS
[0.6 0 0 0.60023 0 0.25] CT
0.775 GC
[1 3] 0 setdash
2 LJ
0.833 LW
N
679 110.143 M
98 110.143 L
S
GR
GS
[0.6 0 0 0.60023 0 0.25] CT
0.775 GC
[1 3] 0 setdash
2 LJ
0.833 LW
N
679 94.857 M
98 94.857 L
S
GR
GS
[0.6 0 0 0.60023 0 0.25] CT
0.775 GC
[1 3] 0 setdash
2 LJ
0.833 LW
N
679 79.571 M
98 79.571 L
S
GR
GS
[0.6 0 0 0.60023 0 0.25] CT
0.775 GC
[1 3] 0 setdash
2 LJ
0.833 LW
N
679 64.286 M
98 64.286 L
S
GR
GS
[0.6 0 0 0.60023 0 0.25] CT
0.873 GC
1 LJ
0.833 LW
N
679 584 M
98 584 L
S
GR
GS
[0.6 0 0 0.60023 0 0.25] CT
0.873 GC
1 LJ
0.833 LW
N
679 507.571 M
98 507.571 L
S
GR
GS
[0.6 0 0 0.60023 0 0.25] CT
0.873 GC
1 LJ
0.833 LW
N
679 431.143 M
98 431.143 L
S
GR
GS
[0.6 0 0 0.60023 0 0.25] CT
0.873 GC
1 LJ
0.833 LW
N
679 354.714 M
98 354.714 L
S
GR
GS
[0.6 0 0 0.60023 0 0.25] CT
0.873 GC
1 LJ
0.833 LW
N
679 278.286 M
98 278.286 L
S
GR
GS
[0.6 0 0 0.60023 0 0.25] CT
0.873 GC
1 LJ
0.833 LW
N
679 201.857 M
98 201.857 L
S
GR
GS
[0.6 0 0 0.60023 0 0.25] CT
0.873 GC
1 LJ
0.833 LW
N
679 125.429 M
98 125.429 L
S
GR
GS
[0.6 0 0 0.60023 0 0.25] CT
0.873 GC
1 LJ
0.833 LW
N
679 49 M
98 49 L
S
GR
GS
[0.6 0 0 0.60023 0 0.25] CT
0.149 GC
2 setlinecap
1 LJ
0.833 LW
N
98 584 M
679 584 L
S
GR
GS
[0.6 0 0 0.60023 0 0.25] CT
0.149 GC
2 setlinecap
1 LJ
0.833 LW
N
98 49 M
679 49 L
S
GR
GS
[0.6 0 0 0.60023 0 0.25] CT
0.149 GC
2 setlinecap
1 LJ
0.833 LW
N
98 584 M
98 578.19 L
S
GR
GS
[0.6 0 0 0.60023 0 0.25] CT
0.149 GC
2 setlinecap
1 LJ
0.833 LW
N
214.2 584 M
214.2 578.19 L
S
GR
GS
[0.6 0 0 0.60023 0 0.25] CT
0.149 GC
2 setlinecap
1 LJ
0.833 LW
N
330.4 584 M
330.4 578.19 L
S
GR
GS
[0.6 0 0 0.60023 0 0.25] CT
0.149 GC
2 setlinecap
1 LJ
0.833 LW
N
446.6 584 M
446.6 578.19 L
S
GR
GS
[0.6 0 0 0.60023 0 0.25] CT
0.149 GC
2 setlinecap
1 LJ
0.833 LW
N
562.8 584 M
562.8 578.19 L
S
GR
GS
[0.6 0 0 0.60023 0 0.25] CT
0.149 GC
2 setlinecap
1 LJ
0.833 LW
N
679 584 M
679 578.19 L
S
GR
GS
[0.6 0 0 0.60023 0 0.25] CT
0.149 GC
2 setlinecap
1 LJ
0.833 LW
N
98 49 M
98 54.81 L
S
GR
GS
[0.6 0 0 0.60023 0 0.25] CT
0.149 GC
2 setlinecap
1 LJ
0.833 LW
N
214.2 49 M
214.2 54.81 L
S
GR
GS
[0.6 0 0 0.60023 0 0.25] CT
0.149 GC
2 setlinecap
1 LJ
0.833 LW
N
330.4 49 M
330.4 54.81 L
S
GR
GS
[0.6 0 0 0.60023 0 0.25] CT
0.149 GC
2 setlinecap
1 LJ
0.833 LW
N
446.6 49 M
446.6 54.81 L
S
GR
GS
[0.6 0 0 0.60023 0 0.25] CT
0.149 GC
2 setlinecap
1 LJ
0.833 LW
N
562.8 49 M
562.8 54.81 L
S
GR
GS
[0.6 0 0 0.60023 0 0.25] CT
0.149 GC
2 setlinecap
1 LJ
0.833 LW
N
679 49 M
679 54.81 L
S
GR
GS
[0.6 0 0 0.60023 58.8 355.58537] CT
0.149 GC
/Helvetica 23.333 F
GS
[1 0 0 1 0 0] CT
-6.5 24 moveto 
1 -1 scale
(0) t 
GR
GR
GS
[0.6 0 0 0.60023 128.52 355.58537] CT
0.149 GC
/Helvetica 23.333 F
GS
[1 0 0 1 0 0] CT
-19.5 24 moveto 
1 -1 scale
(200) t 
GR
GR
GS
[0.6 0 0 0.60023 198.24 355.58537] CT
0.149 GC
/Helvetica 23.333 F
GS
[1 0 0 1 0 0] CT
-19.5 24 moveto 
1 -1 scale
(400) t 
GR
GR
GS
[0.6 0 0 0.60023 267.96 355.58537] CT
0.149 GC
/Helvetica 23.333 F
GS
[1 0 0 1 0 0] CT
-19.5 24 moveto 
1 -1 scale
(600) t 
GR
GR
GS
[0.6 0 0 0.60023 337.67999 355.58537] CT
0.149 GC
/Helvetica 23.333 F
GS
[1 0 0 1 0 0] CT
-19.5 24 moveto 
1 -1 scale
(800) t 
GR
GR
GS
[0.6 0 0 0.60023 407.4 355.58537] CT
0.149 GC
/Helvetica 23.333 F
GS
[1 0 0 1 0 0] CT
-26 24 moveto 
1 -1 scale
(1000) t 
GR
GR
GS
[0.6 0 0 0.60023 233.10016 374.59262] CT
0.149 GC
N
-40.248 19.6 M
-40.248 18.787 L
-39.092 18.787 -38.006 18.662 QT
-36.92 18.537 -36.92 18.069 QT
-36.92 5.428 L
-36.92 4.928 -37.194 4.811 QT
-37.467 4.694 -38.092 4.694 QT
-39.045 4.694 L
-40.951 4.694 -41.748 5.522 QT
-42.155 5.944 -42.334 6.858 QT
-42.514 7.772 -42.639 9.162 QT
-43.311 9.162 L
-42.873 3.881 L
-28.826 3.881 L
-28.389 9.162 L
-29.061 9.162 L
-29.186 7.678 -29.35 6.803 QT
-29.514 5.928 -29.936 5.522 QT
-30.748 4.694 -32.639 4.694 QT
-33.608 4.694 L
-34.014 4.694 -34.248 4.733 QT
-34.483 4.772 -34.631 4.928 QT
-34.78 5.084 -34.78 5.428 QT
-34.78 18.069 L
-34.78 18.537 -33.686 18.662 QT
-32.592 18.787 -31.451 18.787 QT
-31.451 19.6 L
-40.248 19.6 L
cp
f
GR
GS
[0.6 0 0 0.60023 233.10016 374.59262] CT
0.149 GC
N
-26.584 19.6 M
-26.584 18.787 L
-25.787 18.787 -25.287 18.662 QT
-24.787 18.537 -24.787 18.069 QT
-24.787 11.787 L
-24.787 10.897 -25.131 10.694 QT
-25.475 10.491 -26.475 10.491 QT
-26.475 9.678 L
-23.162 9.444 L
-23.162 18.069 L
-23.162 18.537 -22.725 18.662 QT
-22.287 18.787 -21.553 18.787 QT
-21.553 19.6 L
-26.584 19.6 L
cp
-25.6 5.491 M
-25.6 4.975 -25.217 4.592 QT
-24.834 4.209 -24.35 4.209 QT
-24.021 4.209 -23.717 4.381 QT
-23.412 4.553 -23.24 4.858 QT
-23.068 5.162 -23.068 5.491 QT
-23.068 5.975 -23.451 6.358 QT
-23.834 6.741 -24.35 6.741 QT
-24.834 6.741 -25.217 6.358 QT
-25.6 5.975 -25.6 5.491 QT
cp
f
GR
GS
[0.6 0 0 0.60023 233.10016 374.59262] CT
0.149 GC
N
-20.118 19.6 M
-20.118 18.787 L
-19.337 18.787 -18.829 18.662 QT
-18.321 18.537 -18.321 18.069 QT
-18.321 11.787 L
-18.321 11.162 -18.509 10.889 QT
-18.696 10.616 -19.04 10.553 QT
-19.384 10.491 -20.118 10.491 QT
-20.118 9.678 L
-16.79 9.444 L
-16.79 11.678 L
-16.321 10.694 -15.415 10.069 QT
-14.509 9.444 -13.446 9.444 QT
-10.806 9.444 -10.337 11.6 QT
-9.884 10.631 -8.993 10.037 QT
-8.102 9.444 -7.056 9.444 QT
-6.009 9.444 -5.29 9.78 QT
-4.571 10.116 -4.212 10.803 QT
-3.852 11.491 -3.852 12.537 QT
-3.852 18.069 L
-3.852 18.537 -3.345 18.662 QT
-2.837 18.787 -2.056 18.787 QT
-2.056 19.6 L
-7.321 19.6 L
-7.321 18.787 L
-6.54 18.787 -6.032 18.662 QT
-5.524 18.537 -5.524 18.069 QT
-5.524 12.6 L
-5.524 11.444 -5.852 10.741 QT
-6.181 10.037 -7.196 10.037 QT
-8.524 10.037 -9.384 11.1 QT
-10.243 12.162 -10.243 13.522 QT
-10.243 18.069 L
-10.243 18.537 -9.743 18.662 QT
-9.243 18.787 -8.446 18.787 QT
-8.446 19.6 L
-13.712 19.6 L
-13.712 18.787 L
-12.931 18.787 -12.423 18.662 QT
-11.915 18.537 -11.915 18.069 QT
-11.915 12.6 L
-11.915 11.475 -12.243 10.756 QT
-12.571 10.037 -13.587 10.037 QT
-14.915 10.037 -15.774 11.1 QT
-16.634 12.162 -16.634 13.522 QT
-16.634 18.069 L
-16.634 18.537 -16.134 18.662 QT
-15.634 18.787 -14.852 18.787 QT
-14.852 19.6 L
-20.118 19.6 L
cp
f
GR
GS
[0.6 0 0 0.60023 233.10016 374.59262] CT
0.149 GC
N
4.373 19.866 M
2.967 19.866 1.795 19.123 QT
0.623 18.381 -0.049 17.155 QT
-0.72 15.928 -0.72 14.553 QT
-0.72 13.209 -0.111 11.998 QT
0.498 10.787 1.592 10.037 QT
2.686 9.287 4.045 9.287 QT
5.092 9.287 5.873 9.639 QT
6.655 9.991 7.162 10.623 QT
7.67 11.256 7.928 12.108 QT
8.186 12.959 8.186 13.991 QT
8.186 14.287 7.951 14.287 QT
1.295 14.287 L
1.295 14.537 L
1.295 16.444 2.061 17.811 QT
2.826 19.178 4.576 19.178 QT
5.28 19.178 5.881 18.866 QT
6.483 18.553 6.92 17.991 QT
7.358 17.428 7.53 16.787 QT
7.545 16.709 7.608 16.647 QT
7.67 16.584 7.748 16.584 QT
7.951 16.584 L
8.186 16.584 8.186 16.881 QT
7.858 18.178 6.78 19.022 QT
5.701 19.866 4.373 19.866 QT
cp
1.311 13.709 M
6.561 13.709 L
6.561 12.85 6.319 11.959 QT
6.076 11.069 5.514 10.483 QT
4.951 9.897 4.045 9.897 QT
2.733 9.897 2.022 11.116 QT
1.311 12.334 1.311 13.709 QT
cp
f
GR
GS
[0.6 0 0 0.60023 233.10016 374.59262] CT
0.149 GC
N
23.912 25.303 M
22.631 24.287 21.709 22.983 QT
20.787 21.678 20.193 20.194 QT
19.6 18.709 19.311 17.092 QT
19.021 15.475 19.021 13.85 QT
19.021 12.194 19.311 10.576 QT
19.6 8.959 20.201 7.467 QT
20.803 5.975 21.74 4.67 QT
22.678 3.366 23.912 2.397 QT
23.912 2.35 24.037 2.35 QT
24.24 2.35 L
24.318 2.35 24.373 2.412 QT
24.428 2.475 24.428 2.553 QT
24.428 2.647 24.381 2.694 QT
23.256 3.803 22.506 5.061 QT
21.756 6.319 21.303 7.741 QT
20.85 9.162 20.646 10.678 QT
20.443 12.194 20.443 13.85 QT
20.443 21.162 24.35 24.959 QT
24.428 25.022 24.428 25.147 QT
24.428 25.209 24.365 25.28 QT
24.303 25.35 24.24 25.35 QT
24.037 25.35 L
23.912 25.35 23.912 25.303 QT
cp
f
GR
GS
[0.6 0 0 0.60023 233.10016 374.59262] CT
0.149 GC
N
26.627 19.662 M
26.627 15.912 L
26.627 15.741 26.83 15.741 QT
27.111 15.741 L
27.236 15.741 27.283 15.912 QT
27.924 19.256 30.392 19.256 QT
31.471 19.256 32.213 18.756 QT
32.955 18.256 32.955 17.225 QT
32.955 16.491 32.377 15.967 QT
31.799 15.444 31.017 15.256 QT
29.471 14.944 L
28.705 14.787 28.072 14.436 QT
27.439 14.084 27.033 13.506 QT
26.627 12.928 26.627 12.162 QT
26.627 11.147 27.158 10.506 QT
27.689 9.866 28.541 9.576 QT
29.392 9.287 30.392 9.287 QT
31.564 9.287 32.439 9.912 QT
33.111 9.35 L
33.111 9.287 33.221 9.287 QT
33.392 9.287 L
33.455 9.287 33.51 9.35 QT
33.564 9.412 33.564 9.475 QT
33.564 12.491 L
33.564 12.709 33.392 12.709 QT
33.111 12.709 L
32.908 12.709 32.908 12.491 QT
32.908 11.287 32.236 10.561 QT
31.564 9.834 30.361 9.834 QT
29.33 9.834 28.572 10.217 QT
27.814 10.6 27.814 11.522 QT
27.814 12.162 28.361 12.576 QT
28.908 12.991 29.642 13.162 QT
31.189 13.459 L
31.986 13.631 32.666 14.061 QT
33.346 14.491 33.744 15.139 QT
34.142 15.787 34.142 16.616 QT
34.142 17.444 33.853 18.053 QT
33.564 18.662 33.056 19.069 QT
32.549 19.475 31.853 19.67 QT
31.158 19.866 30.392 19.866 QT
28.955 19.866 27.924 18.897 QT
27.08 19.803 L
27.08 19.866 26.955 19.866 QT
26.83 19.866 L
26.627 19.866 26.627 19.662 QT
cp
f
GR
GS
[0.6 0 0 0.60023 233.10016 374.59262] CT
0.149 GC
N
36.565 25.35 M
36.362 25.35 36.362 25.147 QT
36.362 25.053 36.409 25.006 QT
40.33 21.162 40.33 13.85 QT
40.33 6.537 36.44 2.741 QT
36.362 2.694 36.362 2.553 QT
36.362 2.475 36.424 2.412 QT
36.487 2.35 36.565 2.35 QT
36.768 2.35 L
36.846 2.35 36.877 2.397 QT
38.534 3.694 39.635 5.561 QT
40.737 7.428 41.245 9.537 QT
41.752 11.647 41.752 13.85 QT
41.752 15.475 41.479 17.053 QT
41.205 18.631 40.604 20.162 QT
40.002 21.694 39.08 22.991 QT
38.159 24.287 36.877 25.303 QT
36.846 25.35 36.768 25.35 QT
36.565 25.35 L
cp
f
GR
GS
[0.6 0 0 0.60023 0 0.25] CT
0.149 GC
2 setlinecap
1 LJ
0.833 LW
N
98 584 M
98 49 L
S
GR
GS
[0.6 0 0 0.60023 0 0.25] CT
0.149 GC
2 setlinecap
1 LJ
0.833 LW
N
679 584 M
679 49 L
S
GR
GS
[0.6 0 0 0.60023 0 0.25] CT
0.149 GC
2 setlinecap
1 LJ
0.833 LW
N
98 584 M
103.81 584 L
S
GR
GS
[0.6 0 0 0.60023 0 0.25] CT
0.149 GC
2 setlinecap
1 LJ
0.833 LW
N
98 507.571 M
103.81 507.571 L
S
GR
GS
[0.6 0 0 0.60023 0 0.25] CT
0.149 GC
2 setlinecap
1 LJ
0.833 LW
N
98 431.143 M
103.81 431.143 L
S
GR
GS
[0.6 0 0 0.60023 0 0.25] CT
0.149 GC
2 setlinecap
1 LJ
0.833 LW
N
98 354.714 M
103.81 354.714 L
S
GR
GS
[0.6 0 0 0.60023 0 0.25] CT
0.149 GC
2 setlinecap
1 LJ
0.833 LW
N
98 278.286 M
103.81 278.286 L
S
GR
GS
[0.6 0 0 0.60023 0 0.25] CT
0.149 GC
2 setlinecap
1 LJ
0.833 LW
N
98 201.857 M
103.81 201.857 L
S
GR
GS
[0.6 0 0 0.60023 0 0.25] CT
0.149 GC
2 setlinecap
1 LJ
0.833 LW
N
98 125.429 M
103.81 125.429 L
S
GR
GS
[0.6 0 0 0.60023 0 0.25] CT
0.149 GC
2 setlinecap
1 LJ
0.833 LW
N
98 49 M
103.81 49 L
S
GR
GS
[0.6 0 0 0.60023 0 0.25] CT
0.149 GC
2 setlinecap
1 LJ
0.833 LW
N
679 584 M
673.19 584 L
S
GR
GS
[0.6 0 0 0.60023 0 0.25] CT
0.149 GC
2 setlinecap
1 LJ
0.833 LW
N
679 507.571 M
673.19 507.571 L
S
GR
GS
[0.6 0 0 0.60023 0 0.25] CT
0.149 GC
2 setlinecap
1 LJ
0.833 LW
N
679 431.143 M
673.19 431.143 L
S
GR
GS
[0.6 0 0 0.60023 0 0.25] CT
0.149 GC
2 setlinecap
1 LJ
0.833 LW
N
679 354.714 M
673.19 354.714 L
S
GR
GS
[0.6 0 0 0.60023 0 0.25] CT
0.149 GC
2 setlinecap
1 LJ
0.833 LW
N
679 278.286 M
673.19 278.286 L
S
GR
GS
[0.6 0 0 0.60023 0 0.25] CT
0.149 GC
2 setlinecap
1 LJ
0.833 LW
N
679 201.857 M
673.19 201.857 L
S
GR
GS
[0.6 0 0 0.60023 0 0.25] CT
0.149 GC
2 setlinecap
1 LJ
0.833 LW
N
679 125.429 M
673.19 125.429 L
S
GR
GS
[0.6 0 0 0.60023 0 0.25] CT
0.149 GC
2 setlinecap
1 LJ
0.833 LW
N
679 49 M
673.19 49 L
S
GR
GS
[0.6 0 0 0.60023 54 350.78354] CT
0.149 GC
/Helvetica 23.333 F
GS
[1 0 0 1 0 0] CT
-34 9 moveto 
1 -1 scale
(-60) t 
GR
GR
GS
[0.6 0 0 0.60023 54 304.90893] CT
0.149 GC
/Helvetica 23.333 F
GS
[1 0 0 1 0 0] CT
-34 9 moveto 
1 -1 scale
(-50) t 
GR
GR
GS
[0.6 0 0 0.60023 54 259.0343] CT
0.149 GC
/Helvetica 23.333 F
GS
[1 0 0 1 0 0] CT
-34 9 moveto 
1 -1 scale
(-40) t 
GR
GR
GS
[0.6 0 0 0.60023 54 213.15969] CT
0.149 GC
/Helvetica 23.333 F
GS
[1 0 0 1 0 0] CT
-34 9 moveto 
1 -1 scale
(-30) t 
GR
GR
GS
[0.6 0 0 0.60023 54 167.28506] CT
0.149 GC
/Helvetica 23.333 F
GS
[1 0 0 1 0 0] CT
-34 9 moveto 
1 -1 scale
(-20) t 
GR
GR
GS
[0.6 0 0 0.60023 54 121.41044] CT
0.149 GC
/Helvetica 23.333 F
GS
[1 0 0 1 0 0] CT
-34 9 moveto 
1 -1 scale
(-10) t 
GR
GR
GS
[0.6 0 0 0.60023 54 75.53582] CT
0.149 GC
/Helvetica 23.333 F
GS
[1 0 0 1 0 0] CT
-13 9 moveto 
1 -1 scale
(0) t 
GR
GR
GS
[0.6 0 0 0.60023 54 29.6612] CT
0.149 GC
/Helvetica 23.333 F
GS
[1 0 0 1 0 0] CT
-26 9 moveto 
1 -1 scale
(10) t 
GR
GR
GS
[0 -0.60023 0.6 0 30.6 190.22221] CT
0.149 GC
N
-62.491 -8.4 M
-62.491 -9.213 L
-60.116 -9.213 -60.116 -9.931 QT
-60.116 -22.572 L
-60.116 -23.306 -62.491 -23.306 QT
-62.491 -24.119 L
-55.601 -24.119 L
-55.601 -23.306 L
-57.976 -23.306 -57.976 -22.572 QT
-57.976 -16.978 L
-51.195 -16.978 L
-51.195 -22.572 L
-51.195 -23.306 -53.554 -23.306 QT
-53.554 -24.119 L
-46.679 -24.119 L
-46.679 -23.306 L
-49.038 -23.306 -49.038 -22.572 QT
-49.038 -9.931 L
-49.038 -9.213 -46.679 -9.213 QT
-46.679 -8.4 L
-53.554 -8.4 L
-53.554 -9.213 L
-51.195 -9.213 -51.195 -9.931 QT
-51.195 -16.166 L
-57.976 -16.166 L
-57.976 -9.931 L
-57.976 -9.213 -55.601 -9.213 QT
-55.601 -8.4 L
-62.491 -8.4 L
cp
f
GR
GS
[0 -0.60023 0.6 0 30.6 190.22221] CT
0.149 GC
N
-44.773 -10.65 M
-44.773 -12.025 -43.695 -12.884 QT
-42.616 -13.744 -41.109 -14.095 QT
-39.601 -14.447 -38.241 -14.447 QT
-38.241 -15.4 L
-38.241 -16.056 -38.531 -16.681 QT
-38.82 -17.306 -39.374 -17.705 QT
-39.929 -18.103 -40.585 -18.103 QT
-42.116 -18.103 -42.913 -17.416 QT
-42.476 -17.416 -42.187 -17.088 QT
-41.898 -16.759 -41.898 -16.322 QT
-41.898 -15.853 -42.226 -15.533 QT
-42.554 -15.213 -42.991 -15.213 QT
-43.46 -15.213 -43.788 -15.533 QT
-44.116 -15.853 -44.116 -16.322 QT
-44.116 -17.525 -43.015 -18.119 QT
-41.913 -18.713 -40.585 -18.713 QT
-39.648 -18.713 -38.71 -18.314 QT
-37.773 -17.916 -37.171 -17.174 QT
-36.57 -16.431 -36.57 -15.447 QT
-36.57 -10.259 L
-36.57 -9.822 -36.374 -9.439 QT
-36.179 -9.056 -35.773 -9.056 QT
-35.398 -9.056 -35.21 -9.439 QT
-35.023 -9.822 -35.023 -10.259 QT
-35.023 -11.728 L
-34.351 -11.728 L
-34.351 -10.259 L
-34.351 -9.744 -34.624 -9.283 QT
-34.898 -8.822 -35.351 -8.541 QT
-35.804 -8.259 -36.335 -8.259 QT
-37.007 -8.259 -37.491 -8.783 QT
-37.976 -9.306 -38.038 -10.025 QT
-38.46 -9.166 -39.288 -8.65 QT
-40.116 -8.134 -41.07 -8.134 QT
-41.945 -8.134 -42.788 -8.4 QT
-43.632 -8.666 -44.202 -9.22 QT
-44.773 -9.775 -44.773 -10.65 QT
cp
-42.913 -10.65 M
-42.913 -9.853 -42.32 -9.299 QT
-41.726 -8.744 -40.913 -8.744 QT
-40.163 -8.744 -39.562 -9.119 QT
-38.96 -9.494 -38.601 -10.134 QT
-38.241 -10.775 -38.241 -11.478 QT
-38.241 -13.869 L
-39.288 -13.869 -40.382 -13.525 QT
-41.476 -13.181 -42.195 -12.455 QT
-42.913 -11.728 -42.913 -10.65 QT
cp
f
GR
GS
[0 -0.60023 0.6 0 30.6 190.22221] CT
0.149 GC
N
-33.34 -8.4 M
-33.34 -9.213 L
-32.559 -9.213 -32.051 -9.338 QT
-31.543 -9.463 -31.543 -9.931 QT
-31.543 -16.213 L
-31.543 -16.838 -31.731 -17.111 QT
-31.918 -17.384 -32.262 -17.447 QT
-32.606 -17.509 -33.34 -17.509 QT
-33.34 -18.322 L
-30.012 -18.556 L
-30.012 -16.322 L
-29.543 -17.306 -28.637 -17.931 QT
-27.731 -18.556 -26.668 -18.556 QT
-24.028 -18.556 -23.559 -16.4 QT
-23.106 -17.369 -22.215 -17.963 QT
-21.325 -18.556 -20.278 -18.556 QT
-19.231 -18.556 -18.512 -18.22 QT
-17.793 -17.884 -17.434 -17.197 QT
-17.075 -16.509 -17.075 -15.463 QT
-17.075 -9.931 L
-17.075 -9.463 -16.567 -9.338 QT
-16.059 -9.213 -15.278 -9.213 QT
-15.278 -8.4 L
-20.543 -8.4 L
-20.543 -9.213 L
-19.762 -9.213 -19.254 -9.338 QT
-18.747 -9.463 -18.747 -9.931 QT
-18.747 -15.4 L
-18.747 -16.556 -19.075 -17.259 QT
-19.403 -17.963 -20.418 -17.963 QT
-21.747 -17.963 -22.606 -16.9 QT
-23.465 -15.838 -23.465 -14.478 QT
-23.465 -9.931 L
-23.465 -9.463 -22.965 -9.338 QT
-22.465 -9.213 -21.668 -9.213 QT
-21.668 -8.4 L
-26.934 -8.4 L
-26.934 -9.213 L
-26.153 -9.213 -25.645 -9.338 QT
-25.137 -9.463 -25.137 -9.931 QT
-25.137 -15.4 L
-25.137 -16.525 -25.465 -17.244 QT
-25.793 -17.963 -26.809 -17.963 QT
-28.137 -17.963 -28.997 -16.9 QT
-29.856 -15.838 -29.856 -14.478 QT
-29.856 -9.931 L
-29.856 -9.463 -29.356 -9.338 QT
-28.856 -9.213 -28.075 -9.213 QT
-28.075 -8.4 L
-33.34 -8.4 L
cp
f
GR
GS
[0 -0.60023 0.6 0 30.6 190.22221] CT
0.149 GC
N
-13.88 -8.4 M
-13.88 -9.213 L
-13.083 -9.213 -12.583 -9.338 QT
-12.083 -9.463 -12.083 -9.931 QT
-12.083 -16.213 L
-12.083 -17.103 -12.427 -17.306 QT
-12.771 -17.509 -13.771 -17.509 QT
-13.771 -18.322 L
-10.458 -18.556 L
-10.458 -9.931 L
-10.458 -9.463 -10.021 -9.338 QT
-9.583 -9.213 -8.849 -9.213 QT
-8.849 -8.4 L
-13.88 -8.4 L
cp
-12.896 -22.509 M
-12.896 -23.025 -12.513 -23.408 QT
-12.13 -23.791 -11.646 -23.791 QT
-11.318 -23.791 -11.013 -23.619 QT
-10.708 -23.447 -10.536 -23.142 QT
-10.365 -22.838 -10.365 -22.509 QT
-10.365 -22.025 -10.747 -21.642 QT
-11.13 -21.259 -11.646 -21.259 QT
-12.13 -21.259 -12.513 -21.642 QT
-12.896 -22.025 -12.896 -22.509 QT
cp
f
GR
GS
[0 -0.60023 0.6 0 30.6 190.22221] CT
0.149 GC
N
-7.399 -8.4 M
-7.399 -9.213 L
-6.602 -9.213 -6.102 -9.338 QT
-5.602 -9.463 -5.602 -9.931 QT
-5.602 -22.009 L
-5.602 -22.634 -5.782 -22.908 QT
-5.961 -23.181 -6.313 -23.244 QT
-6.664 -23.306 -7.399 -23.306 QT
-7.399 -24.119 L
-3.977 -24.353 L
-3.977 -9.931 L
-3.977 -9.463 -3.477 -9.338 QT
-2.977 -9.213 -2.196 -9.213 QT
-2.196 -8.4 L
-7.399 -8.4 L
cp
f
GR
GS
[0 -0.60023 0.6 0 30.6 190.22221] CT
0.149 GC
N
0.723 -11.166 M
0.723 -17.509 L
-1.183 -17.509 L
-1.183 -18.103 L
0.317 -18.103 1.028 -19.509 QT
1.739 -20.916 1.739 -22.556 QT
2.395 -22.556 L
2.395 -18.322 L
5.645 -18.322 L
5.645 -17.509 L
2.395 -17.509 L
2.395 -11.213 L
2.395 -10.259 2.716 -9.541 QT
3.036 -8.822 3.864 -8.822 QT
4.661 -8.822 5.005 -9.58 QT
5.348 -10.338 5.348 -11.213 QT
5.348 -12.572 L
6.02 -12.572 L
6.02 -11.166 L
6.02 -10.447 5.755 -9.744 QT
5.489 -9.041 4.973 -8.588 QT
4.458 -8.134 3.708 -8.134 QT
2.333 -8.134 1.528 -8.963 QT
0.723 -9.791 0.723 -11.166 QT
cp
f
GR
GS
[0 -0.60023 0.6 0 30.6 190.22221] CT
0.149 GC
N
13.204 -8.134 M
11.829 -8.134 10.649 -8.838 QT
9.469 -9.541 8.782 -10.72 QT
8.094 -11.9 8.094 -13.291 QT
8.094 -14.353 8.469 -15.33 QT
8.844 -16.306 9.547 -17.072 QT
10.251 -17.838 11.18 -18.275 QT
12.11 -18.713 13.204 -18.713 QT
14.626 -18.713 15.782 -17.963 QT
16.938 -17.213 17.618 -15.963 QT
18.297 -14.713 18.297 -13.291 QT
18.297 -11.916 17.61 -10.728 QT
16.922 -9.541 15.751 -8.838 QT
14.579 -8.134 13.204 -8.134 QT
cp
13.204 -8.822 M
15.047 -8.822 15.665 -10.158 QT
16.282 -11.494 16.282 -13.556 QT
16.282 -14.713 16.157 -15.47 QT
16.032 -16.228 15.626 -16.853 QT
15.36 -17.228 14.962 -17.517 QT
14.563 -17.806 14.118 -17.955 QT
13.672 -18.103 13.204 -18.103 QT
12.485 -18.103 11.837 -17.775 QT
11.188 -17.447 10.766 -16.853 QT
10.344 -16.197 10.227 -15.416 QT
10.11 -14.634 10.11 -13.556 QT
10.11 -12.259 10.329 -11.236 QT
10.547 -10.213 11.227 -9.517 QT
11.907 -8.822 13.204 -8.822 QT
cp
f
GR
GS
[0 -0.60023 0.6 0 30.6 190.22221] CT
0.149 GC
N
19.808 -8.4 M
19.808 -9.213 L
20.589 -9.213 21.097 -9.338 QT
21.605 -9.463 21.605 -9.931 QT
21.605 -16.213 L
21.605 -16.838 21.417 -17.111 QT
21.23 -17.384 20.886 -17.447 QT
20.542 -17.509 19.808 -17.509 QT
19.808 -18.322 L
23.136 -18.556 L
23.136 -16.322 L
23.605 -17.306 24.511 -17.931 QT
25.417 -18.556 26.48 -18.556 QT
28.074 -18.556 28.878 -17.799 QT
29.683 -17.041 29.683 -15.463 QT
29.683 -9.931 L
29.683 -9.463 30.183 -9.338 QT
30.683 -9.213 31.48 -9.213 QT
31.48 -8.4 L
26.214 -8.4 L
26.214 -9.213 L
26.995 -9.213 27.503 -9.338 QT
28.011 -9.463 28.011 -9.931 QT
28.011 -15.4 L
28.011 -16.525 27.683 -17.244 QT
27.355 -17.963 26.339 -17.963 QT
25.011 -17.963 24.152 -16.9 QT
23.292 -15.838 23.292 -14.478 QT
23.292 -9.931 L
23.292 -9.463 23.792 -9.338 QT
24.292 -9.213 25.074 -9.213 QT
25.074 -8.4 L
19.808 -8.4 L
cp
f
GR
GS
[0 -0.60023 0.6 0 30.6 190.22221] CT
0.149 GC
N
32.787 -8.4 M
32.787 -9.213 L
33.583 -9.213 34.083 -9.338 QT
34.583 -9.463 34.583 -9.931 QT
34.583 -16.213 L
34.583 -17.103 34.24 -17.306 QT
33.896 -17.509 32.896 -17.509 QT
32.896 -18.322 L
36.208 -18.556 L
36.208 -9.931 L
36.208 -9.463 36.646 -9.338 QT
37.083 -9.213 37.818 -9.213 QT
37.818 -8.4 L
32.787 -8.4 L
cp
33.771 -22.509 M
33.771 -23.025 34.154 -23.408 QT
34.537 -23.791 35.021 -23.791 QT
35.349 -23.791 35.654 -23.619 QT
35.958 -23.447 36.13 -23.142 QT
36.302 -22.838 36.302 -22.509 QT
36.302 -22.025 35.919 -21.642 QT
35.537 -21.259 35.021 -21.259 QT
34.537 -21.259 34.154 -21.642 QT
33.771 -22.025 33.771 -22.509 QT
cp
f
GR
GS
[0 -0.60023 0.6 0 30.6 190.22221] CT
0.149 GC
N
39.487 -10.65 M
39.487 -12.025 40.565 -12.884 QT
41.643 -13.744 43.151 -14.095 QT
44.659 -14.447 46.018 -14.447 QT
46.018 -15.4 L
46.018 -16.056 45.729 -16.681 QT
45.44 -17.306 44.885 -17.705 QT
44.331 -18.103 43.674 -18.103 QT
42.143 -18.103 41.346 -17.416 QT
41.784 -17.416 42.073 -17.088 QT
42.362 -16.759 42.362 -16.322 QT
42.362 -15.853 42.034 -15.533 QT
41.706 -15.213 41.268 -15.213 QT
40.799 -15.213 40.471 -15.533 QT
40.143 -15.853 40.143 -16.322 QT
40.143 -17.525 41.245 -18.119 QT
42.346 -18.713 43.674 -18.713 QT
44.612 -18.713 45.549 -18.314 QT
46.487 -17.916 47.088 -17.174 QT
47.69 -16.431 47.69 -15.447 QT
47.69 -10.259 L
47.69 -9.822 47.885 -9.439 QT
48.081 -9.056 48.487 -9.056 QT
48.862 -9.056 49.049 -9.439 QT
49.237 -9.822 49.237 -10.259 QT
49.237 -11.728 L
49.909 -11.728 L
49.909 -10.259 L
49.909 -9.744 49.635 -9.283 QT
49.362 -8.822 48.909 -8.541 QT
48.456 -8.259 47.924 -8.259 QT
47.252 -8.259 46.768 -8.783 QT
46.284 -9.306 46.221 -10.025 QT
45.799 -9.166 44.971 -8.65 QT
44.143 -8.134 43.19 -8.134 QT
42.315 -8.134 41.471 -8.4 QT
40.627 -8.666 40.057 -9.22 QT
39.487 -9.775 39.487 -10.65 QT
cp
41.346 -10.65 M
41.346 -9.853 41.94 -9.299 QT
42.534 -8.744 43.346 -8.744 QT
44.096 -8.744 44.698 -9.119 QT
45.299 -9.494 45.659 -10.134 QT
46.018 -10.775 46.018 -11.478 QT
46.018 -13.869 L
44.971 -13.869 43.877 -13.525 QT
42.784 -13.181 42.065 -12.455 QT
41.346 -11.728 41.346 -10.65 QT
cp
f
GR
GS
[0 -0.60023 0.6 0 30.6 190.22221] CT
0.149 GC
N
50.919 -8.4 M
50.919 -9.213 L
51.7 -9.213 52.208 -9.338 QT
52.716 -9.463 52.716 -9.931 QT
52.716 -16.213 L
52.716 -16.838 52.529 -17.111 QT
52.341 -17.384 51.997 -17.447 QT
51.654 -17.509 50.919 -17.509 QT
50.919 -18.322 L
54.247 -18.556 L
54.247 -16.322 L
54.716 -17.306 55.622 -17.931 QT
56.529 -18.556 57.591 -18.556 QT
59.185 -18.556 59.989 -17.799 QT
60.794 -17.041 60.794 -15.463 QT
60.794 -9.931 L
60.794 -9.463 61.294 -9.338 QT
61.794 -9.213 62.591 -9.213 QT
62.591 -8.4 L
57.325 -8.4 L
57.325 -9.213 L
58.107 -9.213 58.614 -9.338 QT
59.122 -9.463 59.122 -9.931 QT
59.122 -15.4 L
59.122 -16.525 58.794 -17.244 QT
58.466 -17.963 57.45 -17.963 QT
56.122 -17.963 55.263 -16.9 QT
54.404 -15.838 54.404 -14.478 QT
54.404 -9.931 L
54.404 -9.463 54.904 -9.338 QT
55.404 -9.213 56.185 -9.213 QT
56.185 -8.4 L
50.919 -8.4 L
cp
f
GR
GS
[0.6 0 0 0.60023 0 0.25] CT
1 0 0 RC
1 LJ
3.333 LW
N
98 422.396 M
98.982 422.396 L
103.01 422.396 L
109.613 422.398 L
117.785 422.397 L
126.285 422.4 L
133.816 422.399 L
139.233 422.403 L
141.691 422.4 L
S
GR
GS
[0.6 0 0 0.60023 0 0.25] CT
1 0 0 RC
1 LJ
3.333 LW
N
141.691 395.176 M
142.673 395.177 L
146.702 395.178 L
153.304 395.179 L
161.477 395.18 L
169.976 395.18 L
177.507 395.181 L
182.924 395.18 L
185.382 395.183 L
S
GR
GS
[0.6 0 0 0.60023 0 0.25] CT
1 0 0 RC
1 LJ
3.333 LW
N
185.382 330.524 M
186.827 330.525 L
192.752 330.524 L
202.462 330.524 L
214.482 330.525 L
226.982 330.523 L
238.059 330.526 L
246.026 330.521 L
249.641 330.535 L
S
GR
GS
[0.6 0 0 0.60023 0 0.25] CT
1 0 0 RC
1 LJ
3.333 LW
N
249.641 125.429 M
251.814 125.429 L
261 125.429 L
277.155 125.429 L
299.662 125.429 L
327.657 125.429 L
360.064 125.429 L
395.638 125.429 L
433.011 125.429 L
470.748 125.429 L
507.398 125.429 L
541.553 125.429 L
571.9 125.429 L
597.273 125.429 L
616.696 125.429 L
629.422 125.429 L
634.92 125.429 L
S
GR
GS
[0.6 0 0 0.60023 0 0.25] CT
[12 12] 0 setdash
2 LJ
3.333 LW
N
98 565.707 M
141.691 565.707 L
S
GR
GS
[0.6 0 0 0.60023 0 0.25] CT
[12 12] 0 setdash
2 LJ
3.333 LW
N
141.691 395.298 M
185.382 395.298 L
S
GR
GS
[0.6 0 0 0.60023 0 0.25] CT
[12 12] 0 setdash
2 LJ
3.333 LW
N
185.382 222.941 M
249.641 222.527 L
S
GR
GS
[0.6 0 0 0.60023 0 0.25] CT
[12 12] 0 setdash
2 LJ
3.333 LW
N
249.641 125.429 M
635.785 125.429 L
S
GR
GS
[0.6 0 0 0.60023 0 0.25] CT
1 GC
N
666 571 M
666 515 L
358 515 L
358 571 L
cp
f
GR
GS
[0.6 0 0 0.60023 250.11443 318.42717] CT
N
1.172 5.337 M
1.172 0.431 L
1.172 0.274 1.359 0.274 QT
1.625 0.274 L
1.688 0.274 1.734 0.321 QT
1.781 0.368 1.781 0.431 QT
1.781 2.493 3.063 3.626 QT
4.344 4.759 6.406 4.759 QT
7.141 4.759 7.758 4.337 QT
8.375 3.915 8.711 3.235 QT
9.047 2.556 9.047 1.837 QT
9.047 1.196 8.797 0.595 QT
8.547 -0.007 8.063 -0.444 QT
7.578 -0.882 6.969 -1.038 QT
4.25 -1.694 L
2.891 -2.054 2.031 -3.171 QT
1.172 -4.288 1.172 -5.663 QT
1.172 -6.757 1.727 -7.71 QT
2.281 -8.663 3.219 -9.218 QT
4.156 -9.773 5.25 -9.773 QT
7.359 -9.773 8.594 -8.335 QT
9.453 -9.71 L
9.516 -9.773 9.594 -9.773 QT
9.734 -9.773 L
9.797 -9.773 9.859 -9.726 QT
9.922 -9.679 9.922 -9.585 QT
9.922 -4.726 L
9.922 -4.538 9.734 -4.538 QT
9.5 -4.538 L
9.297 -4.538 9.297 -4.726 QT
9.297 -5.257 9.117 -5.89 QT
8.938 -6.523 8.625 -7.109 QT
8.313 -7.694 7.938 -8.069 QT
6.922 -9.085 5.25 -9.085 QT
4.531 -9.085 3.93 -8.726 QT
3.328 -8.366 2.969 -7.741 QT
2.609 -7.116 2.609 -6.429 QT
2.609 -5.523 3.164 -4.788 QT
3.719 -4.054 4.625 -3.819 QT
7.359 -3.148 L
8.031 -2.991 8.633 -2.562 QT
9.234 -2.132 9.633 -1.569 QT
10.031 -1.007 10.258 -0.319 QT
10.484 0.368 10.484 1.118 QT
10.484 2.243 9.961 3.259 QT
9.438 4.274 8.484 4.891 QT
7.531 5.509 6.406 5.509 QT
5.719 5.509 4.984 5.352 QT
4.25 5.196 3.641 4.876 QT
3.031 4.556 2.516 4.056 QT
1.641 5.446 L
1.578 5.509 1.484 5.509 QT
1.359 5.509 L
1.172 5.509 1.172 5.337 QT
cp
f
GR
GS
[0.6 0 0 0.60023 250.11443 318.42717] CT
N
12.37 5.04 M
12.37 4.306 L
14.526 4.306 14.526 3.634 QT
14.526 -7.898 L
14.526 -8.569 12.37 -8.569 QT
12.37 -9.304 L
19.839 -9.304 L
20.995 -9.304 22.143 -8.835 QT
23.292 -8.366 24.034 -7.46 QT
24.776 -6.554 24.776 -5.351 QT
24.776 -4.194 24.026 -3.312 QT
23.276 -2.429 22.135 -1.968 QT
20.995 -1.507 19.839 -1.507 QT
16.479 -1.507 L
16.479 3.634 L
16.479 4.306 18.635 4.306 QT
18.635 5.04 L
12.37 5.04 L
cp
16.417 -2.132 M
19.26 -2.132 L
20.417 -2.132 21.135 -2.468 QT
21.854 -2.804 22.19 -3.507 QT
22.526 -4.21 22.526 -5.351 QT
22.526 -7.069 21.776 -7.819 QT
21.026 -8.569 19.26 -8.569 QT
17.479 -8.569 L
17.104 -8.569 16.893 -8.538 QT
16.682 -8.507 16.55 -8.359 QT
16.417 -8.21 16.417 -7.898 QT
16.417 -2.132 L
cp
f
GR
GS
[0.6 0 0 0.60023 250.11443 318.42717] CT
N
24.88 5.04 M
24.88 4.306 L
26.755 4.306 27.193 3.056 QT
31.599 -9.773 L
31.662 -9.991 31.943 -9.991 QT
32.208 -9.991 L
32.49 -9.991 32.552 -9.773 QT
37.146 3.634 L
37.349 4.071 37.896 4.188 QT
38.443 4.306 39.255 4.306 QT
39.255 5.04 L
33.412 5.04 L
33.412 4.306 L
35.146 4.306 35.146 3.743 QT
35.146 3.634 L
34.005 0.352 L
28.912 0.352 L
27.974 3.056 L
27.958 3.134 27.958 3.274 QT
27.958 3.806 28.451 4.056 QT
28.943 4.306 29.521 4.306 QT
29.521 5.04 L
24.88 5.04 L
cp
29.162 -0.382 M
33.771 -0.382 L
31.458 -7.085 L
29.162 -0.382 L
cp
f
GR
GS
[0.6 0 0 0.60023 250.11443 318.42717] CT
N
40.662 5.04 M
40.662 4.306 L
42.818 4.306 42.818 3.634 QT
42.818 -7.898 L
42.818 -8.569 40.662 -8.569 QT
40.662 -9.304 L
47.255 -9.304 L
48.427 -9.304 49.724 -8.882 QT
51.021 -8.46 51.896 -7.585 QT
52.771 -6.71 52.771 -5.507 QT
52.771 -4.616 52.24 -3.929 QT
51.708 -3.241 50.88 -2.773 QT
50.052 -2.304 49.193 -2.101 QT
50.146 -1.773 50.849 -1.054 QT
51.552 -0.335 51.693 0.587 QT
51.99 2.462 L
52.208 3.712 52.427 4.337 QT
52.646 4.962 53.427 4.962 QT
54.083 4.962 54.404 4.352 QT
54.724 3.743 54.724 3.024 QT
54.724 2.946 54.794 2.891 QT
54.865 2.837 54.927 2.837 QT
55.13 2.837 L
55.333 2.837 55.333 3.118 QT
55.333 3.681 55.107 4.235 QT
54.88 4.79 54.451 5.149 QT
54.021 5.509 53.443 5.509 QT
51.927 5.509 50.833 4.751 QT
49.74 3.993 49.74 2.54 QT
49.74 0.665 L
49.74 -0.382 49.013 -1.124 QT
48.287 -1.866 47.224 -1.866 QT
44.708 -1.866 L
44.708 3.634 L
44.708 4.306 46.865 4.306 QT
46.865 5.04 L
40.662 5.04 L
cp
44.708 -2.413 M
46.958 -2.413 L
48.693 -2.413 49.607 -3.116 QT
50.521 -3.819 50.521 -5.507 QT
50.521 -7.179 49.615 -7.874 QT
48.708 -8.569 46.958 -8.569 QT
45.771 -8.569 L
45.396 -8.569 45.185 -8.538 QT
44.974 -8.507 44.841 -8.359 QT
44.708 -8.21 44.708 -7.898 QT
44.708 -2.413 L
cp
f
GR
GS
[0.6 0 0 0.60023 250.11443 318.42717] CT
N
57.214 5.04 M
57.214 4.306 L
58.276 4.306 59.268 4.188 QT
60.26 4.071 60.26 3.634 QT
60.26 -7.898 L
60.26 -8.351 60.01 -8.46 QT
59.76 -8.569 59.198 -8.569 QT
58.307 -8.569 L
56.573 -8.569 55.854 -7.804 QT
55.479 -7.429 55.315 -6.593 QT
55.151 -5.757 55.026 -4.491 QT
54.432 -4.491 L
54.823 -9.304 L
67.651 -9.304 L
68.057 -4.491 L
67.432 -4.491 L
67.307 -5.851 67.159 -6.648 QT
67.01 -7.444 66.635 -7.804 QT
65.885 -8.569 64.167 -8.569 QT
63.292 -8.569 L
62.901 -8.569 62.69 -8.538 QT
62.479 -8.507 62.346 -8.359 QT
62.214 -8.21 62.214 -7.898 QT
62.214 3.634 L
62.214 4.071 63.214 4.188 QT
64.214 4.306 65.26 4.306 QT
65.26 5.04 L
57.214 5.04 L
cp
f
GR
GS
[0.6 0 0 0.60023 250.11443 318.42717] CT
N
67.755 5.04 M
67.755 4.306 L
69.63 4.306 70.068 3.056 QT
74.474 -9.773 L
74.537 -9.991 74.818 -9.991 QT
75.083 -9.991 L
75.365 -9.991 75.427 -9.773 QT
80.021 3.634 L
80.224 4.071 80.771 4.188 QT
81.318 4.306 82.13 4.306 QT
82.13 5.04 L
76.287 5.04 L
76.287 4.306 L
78.021 4.306 78.021 3.743 QT
78.021 3.634 L
76.88 0.352 L
71.787 0.352 L
70.849 3.056 L
70.833 3.134 70.833 3.274 QT
70.833 3.806 71.326 4.056 QT
71.818 4.306 72.396 4.306 QT
72.396 5.04 L
67.755 5.04 L
cp
72.037 -0.382 M
76.646 -0.382 L
74.333 -7.085 L
72.037 -0.382 L
cp
f
GR
GS
[0.6 0 0 0.60023 250.11443 318.42717] CT
N
83.474 5.04 M
83.474 4.306 L
85.646 4.306 85.646 3.056 QT
85.646 -8.444 L
84.958 -8.569 83.474 -8.569 QT
83.474 -9.304 L
87.505 -9.304 L
87.599 -9.304 87.646 -9.226 QT
95.083 1.712 L
95.083 -7.319 L
95.083 -8.569 92.912 -8.569 QT
92.912 -9.304 L
97.912 -9.304 L
97.912 -8.569 L
95.755 -8.569 95.755 -7.319 QT
95.755 4.852 L
95.755 4.915 95.669 4.977 QT
95.583 5.04 95.537 5.04 QT
95.287 5.04 L
95.177 5.04 95.146 4.962 QT
86.318 -8.023 L
86.318 3.056 L
86.318 4.306 88.49 4.306 QT
88.49 5.04 L
83.474 5.04 L
cp
f
GR
GS
[0.6 0 0 0.60023 0 0.25] CT
1 0 0 RC
1 LJ
3.333 LW
N
363.009 530.093 M
413.101 530.093 L
S
GR
GS
[0.6 0 0 0.60023 250.11443 333.92116] CT
N
1.047 5.04 M
1.047 4.477 L
1.047 4.431 1.094 4.368 QT
4.344 0.759 L
5.094 -0.054 5.555 -0.593 QT
6.016 -1.132 6.461 -1.843 QT
6.906 -2.554 7.172 -3.28 QT
7.438 -4.007 7.438 -4.835 QT
7.438 -5.694 7.117 -6.484 QT
6.797 -7.273 6.164 -7.741 QT
5.531 -8.21 4.641 -8.21 QT
3.734 -8.21 3.008 -7.663 QT
2.281 -7.116 1.984 -6.241 QT
2.063 -6.257 2.203 -6.257 QT
2.672 -6.257 3.008 -5.944 QT
3.344 -5.632 3.344 -5.116 QT
3.344 -4.648 3.008 -4.312 QT
2.672 -3.976 2.203 -3.976 QT
1.719 -3.976 1.383 -4.319 QT
1.047 -4.663 1.047 -5.116 QT
1.047 -5.913 1.344 -6.601 QT
1.641 -7.288 2.203 -7.827 QT
2.766 -8.366 3.461 -8.655 QT
4.156 -8.944 4.953 -8.944 QT
6.156 -8.944 7.188 -8.437 QT
8.219 -7.929 8.828 -6.999 QT
9.438 -6.069 9.438 -4.835 QT
9.438 -3.929 9.039 -3.109 QT
8.641 -2.288 8.016 -1.616 QT
7.391 -0.944 6.414 -0.093 QT
5.438 0.759 5.125 1.056 QT
2.75 3.337 L
4.766 3.337 L
6.25 3.337 7.25 3.313 QT
8.25 3.29 8.313 3.227 QT
8.563 2.962 8.813 1.29 QT
9.438 1.29 L
8.844 5.04 L
1.047 5.04 L
cp
f
GR
GS
[0.6 0 0 0.60023 250.11443 333.92116] CT
N
15.75 5.509 M
13.172 5.509 12.25 3.384 QT
11.328 1.259 11.328 -1.663 QT
11.328 -3.476 11.656 -5.085 QT
11.984 -6.694 12.977 -7.819 QT
13.969 -8.944 15.75 -8.944 QT
17.141 -8.944 18.016 -8.273 QT
18.891 -7.601 19.359 -6.523 QT
19.828 -5.444 19.992 -4.226 QT
20.156 -3.007 20.156 -1.663 QT
20.156 0.149 19.828 1.72 QT
19.5 3.29 18.523 4.399 QT
17.547 5.509 15.75 5.509 QT
cp
15.75 4.962 M
16.922 4.962 17.492 3.759 QT
18.063 2.556 18.195 1.102 QT
18.328 -0.351 18.328 -1.991 QT
18.328 -3.569 18.195 -4.905 QT
18.063 -6.241 17.492 -7.319 QT
16.922 -8.398 15.75 -8.398 QT
14.563 -8.398 13.984 -7.312 QT
13.406 -6.226 13.273 -4.898 QT
13.141 -3.569 13.141 -1.991 QT
13.141 -0.819 13.203 0.212 QT
13.266 1.243 13.508 2.345 QT
13.75 3.446 14.297 4.204 QT
14.844 4.962 15.75 4.962 QT
cp
f
GR
GS
[0.6 0 0 0.60023 250.11443 333.92116] CT
N
22.953 5.04 M
22.953 4.306 L
25.578 4.306 25.578 3.634 QT
25.578 -7.382 L
24.484 -6.866 22.828 -6.866 QT
22.828 -7.601 L
25.406 -7.601 26.719 -8.944 QT
27.016 -8.944 L
27.078 -8.944 27.149 -8.89 QT
27.219 -8.835 27.219 -8.757 QT
27.219 3.634 L
27.219 4.306 29.844 4.306 QT
29.844 5.04 L
22.953 5.04 L
cp
f
GR
GS
[0.6 0 0 0.60023 250.11443 333.92116] CT
N
36.75 5.509 M
34.172 5.509 33.25 3.384 QT
32.328 1.259 32.328 -1.663 QT
32.328 -3.476 32.656 -5.085 QT
32.984 -6.694 33.977 -7.819 QT
34.969 -8.944 36.75 -8.944 QT
38.141 -8.944 39.016 -8.273 QT
39.891 -7.601 40.359 -6.523 QT
40.828 -5.444 40.992 -4.226 QT
41.156 -3.007 41.156 -1.663 QT
41.156 0.149 40.828 1.72 QT
40.5 3.29 39.524 4.399 QT
38.547 5.509 36.75 5.509 QT
cp
36.75 4.962 M
37.922 4.962 38.492 3.759 QT
39.063 2.556 39.195 1.102 QT
39.328 -0.351 39.328 -1.991 QT
39.328 -3.569 39.195 -4.905 QT
39.063 -6.241 38.492 -7.319 QT
37.922 -8.398 36.75 -8.398 QT
35.563 -8.398 34.984 -7.312 QT
34.406 -6.226 34.274 -4.898 QT
34.141 -3.569 34.141 -1.991 QT
34.141 -0.819 34.203 0.212 QT
34.266 1.243 34.508 2.345 QT
34.75 3.446 35.297 4.204 QT
35.844 4.962 36.75 4.962 QT
cp
f
GR
GS
[0.6 0 0 0.60023 250.11443 333.92116] CT
N
44.078 8.821 M
44.078 8.727 44.156 8.649 QT
44.922 7.915 45.344 6.962 QT
45.766 6.009 45.766 4.962 QT
45.766 4.696 L
45.422 5.04 44.922 5.04 QT
44.438 5.04 44.102 4.704 QT
43.766 4.368 43.766 3.884 QT
43.766 3.384 44.102 3.056 QT
44.438 2.727 44.922 2.727 QT
45.672 2.727 45.992 3.423 QT
46.313 4.118 46.313 4.962 QT
46.313 6.134 45.844 7.181 QT
45.375 8.227 44.516 9.071 QT
44.438 9.118 44.391 9.118 QT
44.281 9.118 44.18 9.024 QT
44.078 8.931 44.078 8.821 QT
cp
f
GR
GS
[0.6 0 0 0.60023 250.11443 333.92116] CT
N
55.537 5.04 M
55.537 4.306 L
57.693 4.306 57.693 3.634 QT
57.693 -7.898 L
57.693 -8.569 55.537 -8.569 QT
55.537 -9.304 L
62.13 -9.304 L
63.302 -9.304 64.599 -8.882 QT
65.896 -8.46 66.771 -7.585 QT
67.646 -6.71 67.646 -5.507 QT
67.646 -4.616 67.115 -3.929 QT
66.583 -3.241 65.755 -2.773 QT
64.927 -2.304 64.068 -2.101 QT
65.021 -1.773 65.724 -1.054 QT
66.427 -0.335 66.568 0.587 QT
66.865 2.462 L
67.083 3.712 67.302 4.337 QT
67.521 4.962 68.302 4.962 QT
68.958 4.962 69.279 4.352 QT
69.599 3.743 69.599 3.024 QT
69.599 2.946 69.669 2.891 QT
69.74 2.837 69.802 2.837 QT
70.005 2.837 L
70.208 2.837 70.208 3.118 QT
70.208 3.681 69.982 4.235 QT
69.755 4.79 69.326 5.149 QT
68.896 5.509 68.318 5.509 QT
66.802 5.509 65.708 4.751 QT
64.615 3.993 64.615 2.54 QT
64.615 0.665 L
64.615 -0.382 63.888 -1.124 QT
63.162 -1.866 62.099 -1.866 QT
59.583 -1.866 L
59.583 3.634 L
59.583 4.306 61.74 4.306 QT
61.74 5.04 L
55.537 5.04 L
cp
59.583 -2.413 M
61.833 -2.413 L
63.568 -2.413 64.482 -3.116 QT
65.396 -3.819 65.396 -5.507 QT
65.396 -7.179 64.49 -7.874 QT
63.583 -8.569 61.833 -8.569 QT
60.646 -8.569 L
60.271 -8.569 60.06 -8.538 QT
59.849 -8.507 59.716 -8.359 QT
59.583 -8.21 59.583 -7.898 QT
59.583 -2.413 L
cp
f
GR
GS
[0.6 0 0 0.60023 250.11443 333.92116] CT
N
71.136 2.977 M
71.136 1.727 72.12 0.946 QT
73.104 0.165 74.479 -0.163 QT
75.854 -0.491 77.104 -0.491 QT
77.104 -1.351 L
77.104 -1.96 76.839 -2.523 QT
76.573 -3.085 76.065 -3.452 QT
75.557 -3.819 74.964 -3.819 QT
73.557 -3.819 72.839 -3.194 QT
73.229 -3.194 73.495 -2.89 QT
73.761 -2.585 73.761 -2.194 QT
73.761 -1.773 73.464 -1.476 QT
73.167 -1.179 72.761 -1.179 QT
72.339 -1.179 72.042 -1.476 QT
71.745 -1.773 71.745 -2.194 QT
71.745 -3.304 72.745 -3.835 QT
73.745 -4.366 74.964 -4.366 QT
75.807 -4.366 76.667 -4.007 QT
77.526 -3.648 78.081 -2.968 QT
78.636 -2.288 78.636 -1.382 QT
78.636 3.337 L
78.636 3.743 78.807 4.087 QT
78.979 4.431 79.339 4.431 QT
79.698 4.431 79.862 4.087 QT
80.026 3.743 80.026 3.337 QT
80.026 1.993 L
80.651 1.993 L
80.651 3.337 L
80.651 3.806 80.401 4.235 QT
80.151 4.665 79.737 4.915 QT
79.323 5.165 78.839 5.165 QT
78.229 5.165 77.784 4.688 QT
77.339 4.212 77.292 3.556 QT
76.901 4.337 76.143 4.806 QT
75.386 5.274 74.511 5.274 QT
73.714 5.274 72.94 5.04 QT
72.167 4.806 71.651 4.298 QT
71.136 3.79 71.136 2.977 QT
cp
72.839 2.977 M
72.839 3.712 73.378 4.22 QT
73.917 4.727 74.667 4.727 QT
75.339 4.727 75.893 4.384 QT
76.448 4.04 76.776 3.462 QT
77.104 2.884 77.104 2.227 QT
77.104 0.04 L
76.151 0.04 75.151 0.352 QT
74.151 0.665 73.495 1.337 QT
72.839 2.009 72.839 2.977 QT
cp
f
GR
GS
[0.6 0 0 0.60023 250.11443 333.92116] CT
N
86.042 5.274 M
84.776 5.274 83.698 4.634 QT
82.62 3.993 81.995 2.915 QT
81.37 1.837 81.37 0.571 QT
81.37 -0.398 81.714 -1.288 QT
82.057 -2.179 82.698 -2.882 QT
83.339 -3.585 84.19 -3.976 QT
85.042 -4.366 86.042 -4.366 QT
87.339 -4.366 88.401 -3.687 QT
89.464 -3.007 90.073 -1.866 QT
90.682 -0.726 90.682 0.571 QT
90.682 1.837 90.057 2.915 QT
89.432 3.993 88.362 4.634 QT
87.292 5.274 86.042 5.274 QT
cp
86.042 4.665 M
87.729 4.665 88.292 3.446 QT
88.854 2.227 88.854 0.337 QT
88.854 -0.726 88.737 -1.413 QT
88.62 -2.101 88.245 -2.679 QT
88.011 -3.023 87.643 -3.28 QT
87.276 -3.538 86.878 -3.679 QT
86.479 -3.819 86.042 -3.819 QT
85.386 -3.819 84.8 -3.523 QT
84.214 -3.226 83.823 -2.679 QT
83.432 -2.069 83.323 -1.359 QT
83.214 -0.648 83.214 0.337 QT
83.214 1.509 83.417 2.446 QT
83.62 3.384 84.245 4.024 QT
84.87 4.665 86.042 4.665 QT
cp
f
GR
GS
[0.6 0 0 0.60023 250.11443 333.92116] CT
N
103.526 5.274 M
102.245 5.274 101.175 4.602 QT
100.104 3.931 99.487 2.806 QT
98.87 1.681 98.87 0.431 QT
98.87 -0.788 99.432 -1.898 QT
99.995 -3.007 100.995 -3.687 QT
101.995 -4.366 103.229 -4.366 QT
104.182 -4.366 104.901 -4.046 QT
105.62 -3.726 106.081 -3.155 QT
106.542 -2.585 106.776 -1.804 QT
107.011 -1.023 107.011 -0.085 QT
107.011 0.196 106.792 0.196 QT
100.714 0.196 L
100.714 0.415 L
100.714 2.165 101.417 3.415 QT
102.12 4.665 103.714 4.665 QT
104.354 4.665 104.901 4.376 QT
105.448 4.087 105.854 3.571 QT
106.261 3.056 106.401 2.477 QT
106.417 2.399 106.479 2.345 QT
106.542 2.29 106.604 2.29 QT
106.792 2.29 L
107.011 2.29 107.011 2.556 QT
106.714 3.743 105.729 4.509 QT
104.745 5.274 103.526 5.274 QT
cp
100.729 -0.335 M
105.526 -0.335 L
105.526 -1.116 105.3 -1.929 QT
105.073 -2.741 104.565 -3.28 QT
104.057 -3.819 103.229 -3.819 QT
102.042 -3.819 101.386 -2.71 QT
100.729 -1.601 100.729 -0.335 QT
cp
f
GR
GS
[0.6 0 0 0.60023 250.11443 333.92116] CT
N
109.766 2.524 M
109.766 -3.273 L
108.031 -3.273 L
108.031 -3.819 L
109.406 -3.819 110.047 -5.101 QT
110.688 -6.382 110.688 -7.882 QT
111.297 -7.882 L
111.297 -4.007 L
114.266 -4.007 L
114.266 -3.273 L
111.297 -3.273 L
111.297 2.477 L
111.297 3.352 111.586 4.009 QT
111.875 4.665 112.641 4.665 QT
113.36 4.665 113.68 3.97 QT
114 3.274 114 2.477 QT
114 1.243 L
114.594 1.243 L
114.594 2.524 L
114.594 3.181 114.352 3.821 QT
114.11 4.462 113.641 4.868 QT
113.172 5.274 112.5 5.274 QT
111.235 5.274 110.5 4.524 QT
109.766 3.774 109.766 2.524 QT
cp
f
GR
GS
[0.6 0 0 0.60023 250.11443 333.92116] CT
N
123.636 2.977 M
123.636 1.727 124.62 0.946 QT
125.604 0.165 126.979 -0.163 QT
128.354 -0.491 129.604 -0.491 QT
129.604 -1.351 L
129.604 -1.96 129.339 -2.523 QT
129.073 -3.085 128.565 -3.452 QT
128.057 -3.819 127.464 -3.819 QT
126.057 -3.819 125.339 -3.194 QT
125.729 -3.194 125.995 -2.89 QT
126.261 -2.585 126.261 -2.194 QT
126.261 -1.773 125.964 -1.476 QT
125.667 -1.179 125.261 -1.179 QT
124.839 -1.179 124.542 -1.476 QT
124.245 -1.773 124.245 -2.194 QT
124.245 -3.304 125.245 -3.835 QT
126.245 -4.366 127.464 -4.366 QT
128.307 -4.366 129.167 -4.007 QT
130.026 -3.648 130.581 -2.968 QT
131.136 -2.288 131.136 -1.382 QT
131.136 3.337 L
131.136 3.743 131.307 4.087 QT
131.479 4.431 131.839 4.431 QT
132.198 4.431 132.362 4.087 QT
132.526 3.743 132.526 3.337 QT
132.526 1.993 L
133.151 1.993 L
133.151 3.337 L
133.151 3.806 132.901 4.235 QT
132.651 4.665 132.237 4.915 QT
131.823 5.165 131.339 5.165 QT
130.729 5.165 130.284 4.688 QT
129.839 4.212 129.792 3.556 QT
129.401 4.337 128.643 4.806 QT
127.886 5.274 127.011 5.274 QT
126.214 5.274 125.44 5.04 QT
124.667 4.806 124.151 4.298 QT
123.636 3.79 123.636 2.977 QT
cp
125.339 2.977 M
125.339 3.712 125.878 4.22 QT
126.417 4.727 127.167 4.727 QT
127.839 4.727 128.393 4.384 QT
128.948 4.04 129.276 3.462 QT
129.604 2.884 129.604 2.227 QT
129.604 0.04 L
128.651 0.04 127.651 0.352 QT
126.651 0.665 125.995 1.337 QT
125.339 2.009 125.339 2.977 QT
cp
f
GR
GS
[0.6 0 0 0.60023 250.11443 333.92116] CT
N
133.933 5.04 M
133.933 4.306 L
134.651 4.306 135.112 4.188 QT
135.573 4.071 135.573 3.634 QT
135.573 -7.382 L
135.573 -7.944 135.409 -8.202 QT
135.245 -8.46 134.925 -8.515 QT
134.604 -8.569 133.933 -8.569 QT
133.933 -9.304 L
137.058 -9.538 L
137.058 3.634 L
137.058 4.071 137.518 4.188 QT
137.979 4.306 138.683 4.306 QT
138.683 5.04 L
133.933 5.04 L
cp
f
GR
GS
[0.6 0 0 0.60023 250.11443 333.92116] CT
N
140.891 3.884 M
140.891 3.415 141.242 3.071 QT
141.594 2.727 142.047 2.727 QT
142.328 2.727 142.61 2.884 QT
142.891 3.04 143.047 3.313 QT
143.203 3.587 143.203 3.884 QT
143.203 4.337 142.86 4.688 QT
142.516 5.04 142.047 5.04 QT
141.594 5.04 141.242 4.688 QT
140.891 4.337 140.891 3.884 QT
cp
f
GR
GS
[0.6 0 0 0.60023 250.11443 333.92116] CT
N
160.808 10.243 M
159.636 9.321 158.792 8.126 QT
157.948 6.931 157.409 5.579 QT
156.87 4.227 156.604 2.751 QT
156.339 1.274 156.339 -0.21 QT
156.339 -1.71 156.604 -3.187 QT
156.87 -4.663 157.417 -6.03 QT
157.964 -7.398 158.815 -8.585 QT
159.667 -9.773 160.808 -10.663 QT
160.808 -10.71 160.901 -10.71 QT
161.104 -10.71 L
161.167 -10.71 161.214 -10.655 QT
161.261 -10.601 161.261 -10.523 QT
161.261 -10.429 161.229 -10.398 QT
160.198 -9.382 159.518 -8.234 QT
158.839 -7.085 158.425 -5.788 QT
158.011 -4.491 157.823 -3.101 QT
157.636 -1.71 157.636 -0.21 QT
157.636 6.462 161.198 9.931 QT
161.261 9.993 161.261 10.102 QT
161.261 10.149 161.206 10.22 QT
161.151 10.29 161.104 10.29 QT
160.901 10.29 L
160.808 10.29 160.808 10.243 QT
cp
f
GR
GS
[0.6 0 0 0.60023 250.11443 333.92116] CT
N
167.287 2.79 M
168.052 3.712 169.138 4.235 QT
170.224 4.759 171.427 4.759 QT
172.584 4.759 173.537 4.165 QT
174.49 3.571 174.49 2.477 QT
174.49 0.712 L
174.49 0.04 171.865 0.04 QT
171.865 -0.694 L
177.896 -0.694 L
177.896 0.04 L
177.224 0.04 176.834 0.157 QT
176.443 0.274 176.443 0.712 QT
176.443 4.852 L
176.443 4.931 176.388 4.985 QT
176.334 5.04 176.255 5.04 QT
176.068 5.04 175.607 4.579 QT
175.146 4.118 174.88 3.759 QT
174.38 4.634 173.279 5.071 QT
172.177 5.509 170.974 5.509 QT
168.943 5.509 167.263 4.454 QT
165.584 3.399 164.607 1.641 QT
163.63 -0.116 163.63 -2.132 QT
163.63 -3.632 164.201 -5.03 QT
164.771 -6.429 165.779 -7.499 QT
166.787 -8.569 168.13 -9.171 QT
169.474 -9.773 170.974 -9.773 QT
172.068 -9.773 173.037 -9.304 QT
174.005 -8.835 174.771 -7.976 QT
175.99 -9.71 L
176.099 -9.773 176.13 -9.773 QT
176.287 -9.773 L
176.349 -9.773 176.396 -9.718 QT
176.443 -9.663 176.443 -9.585 QT
176.443 -3.929 L
176.443 -3.741 176.287 -3.741 QT
175.896 -3.741 L
175.709 -3.741 175.709 -3.929 QT
175.709 -4.523 175.466 -5.273 QT
175.224 -6.023 174.849 -6.694 QT
174.474 -7.366 173.99 -7.882 QT
172.802 -9.023 171.271 -9.023 QT
170.115 -9.023 169.045 -8.499 QT
167.974 -7.976 167.24 -7.054 QT
166.474 -6.069 166.177 -4.819 QT
165.88 -3.569 165.88 -2.132 QT
165.88 1.087 167.287 2.79 QT
cp
f
GR
GS
[0.6 0 0 0.60023 250.11443 333.92116] CT
N
179.641 5.04 M
179.641 4.306 L
181.797 4.306 181.797 3.634 QT
181.797 -7.898 L
181.797 -8.569 179.641 -8.569 QT
179.641 -9.304 L
187.11 -9.304 L
188.266 -9.304 189.414 -8.835 QT
190.563 -8.366 191.305 -7.46 QT
192.047 -6.554 192.047 -5.351 QT
192.047 -4.194 191.297 -3.312 QT
190.547 -2.429 189.407 -1.968 QT
188.266 -1.507 187.11 -1.507 QT
183.75 -1.507 L
183.75 3.634 L
183.75 4.306 185.907 4.306 QT
185.907 5.04 L
179.641 5.04 L
cp
183.688 -2.132 M
186.532 -2.132 L
187.688 -2.132 188.407 -2.468 QT
189.125 -2.804 189.461 -3.507 QT
189.797 -4.21 189.797 -5.351 QT
189.797 -7.069 189.047 -7.819 QT
188.297 -8.569 186.532 -8.569 QT
184.75 -8.569 L
184.375 -8.569 184.164 -8.538 QT
183.953 -8.507 183.821 -8.359 QT
183.688 -8.21 183.688 -7.898 QT
183.688 -2.132 L
cp
f
GR
GS
[0.6 0 0 0.60023 250.11443 333.92116] CT
N
201.401 5.509 M
199.401 5.509 197.808 4.446 QT
196.214 3.384 195.308 1.626 QT
194.401 -0.132 194.401 -2.069 QT
194.401 -3.507 194.925 -4.913 QT
195.448 -6.319 196.378 -7.405 QT
197.308 -8.491 198.605 -9.132 QT
199.901 -9.773 201.401 -9.773 QT
202.886 -9.773 204.198 -9.132 QT
205.511 -8.491 206.44 -7.39 QT
207.37 -6.288 207.87 -4.929 QT
208.37 -3.569 208.37 -2.069 QT
208.37 -0.132 207.472 1.626 QT
206.573 3.384 204.972 4.446 QT
203.37 5.509 201.401 5.509 QT
cp
197.917 2.774 M
198.526 3.743 199.433 4.306 QT
200.339 4.868 201.401 4.868 QT
202.089 4.868 202.753 4.595 QT
203.417 4.321 203.956 3.837 QT
204.495 3.352 204.87 2.774 QT
206.12 0.884 206.12 -2.413 QT
206.12 -5.444 204.87 -7.21 QT
204.245 -8.085 203.331 -8.616 QT
202.417 -9.148 201.401 -9.148 QT
200.37 -9.148 199.448 -8.616 QT
198.526 -8.085 197.917 -7.21 QT
197.417 -6.523 197.151 -5.749 QT
196.886 -4.976 196.769 -4.14 QT
196.651 -3.304 196.651 -2.413 QT
196.651 -1.46 196.761 -0.554 QT
196.87 0.352 197.159 1.227 QT
197.448 2.102 197.917 2.774 QT
cp
f
GR
GS
[0.6 0 0 0.60023 250.11443 333.92116] CT
N
210.266 5.04 M
210.266 4.306 L
212.422 4.306 212.422 3.634 QT
212.422 -7.898 L
212.422 -8.569 210.266 -8.569 QT
210.266 -9.304 L
217.735 -9.304 L
218.891 -9.304 220.039 -8.835 QT
221.188 -8.366 221.93 -7.46 QT
222.672 -6.554 222.672 -5.351 QT
222.672 -4.194 221.922 -3.312 QT
221.172 -2.429 220.032 -1.968 QT
218.891 -1.507 217.735 -1.507 QT
214.375 -1.507 L
214.375 3.634 L
214.375 4.306 216.532 4.306 QT
216.532 5.04 L
210.266 5.04 L
cp
214.313 -2.132 M
217.157 -2.132 L
218.313 -2.132 219.032 -2.468 QT
219.75 -2.804 220.086 -3.507 QT
220.422 -4.21 220.422 -5.351 QT
220.422 -7.069 219.672 -7.819 QT
218.922 -8.569 217.157 -8.569 QT
215.375 -8.569 L
215 -8.569 214.789 -8.538 QT
214.579 -8.507 214.446 -8.359 QT
214.313 -8.21 214.313 -7.898 QT
214.313 -2.132 L
cp
f
GR
GS
[0.6 0 0 0.60023 250.11443 333.92116] CT
N
225.026 5.337 M
225.026 0.431 L
225.026 0.274 225.214 0.274 QT
225.48 0.274 L
225.542 0.274 225.589 0.321 QT
225.636 0.368 225.636 0.431 QT
225.636 2.493 226.917 3.626 QT
228.198 4.759 230.261 4.759 QT
230.995 4.759 231.612 4.337 QT
232.23 3.915 232.566 3.235 QT
232.901 2.556 232.901 1.837 QT
232.901 1.196 232.651 0.595 QT
232.401 -0.007 231.917 -0.444 QT
231.433 -0.882 230.823 -1.038 QT
228.105 -1.694 L
226.745 -2.054 225.886 -3.171 QT
225.026 -4.288 225.026 -5.663 QT
225.026 -6.757 225.581 -7.71 QT
226.136 -8.663 227.073 -9.218 QT
228.011 -9.773 229.105 -9.773 QT
231.214 -9.773 232.448 -8.335 QT
233.308 -9.71 L
233.37 -9.773 233.448 -9.773 QT
233.589 -9.773 L
233.651 -9.773 233.714 -9.726 QT
233.776 -9.679 233.776 -9.585 QT
233.776 -4.726 L
233.776 -4.538 233.589 -4.538 QT
233.355 -4.538 L
233.151 -4.538 233.151 -4.726 QT
233.151 -5.257 232.972 -5.89 QT
232.792 -6.523 232.48 -7.109 QT
232.167 -7.694 231.792 -8.069 QT
230.776 -9.085 229.105 -9.085 QT
228.386 -9.085 227.784 -8.726 QT
227.183 -8.366 226.823 -7.741 QT
226.464 -7.116 226.464 -6.429 QT
226.464 -5.523 227.019 -4.788 QT
227.573 -4.054 228.48 -3.819 QT
231.214 -3.148 L
231.886 -2.991 232.487 -2.562 QT
233.089 -2.132 233.487 -1.569 QT
233.886 -1.007 234.112 -0.319 QT
234.339 0.368 234.339 1.118 QT
234.339 2.243 233.816 3.259 QT
233.292 4.274 232.339 4.891 QT
231.386 5.509 230.261 5.509 QT
229.573 5.509 228.839 5.352 QT
228.105 5.196 227.495 4.876 QT
226.886 4.556 226.37 4.056 QT
225.495 5.446 L
225.433 5.509 225.339 5.509 QT
225.214 5.509 L
225.026 5.509 225.026 5.337 QT
cp
f
GR
GS
[0.6 0 0 0.60023 250.11443 333.92116] CT
N
236.881 10.29 M
236.693 10.29 236.693 10.102 QT
236.693 10.009 236.74 9.977 QT
240.334 6.462 240.334 -0.21 QT
240.334 -6.882 236.787 -10.351 QT
236.693 -10.398 236.693 -10.523 QT
236.693 -10.601 236.756 -10.655 QT
236.818 -10.71 236.881 -10.71 QT
237.084 -10.71 L
237.146 -10.71 237.178 -10.663 QT
238.693 -9.476 239.693 -7.773 QT
240.693 -6.069 241.162 -4.148 QT
241.631 -2.226 241.631 -0.21 QT
241.631 1.274 241.381 2.72 QT
241.131 4.165 240.584 5.563 QT
240.037 6.962 239.193 8.141 QT
238.349 9.321 237.178 10.243 QT
237.146 10.29 237.084 10.29 QT
236.881 10.29 L
cp
f
GR
GS
[0.6 0 0 0.60023 0 0.25] CT
[12 12] 0 setdash
2 LJ
3.333 LW
N
363.009 555.907 M
413.101 555.907 L
S
GR
GS
[0.6 0 0 0.60023 0 0.25] CT
0.149 GC
10.0 ML
0.833 LW
N
358 571 M
358 515 L
666 515 L
666 571 L
cp
S
GR
%%Trailer
%%Pages: 1
%%EOF
