%!PS-Adobe-3.0 EPSF-3.0
%%Creator: (MATLAB, The Mathworks, Inc. Version 9.6.0.1072779 \(R2019a\). Operating System: Windows 10)
%%Title: ./MultiphaseNodes_small.eps
%%CreationDate: 2021-01-21T18:42:02
%%Pages: (atend)
%%BoundingBox:     0     0   313   168
%%LanguageLevel: 3
%%EndComments
%%BeginProlog
%%BeginResource: procset (Apache XML Graphics Std ProcSet) 1.2 0
%%Version: 1.2 0
%%Copyright: (Copyright 2001-2003,2010 The Apache Software Foundation. License terms: http://www.apache.org/licenses/LICENSE-2.0)
/bd{bind def}bind def
/ld{load def}bd
/GR/grestore ld
/GS/gsave ld
/RM/rmoveto ld
/C/curveto ld
/t/show ld
/L/lineto ld
/ML/setmiterlimit ld
/CT/concat ld
/f/fill ld
/N/newpath ld
/S/stroke ld
/CC/setcmykcolor ld
/A/ashow ld
/cp/closepath ld
/RC/setrgbcolor ld
/LJ/setlinejoin ld
/GC/setgray ld
/LW/setlinewidth ld
/M/moveto ld
/re {4 2 roll M
1 index 0 rlineto
0 exch rlineto
neg 0 rlineto
cp } bd
/_ctm matrix def
/_tm matrix def
/BT { _ctm currentmatrix pop matrix _tm copy pop 0 0 moveto } bd
/ET { _ctm setmatrix } bd
/iTm { _ctm setmatrix _tm concat } bd
/Tm { _tm astore pop iTm 0 0 moveto } bd
/ux 0.0 def
/uy 0.0 def
/F {
  /Tp exch def
  /Tf exch def
  Tf findfont Tp scalefont setfont
  /cf Tf def  /cs Tp def
} bd
/ULS {currentpoint /uy exch def /ux exch def} bd
/ULE {
  /Tcx currentpoint pop def
  gsave
  newpath
  cf findfont cs scalefont dup
  /FontMatrix get 0 get /Ts exch def /FontInfo get dup
  /UnderlinePosition get Ts mul /To exch def
  /UnderlineThickness get Ts mul /Tt exch def
  ux uy To add moveto  Tcx uy To add lineto
  Tt setlinewidth stroke
  grestore
} bd
/OLE {
  /Tcx currentpoint pop def
  gsave
  newpath
  cf findfont cs scalefont dup
  /FontMatrix get 0 get /Ts exch def /FontInfo get dup
  /UnderlinePosition get Ts mul /To exch def
  /UnderlineThickness get Ts mul /Tt exch def
  ux uy To add cs add moveto Tcx uy To add cs add lineto
  Tt setlinewidth stroke
  grestore
} bd
/SOE {
  /Tcx currentpoint pop def
  gsave
  newpath
  cf findfont cs scalefont dup
  /FontMatrix get 0 get /Ts exch def /FontInfo get dup
  /UnderlinePosition get Ts mul /To exch def
  /UnderlineThickness get Ts mul /Tt exch def
  ux uy To add cs 10 mul 26 idiv add moveto Tcx uy To add cs 10 mul 26 idiv add lineto
  Tt setlinewidth stroke
  grestore
} bd
/QT {
/Y22 exch store
/X22 exch store
/Y21 exch store
/X21 exch store
currentpoint
/Y21 load 2 mul add 3 div exch
/X21 load 2 mul add 3 div exch
/X21 load 2 mul /X22 load add 3 div
/Y21 load 2 mul /Y22 load add 3 div
/X22 load /Y22 load curveto
} bd
/SSPD {
dup length /d exch dict def
{
/v exch def
/k exch def
currentpagedevice k known {
/cpdv currentpagedevice k get def
v cpdv ne {
/upd false def
/nullv v type /nulltype eq def
/nullcpdv cpdv type /nulltype eq def
nullv nullcpdv or
{
/upd true def
} {
/sametype v type cpdv type eq def
sametype {
v type /arraytype eq {
/vlen v length def
/cpdvlen cpdv length def
vlen cpdvlen eq {
0 1 vlen 1 sub {
/i exch def
/obj v i get def
/cpdobj cpdv i get def
obj cpdobj ne {
/upd true def
exit
} if
} for
} {
/upd true def
} ifelse
} {
v type /dicttype eq {
v {
/dv exch def
/dk exch def
/cpddv cpdv dk get def
dv cpddv ne {
/upd true def
exit
} if
} forall
} {
/upd true def
} ifelse
} ifelse
} if
} ifelse
upd true eq {
d k v put
} if
} if
} if
} forall
d length 0 gt {
d setpagedevice
} if
} bd
/RE { % /NewFontName [NewEncodingArray] /FontName RE -
  findfont dup length dict begin
  {
    1 index /FID ne
    {def} {pop pop} ifelse
  } forall
  /Encoding exch def
  /FontName 1 index def
  currentdict definefont pop
  end
} bind def
%%EndResource
%%BeginResource: procset (Apache XML Graphics EPS ProcSet) 1.0 0
%%Version: 1.0 0
%%Copyright: (Copyright 2002-2003 The Apache Software Foundation. License terms: http://www.apache.org/licenses/LICENSE-2.0)
/BeginEPSF { %def
/b4_Inc_state save def         % Save state for cleanup
/dict_count countdictstack def % Count objects on dict stack
/op_count count 1 sub def      % Count objects on operand stack
userdict begin                 % Push userdict on dict stack
/showpage { } def              % Redefine showpage, { } = null proc
0 setgray 0 setlinecap         % Prepare graphics state
1 setlinewidth 0 setlinejoin
10 setmiterlimit [ ] 0 setdash newpath
/languagelevel where           % If level not equal to 1 then
{pop languagelevel             % set strokeadjust and
1 ne                           % overprint to their defaults.
{false setstrokeadjust false setoverprint
} if
} if
} bd
/EndEPSF { %def
count op_count sub {pop} repeat            % Clean up stacks
countdictstack dict_count sub {end} repeat
b4_Inc_state restore
} bd
%%EndResource
%FOPBeginFontDict
%%IncludeResource: font Courier-Oblique
%%IncludeResource: font Courier-BoldOblique
%%IncludeResource: font Courier-Bold
%%IncludeResource: font ZapfDingbats
%%IncludeResource: font Symbol
%%IncludeResource: font Helvetica
%%IncludeResource: font Helvetica-Oblique
%%IncludeResource: font Helvetica-Bold
%%IncludeResource: font Helvetica-BoldOblique
%%IncludeResource: font Times-Roman
%%IncludeResource: font Times-Italic
%%IncludeResource: font Times-Bold
%%IncludeResource: font Times-BoldItalic
%%IncludeResource: font Courier
%FOPEndFontDict
%%BeginResource: encoding WinAnsiEncoding
/WinAnsiEncoding [
/.notdef /.notdef /.notdef /.notdef /.notdef
/.notdef /.notdef /.notdef /.notdef /.notdef
/.notdef /.notdef /.notdef /.notdef /.notdef
/.notdef /.notdef /.notdef /.notdef /.notdef
/.notdef /.notdef /.notdef /.notdef /.notdef
/.notdef /.notdef /.notdef /.notdef /.notdef
/.notdef /.notdef /space /exclam /quotedbl
/numbersign /dollar /percent /ampersand /quotesingle
/parenleft /parenright /asterisk /plus /comma
/hyphen /period /slash /zero /one
/two /three /four /five /six
/seven /eight /nine /colon /semicolon
/less /equal /greater /question /at
/A /B /C /D /E
/F /G /H /I /J
/K /L /M /N /O
/P /Q /R /S /T
/U /V /W /X /Y
/Z /bracketleft /backslash /bracketright /asciicircum
/underscore /quoteleft /a /b /c
/d /e /f /g /h
/i /j /k /l /m
/n /o /p /q /r
/s /t /u /v /w
/x /y /z /braceleft /bar
/braceright /asciitilde /bullet /Euro /bullet
/quotesinglbase /florin /quotedblbase /ellipsis /dagger
/daggerdbl /circumflex /perthousand /Scaron /guilsinglleft
/OE /bullet /Zcaron /bullet /bullet
/quoteleft /quoteright /quotedblleft /quotedblright /bullet
/endash /emdash /asciitilde /trademark /scaron
/guilsinglright /oe /bullet /zcaron /Ydieresis
/space /exclamdown /cent /sterling /currency
/yen /brokenbar /section /dieresis /copyright
/ordfeminine /guillemotleft /logicalnot /sfthyphen /registered
/macron /degree /plusminus /twosuperior /threesuperior
/acute /mu /paragraph /middot /cedilla
/onesuperior /ordmasculine /guillemotright /onequarter /onehalf
/threequarters /questiondown /Agrave /Aacute /Acircumflex
/Atilde /Adieresis /Aring /AE /Ccedilla
/Egrave /Eacute /Ecircumflex /Edieresis /Igrave
/Iacute /Icircumflex /Idieresis /Eth /Ntilde
/Ograve /Oacute /Ocircumflex /Otilde /Odieresis
/multiply /Oslash /Ugrave /Uacute /Ucircumflex
/Udieresis /Yacute /Thorn /germandbls /agrave
/aacute /acircumflex /atilde /adieresis /aring
/ae /ccedilla /egrave /eacute /ecircumflex
/edieresis /igrave /iacute /icircumflex /idieresis
/eth /ntilde /ograve /oacute /ocircumflex
/otilde /odieresis /divide /oslash /ugrave
/uacute /ucircumflex /udieresis /yacute /thorn
/ydieresis
] def
%%EndResource
%FOPBeginFontReencode
/Courier-Oblique findfont
dup length dict begin
  {1 index /FID ne {def} {pop pop} ifelse} forall
  /Encoding WinAnsiEncoding def
  currentdict
end
/Courier-Oblique exch definefont pop
/Courier-BoldOblique findfont
dup length dict begin
  {1 index /FID ne {def} {pop pop} ifelse} forall
  /Encoding WinAnsiEncoding def
  currentdict
end
/Courier-BoldOblique exch definefont pop
/Courier-Bold findfont
dup length dict begin
  {1 index /FID ne {def} {pop pop} ifelse} forall
  /Encoding WinAnsiEncoding def
  currentdict
end
/Courier-Bold exch definefont pop
/Helvetica findfont
dup length dict begin
  {1 index /FID ne {def} {pop pop} ifelse} forall
  /Encoding WinAnsiEncoding def
  currentdict
end
/Helvetica exch definefont pop
/Helvetica-Oblique findfont
dup length dict begin
  {1 index /FID ne {def} {pop pop} ifelse} forall
  /Encoding WinAnsiEncoding def
  currentdict
end
/Helvetica-Oblique exch definefont pop
/Helvetica-Bold findfont
dup length dict begin
  {1 index /FID ne {def} {pop pop} ifelse} forall
  /Encoding WinAnsiEncoding def
  currentdict
end
/Helvetica-Bold exch definefont pop
/Helvetica-BoldOblique findfont
dup length dict begin
  {1 index /FID ne {def} {pop pop} ifelse} forall
  /Encoding WinAnsiEncoding def
  currentdict
end
/Helvetica-BoldOblique exch definefont pop
/Times-Roman findfont
dup length dict begin
  {1 index /FID ne {def} {pop pop} ifelse} forall
  /Encoding WinAnsiEncoding def
  currentdict
end
/Times-Roman exch definefont pop
/Times-Italic findfont
dup length dict begin
  {1 index /FID ne {def} {pop pop} ifelse} forall
  /Encoding WinAnsiEncoding def
  currentdict
end
/Times-Italic exch definefont pop
/Times-Bold findfont
dup length dict begin
  {1 index /FID ne {def} {pop pop} ifelse} forall
  /Encoding WinAnsiEncoding def
  currentdict
end
/Times-Bold exch definefont pop
/Times-BoldItalic findfont
dup length dict begin
  {1 index /FID ne {def} {pop pop} ifelse} forall
  /Encoding WinAnsiEncoding def
  currentdict
end
/Times-BoldItalic exch definefont pop
/Courier findfont
dup length dict begin
  {1 index /FID ne {def} {pop pop} ifelse} forall
  /Encoding WinAnsiEncoding def
  currentdict
end
/Courier exch definefont pop
%FOPEndFontReencode
%%EndProlog
%%Page: 1 1
%%PageBoundingBox: 0 0 311 173
%%BeginPageSetup
[1 0 0 -1 0 173] CT
%%EndPageSetup
GS
[0.60116 0 0 0.60209 0 0.2] CT
1 GC
N
0 0 517 287 re
f
GR
GS
[0.60116 0 0 0.60209 0 0.2] CT
1 GC
N
0 0 517 287 re
f
GR
GS
[0.60116 0 0 0.60209 0 0.2] CT
1 GC
N
8 234 M
513 234 L
513 29 L
8 29 L
cp
f
GR
GS
[0.60116 0 0 0.60209 0 0.2] CT
0.775 GC
[1 3] 0 setdash
2 LJ
0.833 LW
N
50.083 234 M
50.083 29 L
S
GR
GS
[0.60116 0 0 0.60209 0 0.2] CT
0.775 GC
[1 3] 0 setdash
2 LJ
0.833 LW
N
92.167 234 M
92.167 29 L
S
GR
GS
[0.60116 0 0 0.60209 0 0.2] CT
0.775 GC
[1 3] 0 setdash
2 LJ
0.833 LW
N
134.25 234 M
134.25 29 L
S
GR
GS
[0.60116 0 0 0.60209 0 0.2] CT
0.775 GC
[1 3] 0 setdash
2 LJ
0.833 LW
N
218.417 234 M
218.417 29 L
S
GR
GS
[0.60116 0 0 0.60209 0 0.2] CT
0.775 GC
[1 3] 0 setdash
2 LJ
0.833 LW
N
260.5 234 M
260.5 29 L
S
GR
GS
[0.60116 0 0 0.60209 0 0.2] CT
0.775 GC
[1 3] 0 setdash
2 LJ
0.833 LW
N
302.583 234 M
302.583 29 L
S
GR
GS
[0.60116 0 0 0.60209 0 0.2] CT
0.775 GC
[1 3] 0 setdash
2 LJ
0.833 LW
N
386.75 234 M
386.75 29 L
S
GR
GS
[0.60116 0 0 0.60209 0 0.2] CT
0.775 GC
[1 3] 0 setdash
2 LJ
0.833 LW
N
428.833 234 M
428.833 29 L
S
GR
GS
[0.60116 0 0 0.60209 0 0.2] CT
0.775 GC
[1 3] 0 setdash
2 LJ
0.833 LW
N
470.917 234 M
470.917 29 L
S
GR
GS
[0.60116 0 0 0.60209 0 0.2] CT
0.873 GC
1 LJ
0.833 LW
N
8 234 M
8 29 L
S
GR
GS
[0.60116 0 0 0.60209 0 0.2] CT
0.873 GC
1 LJ
0.833 LW
N
176.333 234 M
176.333 29 L
S
GR
GS
[0.60116 0 0 0.60209 0 0.2] CT
0.873 GC
1 LJ
0.833 LW
N
344.667 234 M
344.667 29 L
S
GR
GS
[0.60116 0 0 0.60209 0 0.2] CT
0.873 GC
1 LJ
0.833 LW
N
513 234 M
513 29 L
S
GR
GS
[0.60116 0 0 0.60209 0 0.2] CT
0.873 GC
1 LJ
0.833 LW
N
513 131.5 M
8 131.5 L
S
GR
GS
[0.60116 0 0 0.60209 0 0.2] CT
0.149 GC
2 setlinecap
1 LJ
0.833 LW
N
8 234 M
513 234 L
S
GR
GS
[0.60116 0 0 0.60209 0 0.2] CT
0.149 GC
2 setlinecap
1 LJ
0.833 LW
N
8 29 M
513 29 L
S
GR
GS
[0.60116 0 0 0.60209 0 0.2] CT
0.149 GC
2 setlinecap
1 LJ
0.833 LW
N
8 234 M
8 228.95 L
S
GR
GS
[0.60116 0 0 0.60209 0 0.2] CT
0.149 GC
2 setlinecap
1 LJ
0.833 LW
N
176.333 234 M
176.333 228.95 L
S
GR
GS
[0.60116 0 0 0.60209 0 0.2] CT
0.149 GC
2 setlinecap
1 LJ
0.833 LW
N
344.667 234 M
344.667 228.95 L
S
GR
GS
[0.60116 0 0 0.60209 0 0.2] CT
0.149 GC
2 setlinecap
1 LJ
0.833 LW
N
513 234 M
513 228.95 L
S
GR
GS
[0.60116 0 0 0.60209 0 0.2] CT
0.149 GC
2 setlinecap
1 LJ
0.833 LW
N
8 29 M
8 34.05 L
S
GR
GS
[0.60116 0 0 0.60209 0 0.2] CT
0.149 GC
2 setlinecap
1 LJ
0.833 LW
N
176.333 29 M
176.333 34.05 L
S
GR
GS
[0.60116 0 0 0.60209 0 0.2] CT
0.149 GC
2 setlinecap
1 LJ
0.833 LW
N
344.667 29 M
344.667 34.05 L
S
GR
GS
[0.60116 0 0 0.60209 0 0.2] CT
0.149 GC
2 setlinecap
1 LJ
0.833 LW
N
513 29 M
513 34.05 L
S
GR
GS
[0.60116 0 0 0.60209 4.80928 145.10314] CT
0.149 GC
/Helvetica 16.667 F
GS
[1 0 0 1 0 0] CT
-7.5 17 moveto 
1 -1 scale
(-1) t 
GR
GR
GS
[0.60116 0 0 0.60209 106.00463 145.10314] CT
0.149 GC
/Helvetica 16.667 F
GS
[1 0 0 1 0 0] CT
-23.5 17 moveto 
1 -1 scale
( 1  | -1) t 
GR
GR
GS
[0.60116 0 0 0.60209 207.19999 145.10314] CT
0.149 GC
/Helvetica 16.667 F
GS
[1 0 0 1 0 0] CT
-23.5 17 moveto 
1 -1 scale
( 1  | -1) t 
GR
GR
GS
[0.60116 0 0 0.60209 308.39535 145.10314] CT
0.149 GC
/Helvetica 16.667 F
GS
[1 0 0 1 0 0] CT
-5 17 moveto 
1 -1 scale
(1) t 
GR
GR
GS
[0.60116 0 0 0.60209 70.33578 169.98955] CT
0.149 GC
/Helvetica 18.333 F
GS
[1 0 0 1 0 0] CT
0 0 moveto 
1 -1 scale
(Normalized independent variable, ) t 
GR
GR
GS
[0.60116 0 0 0.60209 237.4584 169.98955] CT
0.149 GC
N
2.797 -0.266 M
2.797 -0.391 2.828 -0.469 QT
4.719 -6.641 L
3.094 -6.641 L
2.438 -6.641 1.867 -6.227 QT
1.297 -5.813 0.922 -5.188 QT
0.875 -5.109 0.813 -5.109 QT
0.594 -5.109 L
0.438 -5.109 0.438 -5.297 QT
0.438 -5.328 0.469 -5.391 QT
1.063 -6.406 1.734 -7.086 QT
2.406 -7.766 3.25 -7.766 QT
8.766 -7.766 L
8.953 -7.766 9.086 -7.633 QT
9.219 -7.5 9.219 -7.297 QT
9.219 -7.047 9.031 -6.844 QT
8.844 -6.641 8.563 -6.641 QT
5.313 -6.641 L
4.109 -0.438 L
4.031 -0.141 3.836 0.047 QT
3.641 0.234 3.344 0.234 QT
3.125 0.234 2.961 0.094 QT
2.797 -0.047 2.797 -0.266 QT
cp
f
GR
GS
[0.60116 0 0 0.60209 0 0.2] CT
0.149 GC
2 setlinecap
1 LJ
0.833 LW
N
8 234 M
8 29 L
S
GR
GS
[0.60116 0 0 0.60209 0 0.2] CT
0.149 GC
2 setlinecap
1 LJ
0.833 LW
N
513 234 M
513 29 L
S
GR
GS
[0.60116 0 0 0.60209 0 0.2] CT
0.149 GC
2 setlinecap
1 LJ
0.833 LW
N
8 131.5 M
13.05 131.5 L
S
GR
GS
[0.60116 0 0 0.60209 0 0.2] CT
0.149 GC
2 setlinecap
1 LJ
0.833 LW
N
513 131.5 M
507.95 131.5 L
S
GR
GS
[0.60116 0 0 0.60209 156.60246 16.00488] CT
/Helvetica-Bold 18.333 F
GS
[1 0 0 1 0 0] CT
-171 -5 moveto 
1 -1 scale
(Multiphase Collocation Nodes Example) t 
GR
GR
GS
[0.60116 0 0 0.60209 10.58796 79.37491] CT
1 0 0 RC
10.0 ML
2.5 LW
N
0 -6.665 M
-5.772 3.332 L
5.772 3.332 L
cp
S
GR
GS
[0.60116 0 0 0.60209 32.82451 79.37491] CT
1 0 0 RC
10.0 ML
2.5 LW
N
0 -6.665 M
-5.772 3.332 L
5.772 3.332 L
cp
S
GR
GS
[0.60116 0 0 0.60209 63.86593 79.37491] CT
1 0 0 RC
10.0 ML
2.5 LW
N
0 -6.665 M
-5.772 3.332 L
5.772 3.332 L
cp
S
GR
GS
[0.60116 0 0 0.60209 91.86159 79.37491] CT
1 0 0 RC
10.0 ML
2.5 LW
N
0 -6.665 M
-5.772 3.332 L
5.772 3.332 L
cp
S
GR
GS
[0.60116 0 0 0.60209 106.00463 79.37491] CT
1 0 0 RC
10.0 ML
2.5 LW
N
0 -6.665 M
-5.772 3.332 L
5.772 3.332 L
cp
S
GR
GS
[0.60116 0 0 0.60209 111.78332 79.37491] CT
0 1 0 RC
10.0 ML
2.5 LW
N
0 6.665 M
-5.772 -3.332 L
5.772 -3.332 L
cp
S
GR
GS
[0.60116 0 0 0.60209 134.01987 79.37491] CT
0 1 0 RC
10.0 ML
2.5 LW
N
0 6.665 M
-5.772 -3.332 L
5.772 -3.332 L
cp
S
GR
GS
[0.60116 0 0 0.60209 165.06127 79.37491] CT
0 1 0 RC
10.0 ML
2.5 LW
N
0 6.665 M
-5.772 -3.332 L
5.772 -3.332 L
cp
S
GR
GS
[0.60116 0 0 0.60209 193.05694 79.37491] CT
0 1 0 RC
10.0 ML
2.5 LW
N
0 6.665 M
-5.772 -3.332 L
5.772 -3.332 L
cp
S
GR
GS
[0.60116 0 0 0.60209 207.19999 79.37491] CT
0 1 0 RC
10.0 ML
2.5 LW
N
0 6.665 M
-5.772 -3.332 L
5.772 -3.332 L
cp
S
GR
GS
[0.60116 0 0 0.60209 212.97867 79.37491] CT
0 0 1 RC
10.0 ML
2.5 LW
N
5 0 M
5 -2.761 2.761 -5 0 -5 C
-2.761 -5 -5 -2.761 -5 0 C
-5 2.761 -2.761 5 0 5 C
2.761 5 5 2.761 5 0 C
cp
S
GR
GS
[0.60116 0 0 0.60209 235.21523 79.37491] CT
0 0 1 RC
10.0 ML
2.5 LW
N
5 0 M
5 -2.761 2.761 -5 0 -5 C
-2.761 -5 -5 -2.761 -5 0 C
-5 2.761 -2.761 5 0 5 C
2.761 5 5 2.761 5 0 C
cp
S
GR
GS
[0.60116 0 0 0.60209 266.25663 79.37491] CT
0 0 1 RC
10.0 ML
2.5 LW
N
5 0 M
5 -2.761 2.761 -5 0 -5 C
-2.761 -5 -5 -2.761 -5 0 C
-5 2.761 -2.761 5 0 5 C
2.761 5 5 2.761 5 0 C
cp
S
GR
GS
[0.60116 0 0 0.60209 294.25231 79.37491] CT
0 0 1 RC
10.0 ML
2.5 LW
N
5 0 M
5 -2.761 2.761 -5 0 -5 C
-2.761 -5 -5 -2.761 -5 0 C
-5 2.761 -2.761 5 0 5 C
2.761 5 5 2.761 5 0 C
cp
S
GR
GS
[0.60116 0 0 0.60209 308.39535 79.37491] CT
0 0 1 RC
10.0 ML
2.5 LW
N
5 0 M
5 -2.761 2.761 -5 0 -5 C
-2.761 -5 -5 -2.761 -5 0 C
-5 2.761 -2.761 5 0 5 C
2.761 5 5 2.761 5 0 C
cp
S
GR
GS
[0.60116 0 0 0.60209 0 0.2] CT
1 GC
N
500 107 M
500 41 L
380 41 L
380 107 L
cp
f
GR
GS
[0.60116 0 0 0.60209 263.83291 32.38344] CT
/Helvetica 15 F
GS
[1 0 0 1 0 0] CT
0 6 moveto 
1 -1 scale
(Phase 1) t 
GR
GR
GS
[0.60116 0 0 0.60209 246.51346 32.38344] CT
1 0 0 RC
10.0 ML
2.5 LW
N
0 -6.665 M
-5.772 3.332 L
5.772 3.332 L
cp
S
GR
GS
[0.60116 0 0 0.60209 263.83291 44.7547] CT
/Helvetica 15 F
GS
[1 0 0 1 0 0] CT
0 6 moveto 
1 -1 scale
(Phase 2) t 
GR
GR
GS
[0.60116 0 0 0.60209 246.51346 44.7547] CT
0 1 0 RC
10.0 ML
2.5 LW
N
0 6.665 M
-5.772 -3.332 L
5.772 -3.332 L
cp
S
GR
GS
[0.60116 0 0 0.60209 263.83291 57.12596] CT
/Helvetica 15 F
GS
[1 0 0 1 0 0] CT
0 6 moveto 
1 -1 scale
(Phase 3) t 
GR
GR
GS
[0.60116 0 0 0.60209 246.51346 57.12596] CT
0 0 1 RC
10.0 ML
2.5 LW
N
5 0 M
5 -2.761 2.761 -5 0 -5 C
-2.761 -5 -5 -2.761 -5 0 C
-5 2.761 -2.761 5 0 5 C
2.761 5 5 2.761 5 0 C
cp
S
GR
GS
[0.60116 0 0 0.60209 0 0.2] CT
0.149 GC
10.0 ML
0.833 LW
N
380 107 M
380 41 L
500 41 L
500 107 L
cp
S
GR
%%Trailer
%%Pages: 1
%%EOF
