%!PS-Adobe-3.0 EPSF-3.0
%%Creator: (MATLAB, The Mathworks, Inc. Version 9.9.0.1524771 \(R2020b\) Update 2. Operating System: Windows 10)
%%Title: ./MultiphaseNodes.eps
%%CreationDate: 2020-12-23T22:20:08
%%Pages: (atend)
%%BoundingBox:    73     0   547   235
%%LanguageLevel: 3
%%EndComments
%%BeginProlog
%%BeginResource: procset (Apache XML Graphics Std ProcSet) 1.2 0
%%Version: 1.2 0
%%Copyright: (Copyright 2001-2003,2010 The Apache Software Foundation. License terms: http://www.apache.org/licenses/LICENSE-2.0)
/bd{bind def}bind def
/ld{load def}bd
/GR/grestore ld
/GS/gsave ld
/RM/rmoveto ld
/C/curveto ld
/t/show ld
/L/lineto ld
/ML/setmiterlimit ld
/CT/concat ld
/f/fill ld
/N/newpath ld
/S/stroke ld
/CC/setcmykcolor ld
/A/ashow ld
/cp/closepath ld
/RC/setrgbcolor ld
/LJ/setlinejoin ld
/GC/setgray ld
/LW/setlinewidth ld
/M/moveto ld
/re {4 2 roll M
1 index 0 rlineto
0 exch rlineto
neg 0 rlineto
cp } bd
/_ctm matrix def
/_tm matrix def
/BT { _ctm currentmatrix pop matrix _tm copy pop 0 0 moveto } bd
/ET { _ctm setmatrix } bd
/iTm { _ctm setmatrix _tm concat } bd
/Tm { _tm astore pop iTm 0 0 moveto } bd
/ux 0.0 def
/uy 0.0 def
/F {
  /Tp exch def
  /Tf exch def
  Tf findfont Tp scalefont setfont
  /cf Tf def  /cs Tp def
} bd
/ULS {currentpoint /uy exch def /ux exch def} bd
/ULE {
  /Tcx currentpoint pop def
  gsave
  newpath
  cf findfont cs scalefont dup
  /FontMatrix get 0 get /Ts exch def /FontInfo get dup
  /UnderlinePosition get Ts mul /To exch def
  /UnderlineThickness get Ts mul /Tt exch def
  ux uy To add moveto  Tcx uy To add lineto
  Tt setlinewidth stroke
  grestore
} bd
/OLE {
  /Tcx currentpoint pop def
  gsave
  newpath
  cf findfont cs scalefont dup
  /FontMatrix get 0 get /Ts exch def /FontInfo get dup
  /UnderlinePosition get Ts mul /To exch def
  /UnderlineThickness get Ts mul /Tt exch def
  ux uy To add cs add moveto Tcx uy To add cs add lineto
  Tt setlinewidth stroke
  grestore
} bd
/SOE {
  /Tcx currentpoint pop def
  gsave
  newpath
  cf findfont cs scalefont dup
  /FontMatrix get 0 get /Ts exch def /FontInfo get dup
  /UnderlinePosition get Ts mul /To exch def
  /UnderlineThickness get Ts mul /Tt exch def
  ux uy To add cs 10 mul 26 idiv add moveto Tcx uy To add cs 10 mul 26 idiv add lineto
  Tt setlinewidth stroke
  grestore
} bd
/QT {
/Y22 exch store
/X22 exch store
/Y21 exch store
/X21 exch store
currentpoint
/Y21 load 2 mul add 3 div exch
/X21 load 2 mul add 3 div exch
/X21 load 2 mul /X22 load add 3 div
/Y21 load 2 mul /Y22 load add 3 div
/X22 load /Y22 load curveto
} bd
/SSPD {
dup length /d exch dict def
{
/v exch def
/k exch def
currentpagedevice k known {
/cpdv currentpagedevice k get def
v cpdv ne {
/upd false def
/nullv v type /nulltype eq def
/nullcpdv cpdv type /nulltype eq def
nullv nullcpdv or
{
/upd true def
} {
/sametype v type cpdv type eq def
sametype {
v type /arraytype eq {
/vlen v length def
/cpdvlen cpdv length def
vlen cpdvlen eq {
0 1 vlen 1 sub {
/i exch def
/obj v i get def
/cpdobj cpdv i get def
obj cpdobj ne {
/upd true def
exit
} if
} for
} {
/upd true def
} ifelse
} {
v type /dicttype eq {
v {
/dv exch def
/dk exch def
/cpddv cpdv dk get def
dv cpddv ne {
/upd true def
exit
} if
} forall
} {
/upd true def
} ifelse
} ifelse
} if
} ifelse
upd true eq {
d k v put
} if
} if
} if
} forall
d length 0 gt {
d setpagedevice
} if
} bd
/RE { % /NewFontName [NewEncodingArray] /FontName RE -
  findfont dup length dict begin
  {
    1 index /FID ne
    {def} {pop pop} ifelse
  } forall
  /Encoding exch def
  /FontName 1 index def
  currentdict definefont pop
  end
} bind def
%%EndResource
%%BeginResource: procset (Apache XML Graphics EPS ProcSet) 1.0 0
%%Version: 1.0 0
%%Copyright: (Copyright 2002-2003 The Apache Software Foundation. License terms: http://www.apache.org/licenses/LICENSE-2.0)
/BeginEPSF { %def
/b4_Inc_state save def         % Save state for cleanup
/dict_count countdictstack def % Count objects on dict stack
/op_count count 1 sub def      % Count objects on operand stack
userdict begin                 % Push userdict on dict stack
/showpage { } def              % Redefine showpage, { } = null proc
0 setgray 0 setlinecap         % Prepare graphics state
1 setlinewidth 0 setlinejoin
10 setmiterlimit [ ] 0 setdash newpath
/languagelevel where           % If level not equal to 1 then
{pop languagelevel             % set strokeadjust and
1 ne                           % overprint to their defaults.
{false setstrokeadjust false setoverprint
} if
} if
} bd
/EndEPSF { %def
count op_count sub {pop} repeat            % Clean up stacks
countdictstack dict_count sub {end} repeat
b4_Inc_state restore
} bd
%%EndResource
%FOPBeginFontDict
%%IncludeResource: font Courier-Oblique
%%IncludeResource: font Courier-BoldOblique
%%IncludeResource: font Courier-Bold
%%IncludeResource: font ZapfDingbats
%%IncludeResource: font Symbol
%%IncludeResource: font Helvetica
%%IncludeResource: font Helvetica-Oblique
%%IncludeResource: font Helvetica-Bold
%%IncludeResource: font Helvetica-BoldOblique
%%IncludeResource: font Times-Roman
%%IncludeResource: font Times-Italic
%%IncludeResource: font Times-Bold
%%IncludeResource: font Times-BoldItalic
%%IncludeResource: font Courier
%FOPEndFontDict
%%BeginResource: encoding WinAnsiEncoding
/WinAnsiEncoding [
/.notdef /.notdef /.notdef /.notdef /.notdef
/.notdef /.notdef /.notdef /.notdef /.notdef
/.notdef /.notdef /.notdef /.notdef /.notdef
/.notdef /.notdef /.notdef /.notdef /.notdef
/.notdef /.notdef /.notdef /.notdef /.notdef
/.notdef /.notdef /.notdef /.notdef /.notdef
/.notdef /.notdef /space /exclam /quotedbl
/numbersign /dollar /percent /ampersand /quotesingle
/parenleft /parenright /asterisk /plus /comma
/hyphen /period /slash /zero /one
/two /three /four /five /six
/seven /eight /nine /colon /semicolon
/less /equal /greater /question /at
/A /B /C /D /E
/F /G /H /I /J
/K /L /M /N /O
/P /Q /R /S /T
/U /V /W /X /Y
/Z /bracketleft /backslash /bracketright /asciicircum
/underscore /quoteleft /a /b /c
/d /e /f /g /h
/i /j /k /l /m
/n /o /p /q /r
/s /t /u /v /w
/x /y /z /braceleft /bar
/braceright /asciitilde /bullet /Euro /bullet
/quotesinglbase /florin /quotedblbase /ellipsis /dagger
/daggerdbl /circumflex /perthousand /Scaron /guilsinglleft
/OE /bullet /Zcaron /bullet /bullet
/quoteleft /quoteright /quotedblleft /quotedblright /bullet
/endash /emdash /asciitilde /trademark /scaron
/guilsinglright /oe /bullet /zcaron /Ydieresis
/space /exclamdown /cent /sterling /currency
/yen /brokenbar /section /dieresis /copyright
/ordfeminine /guillemotleft /logicalnot /sfthyphen /registered
/macron /degree /plusminus /twosuperior /threesuperior
/acute /mu /paragraph /middot /cedilla
/onesuperior /ordmasculine /guillemotright /onequarter /onehalf
/threequarters /questiondown /Agrave /Aacute /Acircumflex
/Atilde /Adieresis /Aring /AE /Ccedilla
/Egrave /Eacute /Ecircumflex /Edieresis /Igrave
/Iacute /Icircumflex /Idieresis /Eth /Ntilde
/Ograve /Oacute /Ocircumflex /Otilde /Odieresis
/multiply /Oslash /Ugrave /Uacute /Ucircumflex
/Udieresis /Yacute /Thorn /germandbls /agrave
/aacute /acircumflex /atilde /adieresis /aring
/ae /ccedilla /egrave /eacute /ecircumflex
/edieresis /igrave /iacute /icircumflex /idieresis
/eth /ntilde /ograve /oacute /ocircumflex
/otilde /odieresis /divide /oslash /ugrave
/uacute /ucircumflex /udieresis /yacute /thorn
/ydieresis
] def
%%EndResource
%FOPBeginFontReencode
/Courier-Oblique findfont
dup length dict begin
  {1 index /FID ne {def} {pop pop} ifelse} forall
  /Encoding WinAnsiEncoding def
  currentdict
end
/Courier-Oblique exch definefont pop
/Courier-BoldOblique findfont
dup length dict begin
  {1 index /FID ne {def} {pop pop} ifelse} forall
  /Encoding WinAnsiEncoding def
  currentdict
end
/Courier-BoldOblique exch definefont pop
/Courier-Bold findfont
dup length dict begin
  {1 index /FID ne {def} {pop pop} ifelse} forall
  /Encoding WinAnsiEncoding def
  currentdict
end
/Courier-Bold exch definefont pop
/Helvetica findfont
dup length dict begin
  {1 index /FID ne {def} {pop pop} ifelse} forall
  /Encoding WinAnsiEncoding def
  currentdict
end
/Helvetica exch definefont pop
/Helvetica-Oblique findfont
dup length dict begin
  {1 index /FID ne {def} {pop pop} ifelse} forall
  /Encoding WinAnsiEncoding def
  currentdict
end
/Helvetica-Oblique exch definefont pop
/Helvetica-Bold findfont
dup length dict begin
  {1 index /FID ne {def} {pop pop} ifelse} forall
  /Encoding WinAnsiEncoding def
  currentdict
end
/Helvetica-Bold exch definefont pop
/Helvetica-BoldOblique findfont
dup length dict begin
  {1 index /FID ne {def} {pop pop} ifelse} forall
  /Encoding WinAnsiEncoding def
  currentdict
end
/Helvetica-BoldOblique exch definefont pop
/Times-Roman findfont
dup length dict begin
  {1 index /FID ne {def} {pop pop} ifelse} forall
  /Encoding WinAnsiEncoding def
  currentdict
end
/Times-Roman exch definefont pop
/Times-Italic findfont
dup length dict begin
  {1 index /FID ne {def} {pop pop} ifelse} forall
  /Encoding WinAnsiEncoding def
  currentdict
end
/Times-Italic exch definefont pop
/Times-Bold findfont
dup length dict begin
  {1 index /FID ne {def} {pop pop} ifelse} forall
  /Encoding WinAnsiEncoding def
  currentdict
end
/Times-Bold exch definefont pop
/Times-BoldItalic findfont
dup length dict begin
  {1 index /FID ne {def} {pop pop} ifelse} forall
  /Encoding WinAnsiEncoding def
  currentdict
end
/Times-BoldItalic exch definefont pop
/Courier findfont
dup length dict begin
  {1 index /FID ne {def} {pop pop} ifelse} forall
  /Encoding WinAnsiEncoding def
  currentdict
end
/Courier exch definefont pop
%FOPEndFontReencode
%%EndProlog
%%Page: 1 1
%%PageBoundingBox: 0 0 600 240
%%BeginPageSetup
[1 0 0 -1 0 240] CT
%%EndPageSetup
GS
[0.6 0 0 0.6 0 0] CT
1 GC
N
0 0 1000 400 re
f
GR
GS
[0.6 0 0 0.6 0 0] CT
1 GC
N
0 0 1000 400 re
f
GR
GS
[0.6 0 0 0.6 0 0] CT
1 GC
N
130 347 M
905 347 L
905 30 L
130 30 L
cp
f
GR
GS
[0.6 0 0 0.6 0 0] CT
0.775 GC
[1 3] 0 setdash
2 LJ
0.833 LW
N
194.583 347 M
194.583 30 L
S
GR
GS
[0.6 0 0 0.6 0 0] CT
0.775 GC
[1 3] 0 setdash
2 LJ
0.833 LW
N
259.167 347 M
259.167 30 L
S
GR
GS
[0.6 0 0 0.6 0 0] CT
0.775 GC
[1 3] 0 setdash
2 LJ
0.833 LW
N
323.75 347 M
323.75 30 L
S
GR
GS
[0.6 0 0 0.6 0 0] CT
0.775 GC
[1 3] 0 setdash
2 LJ
0.833 LW
N
452.917 347 M
452.917 30 L
S
GR
GS
[0.6 0 0 0.6 0 0] CT
0.775 GC
[1 3] 0 setdash
2 LJ
0.833 LW
N
517.5 347 M
517.5 30 L
S
GR
GS
[0.6 0 0 0.6 0 0] CT
0.775 GC
[1 3] 0 setdash
2 LJ
0.833 LW
N
582.083 347 M
582.083 30 L
S
GR
GS
[0.6 0 0 0.6 0 0] CT
0.775 GC
[1 3] 0 setdash
2 LJ
0.833 LW
N
711.25 347 M
711.25 30 L
S
GR
GS
[0.6 0 0 0.6 0 0] CT
0.775 GC
[1 3] 0 setdash
2 LJ
0.833 LW
N
775.833 347 M
775.833 30 L
S
GR
GS
[0.6 0 0 0.6 0 0] CT
0.775 GC
[1 3] 0 setdash
2 LJ
0.833 LW
N
840.417 347 M
840.417 30 L
S
GR
GS
[0.6 0 0 0.6 0 0] CT
0.873 GC
1 LJ
0.833 LW
N
130 347 M
130 30 L
S
GR
GS
[0.6 0 0 0.6 0 0] CT
0.873 GC
1 LJ
0.833 LW
N
388.333 347 M
388.333 30 L
S
GR
GS
[0.6 0 0 0.6 0 0] CT
0.873 GC
1 LJ
0.833 LW
N
646.667 347 M
646.667 30 L
S
GR
GS
[0.6 0 0 0.6 0 0] CT
0.873 GC
1 LJ
0.833 LW
N
905 347 M
905 30 L
S
GR
GS
[0.6 0 0 0.6 0 0] CT
0.873 GC
1 LJ
0.833 LW
N
905 188.5 M
130 188.5 L
S
GR
GS
[0.6 0 0 0.6 0 0] CT
0.149 GC
2 setlinecap
1 LJ
0.833 LW
N
130 347 M
905 347 L
S
GR
GS
[0.6 0 0 0.6 0 0] CT
0.149 GC
2 setlinecap
1 LJ
0.833 LW
N
130 30 M
905 30 L
S
GR
GS
[0.6 0 0 0.6 0 0] CT
0.149 GC
2 setlinecap
1 LJ
0.833 LW
N
130 347 M
130 339.25 L
S
GR
GS
[0.6 0 0 0.6 0 0] CT
0.149 GC
2 setlinecap
1 LJ
0.833 LW
N
388.333 347 M
388.333 339.25 L
S
GR
GS
[0.6 0 0 0.6 0 0] CT
0.149 GC
2 setlinecap
1 LJ
0.833 LW
N
646.667 347 M
646.667 339.25 L
S
GR
GS
[0.6 0 0 0.6 0 0] CT
0.149 GC
2 setlinecap
1 LJ
0.833 LW
N
905 347 M
905 339.25 L
S
GR
GS
[0.6 0 0 0.6 0 0] CT
0.149 GC
2 setlinecap
1 LJ
0.833 LW
N
130 30 M
130 37.75 L
S
GR
GS
[0.6 0 0 0.6 0 0] CT
0.149 GC
2 setlinecap
1 LJ
0.833 LW
N
388.333 30 M
388.333 37.75 L
S
GR
GS
[0.6 0 0 0.6 0 0] CT
0.149 GC
2 setlinecap
1 LJ
0.833 LW
N
646.667 30 M
646.667 37.75 L
S
GR
GS
[0.6 0 0 0.6 0 0] CT
0.149 GC
2 setlinecap
1 LJ
0.833 LW
N
905 30 M
905 37.75 L
S
GR
GS
[0.6 0 0 0.6 78 212.19999] CT
0.149 GC
/Helvetica 16.667 F
GS
[1 0 0 1 0 0] CT
-7.5 17 moveto 
1 -1 scale
(-1) t 
GR
GR
GS
[0.6 0 0 0.6 233.00001 212.19999] CT
0.149 GC
/Helvetica 16.667 F
GS
[1 0 0 1 0 0] CT
-23.5 17 moveto 
1 -1 scale
( 1  | -1) t 
GR
GR
GS
[0.6 0 0 0.6 388.00001 212.19999] CT
0.149 GC
/Helvetica 16.667 F
GS
[1 0 0 1 0 0] CT
-23.5 17 moveto 
1 -1 scale
( 1  | -1) t 
GR
GR
GS
[0.6 0 0 0.6 543 212.19999] CT
0.149 GC
/Helvetica 16.667 F
GS
[1 0 0 1 0 0] CT
-5 17 moveto 
1 -1 scale
(1) t 
GR
GR
GS
[0.6 0 0 0.6 224.4 237] CT
0.149 GC
/Helvetica 18.333 F
GS
[1 0 0 1 0 0] CT
0 0 moveto 
1 -1 scale
(Normalized independent variable, ) t 
GR
GR
GS
[0.6 0 0 0.6 391.2 237] CT
0.149 GC
N
2.797 -0.266 M
2.797 -0.391 2.828 -0.469 QT
4.719 -6.641 L
3.094 -6.641 L
2.438 -6.641 1.867 -6.227 QT
1.297 -5.813 0.922 -5.188 QT
0.875 -5.109 0.813 -5.109 QT
0.594 -5.109 L
0.438 -5.109 0.438 -5.297 QT
0.438 -5.328 0.469 -5.391 QT
1.063 -6.406 1.734 -7.086 QT
2.406 -7.766 3.25 -7.766 QT
8.766 -7.766 L
8.953 -7.766 9.086 -7.633 QT
9.219 -7.5 9.219 -7.297 QT
9.219 -7.047 9.031 -6.844 QT
8.844 -6.641 8.563 -6.641 QT
5.313 -6.641 L
4.109 -0.438 L
4.031 -0.141 3.836 0.047 QT
3.641 0.234 3.344 0.234 QT
3.125 0.234 2.961 0.094 QT
2.797 -0.047 2.797 -0.266 QT
cp
f
GR
GS
[0.6 0 0 0.6 0 0] CT
0.149 GC
2 setlinecap
1 LJ
0.833 LW
N
130 347 M
130 30 L
S
GR
GS
[0.6 0 0 0.6 0 0] CT
0.149 GC
2 setlinecap
1 LJ
0.833 LW
N
905 347 M
905 30 L
S
GR
GS
[0.6 0 0 0.6 0 0] CT
0.149 GC
2 setlinecap
1 LJ
0.833 LW
N
130 188.5 M
137.75 188.5 L
S
GR
GS
[0.6 0 0 0.6 0 0] CT
0.149 GC
2 setlinecap
1 LJ
0.833 LW
N
905 188.5 M
897.25 188.5 L
S
GR
GS
[0.6 0 0 0.6 310.50029 16.35] CT
/Helvetica-Bold 18.333 F
GS
[1 0 0 1 0 0] CT
-171 -5 moveto 
1 -1 scale
(Multiphase Collocation Nodes Example) t 
GR
GR
GS
[0.6 0 0 0.6 86.85115 113.1] CT
1 0 0 RC
10.0 ML
2.5 LW
N
0 -6.665 M
-5.772 3.332 L
5.772 3.332 L
cp
S
GR
GS
[0.6 0 0 0.6 120.91067 113.1] CT
1 0 0 RC
10.0 ML
2.5 LW
N
0 -6.665 M
-5.772 3.332 L
5.772 3.332 L
cp
S
GR
GS
[0.6 0 0 0.6 168.45652 113.1] CT
1 0 0 RC
10.0 ML
2.5 LW
N
0 -6.665 M
-5.772 3.332 L
5.772 3.332 L
cp
S
GR
GS
[0.6 0 0 0.6 211.33722 113.1] CT
1 0 0 RC
10.0 ML
2.5 LW
N
0 -6.665 M
-5.772 3.332 L
5.772 3.332 L
cp
S
GR
GS
[0.6 0 0 0.6 233.00001 113.1] CT
1 0 0 RC
10.0 ML
2.5 LW
N
0 -6.665 M
-5.772 3.332 L
5.772 3.332 L
cp
S
GR
GS
[0.6 0 0 0.6 241.85116 113.1] CT
0 1 0 RC
10.0 ML
2.5 LW
N
0 6.665 M
-5.772 -3.332 L
5.772 -3.332 L
cp
S
GR
GS
[0.6 0 0 0.6 275.91068 113.1] CT
0 1 0 RC
10.0 ML
2.5 LW
N
0 6.665 M
-5.772 -3.332 L
5.772 -3.332 L
cp
S
GR
GS
[0.6 0 0 0.6 323.45651 113.1] CT
0 1 0 RC
10.0 ML
2.5 LW
N
0 6.665 M
-5.772 -3.332 L
5.772 -3.332 L
cp
S
GR
GS
[0.6 0 0 0.6 366.33721 113.1] CT
0 1 0 RC
10.0 ML
2.5 LW
N
0 6.665 M
-5.772 -3.332 L
5.772 -3.332 L
cp
S
GR
GS
[0.6 0 0 0.6 388.00001 113.1] CT
0 1 0 RC
10.0 ML
2.5 LW
N
0 6.665 M
-5.772 -3.332 L
5.772 -3.332 L
cp
S
GR
GS
[0.6 0 0 0.6 396.85115 113.1] CT
0 0 1 RC
N
0 -3.75 M
2.071 -3.75 3.75 -2.071 3.75 0 C
3.75 0 L
3.75 2.071 2.071 3.75 0 3.75 C
-2.071 3.75 -3.75 2.071 -3.75 0 C
-3.75 -2.071 -2.071 -3.75 0 -3.75 C
cp
0 -6.25 M
-3.452 -6.25 -6.25 -3.452 -6.25 0 C
-6.25 3.452 -3.452 6.25 0 6.25 C
3.452 6.25 6.25 3.452 6.25 0 C
6.25 0 L
6.25 -3.452 3.452 -6.25 0 -6.25 C
cp
f
GR
GS
[0.6 0 0 0.6 430.91067 113.1] CT
0 0 1 RC
N
/f875706288{0 -3.75 M
2.071 -3.75 3.75 -2.071 3.75 0 C
3.75 0 L
3.75 2.071 2.071 3.75 0 3.75 C
-2.071 3.75 -3.75 2.071 -3.75 0 C
-3.75 -2.071 -2.071 -3.75 0 -3.75 C
cp
0 -6.25 M
-3.452 -6.25 -6.25 -3.452 -6.25 0 C
-6.25 3.452 -3.452 6.25 0 6.25 C
3.452 6.25 6.25 3.452 6.25 0 C
6.25 0 L
6.25 -3.452 3.452 -6.25 0 -6.25 C
cp}def
f875706288
f
GR
GS
[0.6 0 0 0.6 478.45653 113.1] CT
0 0 1 RC
N
f875706288
f
GR
GS
[0.6 0 0 0.6 521.33723 113.1] CT
0 0 1 RC
N
f875706288
f
GR
GS
[0.6 0 0 0.6 543 113.1] CT
0 0 1 RC
N
f875706288
f
GR
GS
[0.6 0 0 0.6 0 0] CT
1 GC
N
892 110 M
892 43 L
772 43 L
772 110 L
cp
f
GR
GS
[0.6 0 0 0.6 498.52357 33.3849] CT
/Helvetica 15 F
GS
[1 0 0 1 0 0] CT
0 6 moveto 
1 -1 scale
(Phase 1) t 
GR
GR
GS
[0.6 0 0 0.6 481.23757 33.38491] CT
1 0 0 RC
10.0 ML
2.5 LW
N
0 -6.665 M
-5.772 3.332 L
5.772 3.332 L
cp
S
GR
GS
[0.6 0 0 0.6 498.52357 45.9] CT
/Helvetica 15 F
GS
[1 0 0 1 0 0] CT
0 6 moveto 
1 -1 scale
(Phase 2) t 
GR
GR
GS
[0.6 0 0 0.6 481.23757 45.9] CT
0 1 0 RC
10.0 ML
2.5 LW
N
0 6.665 M
-5.772 -3.332 L
5.772 -3.332 L
cp
S
GR
GS
[0.6 0 0 0.6 498.52357 58.41509] CT
/Helvetica 15 F
GS
[1 0 0 1 0 0] CT
0 6 moveto 
1 -1 scale
(Phase 3) t 
GR
GR
GS
[0.6 0 0 0.6 481.23757 58.41509] CT
0 0 1 RC
N
f875706288
f
GR
GS
[0.6 0 0 0.6 0 0] CT
0.149 GC
10.0 ML
0.833 LW
N
772 110 M
772 43 L
892 43 L
892 110 L
cp
S
GR
%%Trailer
%%Pages: 1
%%EOF
